<?xml version="1.0" encoding="UTF-8"?>
<svg xmlns="http://www.w3.org/2000/svg"
     xmlns:xlink="http://www.w3.org/1999/xlink"
     xmlns:gadfly="http://www.gadflyjl.org/ns"
     version="1.2"
     width="160mm" height="120mm" viewBox="0 0 160 120"
     stroke="none"
     fill="#000000"
     stroke-width="0.3"
     font-size="3.88"
>
<defs>
  <marker id="arrow" markerWidth="15" markerHeight="7" refX="5" refY="3.5" orient="auto" markerUnits="strokeWidth">
    <path d="M0,0 L15,3.5 L0,7 z" stroke="context-stroke" fill="context-stroke"/>
  </marker>
</defs>
<g class="plotroot xscalable yscalable" id="img-d0fd9980-1">
  <g class="guide xlabels" font-size="2.82" font-family="'PT Sans Caption','Helvetica Neue','Helvetica',sans-serif" fill="#6C606B" id="img-d0fd9980-2">
    <g transform="translate(12.35,111.33)">
      <g class="primitive">
        <text text-anchor="middle" dy="0.6em">-1.0</text>
      </g>
    </g>
    <g transform="translate(40.48,111.33)">
      <g class="primitive">
        <text text-anchor="middle" dy="0.6em">-0.5</text>
      </g>
    </g>
    <g transform="translate(68.61,111.33)">
      <g class="primitive">
        <text text-anchor="middle" dy="0.6em">0.0</text>
      </g>
    </g>
    <g transform="translate(96.74,111.33)">
      <g class="primitive">
        <text text-anchor="middle" dy="0.6em">0.5</text>
      </g>
    </g>
    <g transform="translate(124.87,111.33)">
      <g class="primitive">
        <text text-anchor="middle" dy="0.6em">1.0</text>
      </g>
    </g>
    <g transform="translate(153,111.33)">
      <g class="primitive">
        <text text-anchor="middle" dy="0.6em">1.5</text>
      </g>
    </g>
  </g>
  <g clip-path="url(#img-d0fd9980-3)">
    <g id="img-d0fd9980-4">
      <g pointer-events="visible" stroke-width="0.3" fill="#000000" fill-opacity="0.000" stroke="#000000" stroke-opacity="0.000" class="guide background" id="img-d0fd9980-5">
        <g transform="translate(82.67,57.66)" id="img-d0fd9980-6">
          <path d="M-72.33,-52.66 L72.33,-52.66 72.33,52.66 -72.33,52.66  z" class="primitive"/>
        </g>
      </g>
      <g class="guide ygridlines xfixed" stroke-dasharray="0.5,0.5" stroke-width="0.2" stroke="#D0D0E0" id="img-d0fd9980-7">
        <g transform="translate(82.67,108.33)" id="img-d0fd9980-8">
          <path fill="none" d="M-72.33,0 L72.33,0 " class="primitive"/>
        </g>
        <g transform="translate(82.67,74.55)" id="img-d0fd9980-9">
          <path fill="none" d="M-72.33,0 L72.33,0 " class="primitive"/>
        </g>
        <g transform="translate(82.67,40.78)" id="img-d0fd9980-10">
          <path fill="none" d="M-72.33,0 L72.33,0 " class="primitive"/>
        </g>
        <g transform="translate(82.67,7)" id="img-d0fd9980-11">
          <path fill="none" d="M-72.33,0 L72.33,0 " class="primitive"/>
        </g>
      </g>
      <g class="guide xgridlines yfixed" stroke-dasharray="0.5,0.5" stroke-width="0.2" stroke="#D0D0E0" id="img-d0fd9980-12">
        <g transform="translate(12.35,57.66)" id="img-d0fd9980-13">
          <path fill="none" d="M0,-52.66 L0,52.66 " class="primitive"/>
        </g>
        <g transform="translate(40.48,57.66)" id="img-d0fd9980-14">
          <path fill="none" d="M0,-52.66 L0,52.66 " class="primitive"/>
        </g>
        <g transform="translate(68.61,57.66)" id="img-d0fd9980-15">
          <path fill="none" d="M0,-52.66 L0,52.66 " class="primitive"/>
        </g>
        <g transform="translate(96.74,57.66)" id="img-d0fd9980-16">
          <path fill="none" d="M0,-52.66 L0,52.66 " class="primitive"/>
        </g>
        <g transform="translate(124.87,57.66)" id="img-d0fd9980-17">
          <path fill="none" d="M0,-52.66 L0,52.66 " class="primitive"/>
        </g>
        <g transform="translate(153,57.66)" id="img-d0fd9980-18">
          <path fill="none" d="M0,-52.66 L0,52.66 " class="primitive"/>
        </g>
      </g>
      <g class="plotpanel" id="img-d0fd9980-19">
        <metadata>
          <boundingbox value="10.346666666666664mm 5.0mm 144.65333333333334mm 105.32666666666665mm"/>
          <unitbox value="-1.0355483932126268 15.296072110007238 2.5710967864252536 -15.592144220014475"/>
        </metadata>
        <g stroke-width="0.3" fill="#000000" fill-opacity="0.000" class="geometry" id="img-d0fd9980-20">
          <g class="color_LCHab{Float32}(70.0f0,60.0f0,240.0f0)" stroke-dasharray="none" stroke="#00BFFF" id="img-d0fd9980-21">
            <g transform="translate(77.72,65.76)" id="img-d0fd9980-22">
              <path fill="none" d="M-49.06,35.3 L-49.02,35.26 -48.98,35.22 -48.94,35.18 -48.9,35.14 -48.86,35.1 -48.82,35.05 -48.78,35.01 -48.74,34.97 -48.7,34.93 -48.66,34.89 -48.63,34.85 -48.59,34.81 -48.55,34.77 -48.51,34.73 -48.47,34.68 -48.43,34.64 -48.39,34.6 -48.35,34.56 -48.31,34.52 -48.27,34.47 -48.23,34.43 -48.19,34.39 -48.15,34.35 -48.11,34.3 -48.08,34.26 -48.04,34.22 -48,34.17 -47.96,34.13 -47.92,34.09 -47.88,34.04 -47.84,34 -47.8,33.96 -47.76,33.91 -47.72,33.87 -47.68,33.82 -47.64,33.78 -47.6,33.74 -47.57,33.69 -47.53,33.65 -47.49,33.6 -47.45,33.56 -47.41,33.51 -47.37,33.47 -47.33,33.42 -47.29,33.38 -47.25,33.33 -47.21,33.29 -47.17,33.24 -47.13,33.19 -47.09,33.15 -47.05,33.1 -47.02,33.06 -46.98,33.01 -46.94,32.96 -46.9,32.92 -46.86,32.87 -46.82,32.82 -46.78,32.78 -46.74,32.73 -46.7,32.68 -46.66,32.64 -46.62,32.59 -46.58,32.54 -46.54,32.49 -46.51,32.45 -46.47,32.4 -46.43,32.35 -46.39,32.3 -46.35,32.25 -46.31,32.2 -46.27,32.16 -46.23,32.11 -46.19,32.06 -46.15,32.01 -46.11,31.96 -46.07,31.91 -46.03,31.86 -45.99,31.81 -45.96,31.76 -45.92,31.71 -45.88,31.67 -45.84,31.62 -45.8,31.57 -45.76,31.52 -45.72,31.47 -45.68,31.42 -45.64,31.36 -45.6,31.31 -45.56,31.26 -45.52,31.21 -45.48,31.16 -45.45,31.11 -45.41,31.06 -45.37,31.01 -45.33,30.96 -45.29,30.91 -45.25,30.85 -45.21,30.8 -45.17,30.75 -45.13,30.7 -45.09,30.65 -45.05,30.59 -45.01,30.54 -44.97,30.49 -44.93,30.44 -44.9,30.38 -44.86,30.33 -44.82,30.28 -44.78,30.23 -44.74,30.17 -44.7,30.12 -44.66,30.07 -44.62,30.01 -44.58,29.96 -44.54,29.91 -44.5,29.85 -44.46,29.8 -44.42,29.74 -44.39,29.69 -44.35,29.64 -44.31,29.58 -44.27,29.53 -44.23,29.47 -44.19,29.42 -44.15,29.36 -44.11,29.31 -44.07,29.25 -44.03,29.2 -43.99,29.14 -43.95,29.09 -43.91,29.03 -43.87,28.97 -43.84,28.92 -43.8,28.86 -43.76,28.81 -43.72,28.75 -43.68,28.69 -43.64,28.64 -43.6,28.58 -43.56,28.52 -43.52,28.47 -43.48,28.41 -43.44,28.35 -43.4,28.3 -43.36,28.24 -43.33,28.18 -43.29,28.13 -43.25,28.07 -43.21,28.01 -43.17,27.95 -43.13,27.89 -43.09,27.84 -43.05,27.78 -43.01,27.72 -42.97,27.66 -42.93,27.6 -42.89,27.54 -42.85,27.49 -42.81,27.43 -42.78,27.37 -42.74,27.31 -42.7,27.25 -42.66,27.19 -42.62,27.13 -42.58,27.07 -42.54,27.01 -42.5,26.95 -42.46,26.89 -42.42,26.83 -42.38,26.77 -42.34,26.71 -42.3,26.65 -42.26,26.59 -42.23,26.53 -42.19,26.47 -42.15,26.41 -42.11,26.35 -42.07,26.29 -42.03,26.23 -41.99,26.17 -41.95,26.1 -41.91,26.04 -41.87,25.98 -41.83,25.92 -41.79,25.86 -41.75,25.8 -41.72,25.73 -41.68,25.67 -41.64,25.61 -41.6,25.55 -41.56,25.49 -41.52,25.42 -41.48,25.36 -41.44,25.3 -41.4,25.23 -41.36,25.17 -41.32,25.11 -41.28,25.05 -41.24,24.98 -41.2,24.92 -41.17,24.86 -41.13,24.79 -41.09,24.73 -41.05,24.66 -41.01,24.6 -40.97,24.54 -40.93,24.47 -40.89,24.41 -40.85,24.34 -40.81,24.28 -40.77,24.22 -40.73,24.15 -40.69,24.09 -40.66,24.02 -40.62,23.96 -40.58,23.89 -40.54,23.83 -40.5,23.76 -40.46,23.7 -40.42,23.63 -40.38,23.56 -40.34,23.5 -40.3,23.43 -40.26,23.37 -40.22,23.3 -40.18,23.24 -40.14,23.17 -40.11,23.1 -40.07,23.04 -40.03,22.97 -39.99,22.9 -39.95,22.84 -39.91,22.77 -39.87,22.7 -39.83,22.64 -39.79,22.57 -39.75,22.5 -39.71,22.43 -39.67,22.37 -39.63,22.3 -39.6,22.23 -39.56,22.16 -39.52,22.1 -39.48,22.03 -39.44,21.96 -39.4,21.89 -39.36,21.82 -39.32,21.76 -39.28,21.69 -39.24,21.62 -39.2,21.55 -39.16,21.48 -39.12,21.41 -39.08,21.34 -39.05,21.27 -39.01,21.21 -38.97,21.14 -38.93,21.07 -38.89,21 -38.85,20.93 -38.81,20.86 -38.77,20.79 -38.73,20.72 -38.69,20.65 -38.65,20.58 -38.61,20.51 -38.57,20.44 -38.54,20.37 -38.5,20.3 -38.46,20.23 -38.42,20.16 -38.38,20.09 -38.34,20.02 -38.3,19.95 -38.26,19.88 -38.22,19.8 -38.18,19.73 -38.14,19.66 -38.1,19.59 -38.06,19.52 -38.02,19.45 -37.99,19.38 -37.95,19.31 -37.91,19.23 -37.87,19.16 -37.83,19.09 -37.79,19.02 -37.75,18.95 -37.71,18.87 -37.67,18.8 -37.63,18.73 -37.59,18.66 -37.55,18.58 -37.51,18.51 -37.48,18.44 -37.44,18.37 -37.4,18.29 -37.36,18.22 -37.32,18.15 -37.28,18.07 -37.24,18 -37.2,17.93 -37.16,17.86 -37.12,17.78 -37.08,17.71 -37.04,17.63 -37,17.56 -36.96,17.49 -36.93,17.41 -36.89,17.34 -36.85,17.27 -36.81,17.19 -36.77,17.12 -36.73,17.04 -36.69,16.97 -36.65,16.89 -36.61,16.82 -36.57,16.75 -36.53,16.67 -36.49,16.6 -36.45,16.52 -36.42,16.45 -36.38,16.37 -36.34,16.3 -36.3,16.22 -36.26,16.15 -36.22,16.07 -36.18,15.99 -36.14,15.92 -36.1,15.84 -36.06,15.77 -36.02,15.69 -35.98,15.62 -35.94,15.54 -35.9,15.47 -35.87,15.39 -35.83,15.31 -35.79,15.24 -35.75,15.16 -35.71,15.08 -35.67,15.01 -35.63,14.93 -35.59,14.86 -35.55,14.78 -35.51,14.7 -35.47,14.63 -35.43,14.55 -35.39,14.47 -35.35,14.39 -35.32,14.32 -35.28,14.24 -35.24,14.16 -35.2,14.09 -35.16,14.01 -35.12,13.93 -35.08,13.85 -35.04,13.78 -35,13.7 -34.96,13.62 -34.92,13.54 -34.88,13.47 -34.84,13.39 -34.81,13.31 -34.77,13.23 -34.73,13.15 -34.69,13.08 -34.65,13 -34.61,12.92 -34.57,12.84 -34.53,12.76 -34.49,12.68 -34.45,12.61 -34.41,12.53 -34.37,12.45 -34.33,12.37 -34.29,12.29 -34.26,12.21 -34.22,12.13 -34.18,12.06 -34.14,11.98 -34.1,11.9 -34.06,11.82 -34.02,11.74 -33.98,11.66 -33.94,11.58 -33.9,11.5 -33.86,11.42 -33.82,11.34 -33.78,11.26 -33.75,11.18 -33.71,11.1 -33.67,11.02 -33.63,10.94 -33.59,10.86 -33.55,10.78 -33.51,10.7 -33.47,10.62 -33.43,10.54 -33.39,10.46 -33.35,10.38 -33.31,10.3 -33.27,10.22 -33.23,10.14 -33.2,10.06 -33.16,9.98 -33.12,9.9 -33.08,9.82 -33.04,9.74 -33,9.66 -32.96,9.58 -32.92,9.5 -32.88,9.42 -32.84,9.34 -32.8,9.26 -32.76,9.18 -32.72,9.09 -32.69,9.01 -32.65,8.93 -32.61,8.85 -32.57,8.77 -32.53,8.69 -32.49,8.61 -32.45,8.53 -32.41,8.45 -32.37,8.36 -32.33,8.28 -32.29,8.2 -32.25,8.12 -32.21,8.04 -32.17,7.96 -32.14,7.87 -32.1,7.79 -32.06,7.71 -32.02,7.63 -31.98,7.55 -31.94,7.47 -31.9,7.38 -31.86,7.3 -31.82,7.22 -31.78,7.14 -31.74,7.06 -31.7,6.97 -31.66,6.89 -31.63,6.81 -31.59,6.73 -31.55,6.64 -31.51,6.56 -31.47,6.48 -31.43,6.4 -31.39,6.32 -31.35,6.23 -31.31,6.15 -31.27,6.07 -31.23,5.99 -31.19,5.9 -31.15,5.82 -31.11,5.74 -31.08,5.65 -31.04,5.57 -31,5.49 -30.96,5.41 -30.92,5.32 -30.88,5.24 -30.84,5.16 -30.8,5.08 -30.76,4.99 -30.72,4.91 -30.68,4.83 -30.64,4.74 -30.6,4.66 -30.57,4.58 -30.53,4.49 -30.49,4.41 -30.45,4.33 -30.41,4.24 -30.37,4.16 -30.33,4.08 -30.29,3.99 -30.25,3.91 -30.21,3.83 -30.17,3.74 -30.13,3.66 -30.09,3.58 -30.05,3.49 -30.02,3.41 -29.98,3.33 -29.94,3.24 -29.9,3.16 -29.86,3.08 -29.82,2.99 -29.78,2.91 -29.74,2.83 -29.7,2.74 -29.66,2.66 -29.62,2.58 -29.58,2.49 -29.54,2.41 -29.51,2.32 -29.47,2.24 -29.43,2.16 -29.39,2.07 -29.35,1.99 -29.31,1.91 -29.27,1.82 -29.23,1.74 -29.19,1.65 -29.15,1.57 -29.11,1.49 -29.07,1.4 -29.03,1.32 -28.99,1.24 -28.96,1.15 -28.92,1.07 -28.88,0.98 -28.84,0.9 -28.8,0.82 -28.76,0.73 -28.72,0.65 -28.68,0.56 -28.64,0.48 -28.6,0.4 -28.56,0.31 -28.52,0.23 -28.48,0.14 -28.44,0.06 -28.41,-0.02 -28.37,-0.11 -28.33,-0.19 -28.29,-0.28 -28.25,-0.36 -28.21,-0.44 -28.17,-0.53 -28.13,-0.61 -28.09,-0.7 -28.05,-0.78 -28.01,-0.86 -27.97,-0.95 -27.93,-1.03 -27.9,-1.12 -27.86,-1.2 -27.82,-1.28 -27.78,-1.37 -27.74,-1.45 -27.7,-1.54 -27.66,-1.62 -27.62,-1.7 -27.58,-1.79 -27.54,-1.87 -27.5,-1.96 -27.46,-2.04 -27.42,-2.12 -27.38,-2.21 -27.35,-2.29 -27.31,-2.37 -27.27,-2.46 -27.23,-2.54 -27.19,-2.63 -27.15,-2.71 -27.11,-2.79 -27.07,-2.88 -27.03,-2.96 -26.99,-3.05 -26.95,-3.13 -26.91,-3.21 -26.87,-3.3 -26.84,-3.38 -26.8,-3.47 -26.76,-3.55 -26.72,-3.63 -26.68,-3.72 -26.64,-3.8 -26.6,-3.88 -26.56,-3.97 -26.52,-4.05 -26.48,-4.14 -26.44,-4.22 -26.4,-4.3 -26.36,-4.39 -26.32,-4.47 -26.29,-4.55 -26.25,-4.64 -26.21,-4.72 -26.17,-4.8 -26.13,-4.89 -26.09,-4.97 -26.05,-5.05 -26.01,-5.14 -25.97,-5.22 -25.93,-5.31 -25.89,-5.39 -25.85,-5.47 -25.81,-5.56 -25.78,-5.64 -25.74,-5.72 -25.7,-5.81 -25.66,-5.89 -25.62,-5.97 -25.58,-6.05 -25.54,-6.14 -25.5,-6.22 -25.46,-6.3 -25.42,-6.39 -25.38,-6.47 -25.34,-6.55 -25.3,-6.64 -25.26,-6.72 -25.23,-6.8 -25.19,-6.89 -25.15,-6.97 -25.11,-7.05 -25.07,-7.13 -25.03,-7.22 -24.99,-7.3 -24.95,-7.38 -24.91,-7.46 -24.87,-7.55 -24.83,-7.63 -24.79,-7.71 -24.75,-7.8 -24.72,-7.88 -24.68,-7.96 -24.64,-8.04 -24.6,-8.13 -24.56,-8.21 -24.52,-8.29 -24.48,-8.37 -24.44,-8.45 -24.4,-8.54 -24.36,-8.62 -24.32,-8.7 -24.28,-8.78 -24.24,-8.86 -24.2,-8.95 -24.17,-9.03 -24.13,-9.11 -24.09,-9.19 -24.05,-9.27 -24.01,-9.36 -23.97,-9.44 -23.93,-9.52 -23.89,-9.6 -23.85,-9.68 -23.81,-9.76 -23.77,-9.85 -23.73,-9.93 -23.69,-10.01 -23.66,-10.09 -23.62,-10.17 -23.58,-10.25 -23.54,-10.33 -23.5,-10.41 -23.46,-10.5 -23.42,-10.58 -23.38,-10.66 -23.34,-10.74 -23.3,-10.82 -23.26,-10.9 -23.22,-10.98 -23.18,-11.06 -23.14,-11.14 -23.11,-11.22 -23.07,-11.3 -23.03,-11.38 -22.99,-11.47 -22.95,-11.55 -22.91,-11.63 -22.87,-11.71 -22.83,-11.79 -22.79,-11.87 -22.75,-11.95 -22.71,-12.03 -22.67,-12.11 -22.63,-12.19 -22.59,-12.27 -22.56,-12.35 -22.52,-12.43 -22.48,-12.51 -22.44,-12.59 -22.4,-12.66 -22.36,-12.74 -22.32,-12.82 -22.28,-12.9 -22.24,-12.98 -22.2,-13.06 -22.16,-13.14 -22.12,-13.22 -22.08,-13.3 -22.05,-13.38 -22.01,-13.46 -21.97,-13.54 -21.93,-13.61 -21.89,-13.69 -21.85,-13.77 -21.81,-13.85 -21.77,-13.93 -21.73,-14.01 -21.69,-14.09 -21.65,-14.16 -21.61,-14.24 -21.57,-14.32 -21.53,-14.4 -21.5,-14.48 -21.46,-14.55 -21.42,-14.63 -21.38,-14.71 -21.34,-14.79 -21.3,-14.86 -21.26,-14.94 -21.22,-15.02 -21.18,-15.1 -21.14,-15.17 -21.1,-15.25 -21.06,-15.33 -21.02,-15.41 -20.99,-15.48 -20.95,-15.56 -20.91,-15.64 -20.87,-15.71 -20.83,-15.79 -20.79,-15.87 -20.75,-15.94 -20.71,-16.02 -20.67,-16.1 -20.63,-16.17 -20.59,-16.25 -20.55,-16.32 -20.51,-16.4 -20.47,-16.48 -20.44,-16.55 -20.4,-16.63 -20.36,-16.7 -20.32,-16.78 -20.28,-16.85 -20.24,-16.93 -20.2,-17 -20.16,-17.08 -20.12,-17.15 -20.08,-17.23 -20.04,-17.3 -20,-17.38 -19.96,-17.45 -19.93,-17.53 -19.89,-17.6 -19.85,-17.68 -19.81,-17.75 -19.77,-17.83 -19.73,-17.9 -19.69,-17.97 -19.65,-18.05 -19.61,-18.12 -19.57,-18.2 -19.53,-18.27 -19.49,-18.34 -19.45,-18.42 -19.41,-18.49 -19.38,-18.56 -19.34,-18.64 -19.3,-18.71 -19.26,-18.78 -19.22,-18.86 -19.18,-18.93 -19.14,-19 -19.1,-19.07 -19.06,-19.15 -19.02,-19.22 -18.98,-19.29 -18.94,-19.36 -18.9,-19.44 -18.87,-19.51 -18.83,-19.58 -18.79,-19.65 -18.75,-19.72 -18.71,-19.79 -18.67,-19.87 -18.63,-19.94 -18.59,-20.01 -18.55,-20.08 -18.51,-20.15 -18.47,-20.22 -18.43,-20.29 -18.39,-20.36 -18.35,-20.43 -18.32,-20.5 -18.28,-20.57 -18.24,-20.64 -18.2,-20.72 -18.16,-20.79 -18.12,-20.86 -18.08,-20.92 -18.04,-20.99 -18,-21.06 -17.96,-21.13 -17.92,-21.2 -17.88,-21.27 -17.84,-21.34 -17.81,-21.41 -17.77,-21.48 -17.73,-21.55 -17.69,-21.62 -17.65,-21.69 -17.61,-21.75 -17.57,-21.82 -17.53,-21.89 -17.49,-21.96 -17.45,-22.03 -17.41,-22.09 -17.37,-22.16 -17.33,-22.23 -17.29,-22.3 -17.26,-22.36 -17.22,-22.43 -17.18,-22.5 -17.14,-22.57 -17.1,-22.63 -17.06,-22.7 -17.02,-22.77 -16.98,-22.83 -16.94,-22.9 -16.9,-22.97 -16.86,-23.03 -16.82,-23.1 -16.78,-23.16 -16.75,-23.23 -16.71,-23.29 -16.67,-23.36 -16.63,-23.43 -16.59,-23.49 -16.55,-23.56 -16.51,-23.62 -16.47,-23.69 -16.43,-23.75 -16.39,-23.81 -16.35,-23.88 -16.31,-23.94 -16.27,-24.01 -16.23,-24.07 -16.2,-24.14 -16.16,-24.2 -16.12,-24.26 -16.08,-24.33 -16.04,-24.39 -16,-24.45 -15.96,-24.52 -15.92,-24.58 -15.88,-24.64 -15.84,-24.71 -15.8,-24.77 -15.76,-24.83 -15.72,-24.89 -15.68,-24.95 -15.65,-25.02 -15.61,-25.08 -15.57,-25.14 -15.53,-25.2 -15.49,-25.26 -15.45,-25.32 -15.41,-25.39 -15.37,-25.45 -15.33,-25.51 -15.29,-25.57 -15.25,-25.63 -15.21,-25.69 -15.17,-25.75 -15.14,-25.81 -15.1,-25.87 -15.06,-25.93 -15.02,-25.99 -14.98,-26.05 -14.94,-26.11 -14.9,-26.17 -14.86,-26.23 -14.82,-26.29 -14.78,-26.35 -14.74,-26.4 -14.7,-26.46 -14.66,-26.52 -14.62,-26.58 -14.59,-26.64 -14.55,-26.7 -14.51,-26.75 -14.47,-26.81 -14.43,-26.87 -14.39,-26.93 -14.35,-26.98 -14.31,-27.04 -14.27,-27.1 -14.23,-27.15 -14.19,-27.21 -14.15,-27.27 -14.11,-27.32 -14.08,-27.38 -14.04,-27.44 -14,-27.49 -13.96,-27.55 -13.92,-27.6 -13.88,-27.66 -13.84,-27.71 -13.8,-27.77 -13.76,-27.82 -13.72,-27.88 -13.68,-27.93 -13.64,-27.99 -13.6,-28.04 -13.56,-28.1 -13.53,-28.15 -13.49,-28.2 -13.45,-28.26 -13.41,-28.31 -13.37,-28.36 -13.33,-28.42 -13.29,-28.47 -13.25,-28.52 -13.21,-28.58 -13.17,-28.63 -13.13,-28.68 -13.09,-28.73 -13.05,-28.79 -13.02,-28.84 -12.98,-28.89 -12.94,-28.94 -12.9,-28.99 -12.86,-29.04 -12.82,-29.09 -12.78,-29.15 -12.74,-29.2 -12.7,-29.25 -12.66,-29.3 -12.62,-29.35 -12.58,-29.4 -12.54,-29.45 -12.5,-29.5 -12.47,-29.55 -12.43,-29.6 -12.39,-29.64 -12.35,-29.69 -12.31,-29.74 -12.27,-29.79 -12.23,-29.84 -12.19,-29.89 -12.15,-29.94 -12.11,-29.98 -12.07,-30.03 -12.03,-30.08 -11.99,-30.13 -11.96,-30.18 -11.92,-30.22 -11.88,-30.27 -11.84,-30.32 -11.8,-30.36 -11.76,-30.41 -11.72,-30.46 -11.68,-30.5 -11.64,-30.55 -11.6,-30.59 -11.56,-30.64 -11.52,-30.68 -11.48,-30.73 -11.44,-30.77 -11.41,-30.82 -11.37,-30.86 -11.33,-30.91 -11.29,-30.95 -11.25,-31 -11.21,-31.04 -11.17,-31.09 -11.13,-31.13 -11.09,-31.17 -11.05,-31.22 -11.01,-31.26 -10.97,-31.3 -10.93,-31.34 -10.9,-31.39 -10.86,-31.43 -10.82,-31.47 -10.78,-31.51 -10.74,-31.56 -10.7,-31.6 -10.66,-31.64 -10.62,-31.68 -10.58,-31.72 -10.54,-31.76 -10.5,-31.8 -10.46,-31.84 -10.42,-31.88 -10.38,-31.92 -10.35,-31.96 -10.31,-32 -10.27,-32.04 -10.23,-32.08 -10.19,-32.12 -10.15,-32.16 -10.11,-32.2 -10.07,-32.24 -10.03,-32.28 -9.99,-32.32 -9.95,-32.35 -9.91,-32.39 -9.87,-32.43 -9.84,-32.47 -9.8,-32.5 -9.76,-32.54 -9.72,-32.58 -9.68,-32.61 -9.64,-32.65 -9.6,-32.69 -9.56,-32.72 -9.52,-32.76 -9.48,-32.8 -9.44,-32.83 -9.4,-32.87 -9.36,-32.9 -9.32,-32.94 -9.29,-32.97 -9.25,-33.01 -9.21,-33.04 -9.17,-33.08 -9.13,-33.11 -9.09,-33.14 -9.05,-33.18 -9.01,-33.21 -8.97,-33.24 -8.93,-33.28 -8.89,-33.31 -8.85,-33.34 -8.81,-33.38 -8.77,-33.41 -8.74,-33.44 -8.7,-33.47 -8.66,-33.5 -8.62,-33.54 -8.58,-33.57 -8.54,-33.6 -8.5,-33.63 -8.46,-33.66 -8.42,-33.69 -8.38,-33.72 -8.34,-33.75 -8.3,-33.78 -8.26,-33.81 -8.23,-33.84 -8.19,-33.87 -8.15,-33.9 -8.11,-33.93 -8.07,-33.96 -8.03,-33.98 -7.99,-34.01 -7.95,-34.04 -7.91,-34.07 -7.87,-34.1 -7.83,-34.12 -7.79,-34.15 -7.75,-34.18 -7.71,-34.21 -7.68,-34.23 -7.64,-34.26 -7.6,-34.29 -7.56,-34.31 -7.52,-34.34 -7.48,-34.36 -7.44,-34.39 -7.4,-34.41 -7.36,-34.44 -7.32,-34.46 -7.28,-34.49 -7.24,-34.51 -7.2,-34.54 -7.17,-34.56 -7.13,-34.59 -7.09,-34.61 -7.05,-34.63 -7.01,-34.66 -6.97,-34.68 -6.93,-34.7 -6.89,-34.73 -6.85,-34.75 -6.81,-34.77 -6.77,-34.79 -6.73,-34.81 -6.69,-34.84 -6.65,-34.86 -6.62,-34.88 -6.58,-34.9 -6.54,-34.92 -6.5,-34.94 -6.46,-34.96 -6.42,-34.98 -6.38,-35 -6.34,-35.02 -6.3,-35.04 -6.26,-35.06 -6.22,-35.08 -6.18,-35.1 -6.14,-35.12 -6.11,-35.13 -6.07,-35.15 -6.03,-35.17 -5.99,-35.19 -5.95,-35.21 -5.91,-35.22 -5.87,-35.24 -5.83,-35.26 -5.79,-35.28 -5.75,-35.29 -5.71,-35.31 -5.67,-35.32 -5.63,-35.34 -5.59,-35.36 -5.56,-35.37 -5.52,-35.39 -5.48,-35.4 -5.44,-35.42 -5.4,-35.43 -5.36,-35.45 -5.32,-35.46 -5.28,-35.47 -5.24,-35.49 -5.2,-35.5 -5.16,-35.52 -5.12,-35.53 -5.08,-35.54 -5.05,-35.55 -5.01,-35.57 -4.97,-35.58 -4.93,-35.59 -4.89,-35.6 -4.85,-35.61 -4.81,-35.63 -4.77,-35.64 -4.73,-35.65 -4.69,-35.66 -4.65,-35.67 -4.61,-35.68 -4.57,-35.69 -4.53,-35.7 -4.5,-35.71 -4.46,-35.72 -4.42,-35.73 -4.38,-35.74 -4.34,-35.75 -4.3,-35.76 -4.26,-35.76 -4.22,-35.77 -4.18,-35.78 -4.14,-35.79 -4.1,-35.8 -4.06,-35.8 -4.02,-35.81 -3.99,-35.82 -3.95,-35.82 -3.91,-35.83 -3.87,-35.84 -3.83,-35.84 -3.79,-35.85 -3.75,-35.85 -3.71,-35.86 -3.67,-35.86 -3.63,-35.87 -3.59,-35.87 -3.55,-35.88 -3.51,-35.88 -3.47,-35.89 -3.44,-35.89 -3.4,-35.89 -3.36,-35.9 -3.32,-35.9 -3.28,-35.9 -3.24,-35.91 -3.2,-35.91 -3.16,-35.91 -3.12,-35.91 -3.08,-35.92 -3.04,-35.92 -3,-35.92 -2.96,-35.92 -2.92,-35.92 -2.89,-35.92 -2.85,-35.92 -2.81,-35.92 -2.77,-35.92 -2.73,-35.92 -2.69,-35.92 -2.65,-35.92 -2.61,-35.92 -2.57,-35.92 -2.53,-35.92 -2.49,-35.92 -2.45,-35.92 -2.41,-35.91 -2.38,-35.91 -2.34,-35.91 -2.3,-35.91 -2.26,-35.9 -2.22,-35.9 -2.18,-35.9 -2.14,-35.89 -2.1,-35.89 -2.06,-35.89 -2.02,-35.88 -1.98,-35.88 -1.94,-35.87 -1.9,-35.87 -1.86,-35.86 -1.83,-35.86 -1.79,-35.85 -1.75,-35.85 -1.71,-35.84 -1.67,-35.84 -1.63,-35.83 -1.59,-35.82 -1.55,-35.82 -1.51,-35.81 -1.47,-35.8 -1.43,-35.8 -1.39,-35.79 -1.35,-35.78 -1.32,-35.77 -1.28,-35.76 -1.24,-35.76 -1.2,-35.75 -1.16,-35.74 -1.12,-35.73 -1.08,-35.72 -1.04,-35.71 -1,-35.7 -0.96,-35.69 -0.92,-35.68 -0.88,-35.67 -0.84,-35.66 -0.8,-35.65 -0.77,-35.64 -0.73,-35.63 -0.69,-35.61 -0.65,-35.6 -0.61,-35.59 -0.57,-35.58 -0.53,-35.57 -0.49,-35.55 -0.45,-35.54 -0.41,-35.53 -0.37,-35.51 -0.33,-35.5 -0.29,-35.49 -0.26,-35.47 -0.22,-35.46 -0.18,-35.44 -0.14,-35.43 -0.1,-35.41 -0.06,-35.4 -0.02,-35.38 0.02,-35.37 0.06,-35.35 0.1,-35.34 0.14,-35.32 0.18,-35.3 0.22,-35.29 0.26,-35.27 0.29,-35.25 0.33,-35.24 0.37,-35.22 0.41,-35.2 0.45,-35.18 0.49,-35.16 0.53,-35.15 0.57,-35.13 0.61,-35.11 0.65,-35.09 0.69,-35.07 0.73,-35.05 0.77,-35.03 0.8,-35.01 0.84,-34.99 0.88,-34.97 0.92,-34.95 0.96,-34.93 1,-34.91 1.04,-34.89 1.08,-34.86 1.12,-34.84 1.16,-34.82 1.2,-34.8 1.24,-34.78 1.28,-34.75 1.32,-34.73 1.35,-34.71 1.39,-34.68 1.43,-34.66 1.47,-34.64 1.51,-34.61 1.55,-34.59 1.59,-34.56 1.63,-34.54 1.67,-34.52 1.71,-34.49 1.75,-34.47 1.79,-34.44 1.83,-34.41 1.86,-34.39 1.9,-34.36 1.94,-34.34 1.98,-34.31 2.02,-34.28 2.06,-34.26 2.1,-34.23 2.14,-34.2 2.18,-34.17 2.22,-34.15 2.26,-34.12 2.3,-34.09 2.34,-34.06 2.38,-34.03 2.41,-34 2.45,-33.97 2.49,-33.95 2.53,-33.92 2.57,-33.89 2.61,-33.86 2.65,-33.83 2.69,-33.8 2.73,-33.77 2.77,-33.73 2.81,-33.7 2.85,-33.67 2.89,-33.64 2.92,-33.61 2.96,-33.58 3,-33.55 3.04,-33.51 3.08,-33.48 3.12,-33.45 3.16,-33.41 3.2,-33.38 3.24,-33.35 3.28,-33.31 3.32,-33.28 3.36,-33.25 3.4,-33.21 3.44,-33.18 3.47,-33.14 3.51,-33.11 3.55,-33.07 3.59,-33.04 3.63,-33 3.67,-32.97 3.71,-32.93 3.75,-32.89 3.79,-32.86 3.83,-32.82 3.87,-32.79 3.91,-32.75 3.95,-32.71 3.99,-32.67 4.02,-32.64 4.06,-32.6 4.1,-32.56 4.14,-32.52 4.18,-32.48 4.22,-32.45 4.26,-32.41 4.3,-32.37 4.34,-32.33 4.38,-32.29 4.42,-32.25 4.46,-32.21 4.5,-32.17 4.53,-32.13 4.57,-32.09 4.61,-32.05 4.65,-32.01 4.69,-31.97 4.73,-31.92 4.77,-31.88 4.81,-31.84 4.85,-31.8 4.89,-31.76 4.93,-31.71 4.97,-31.67 5.01,-31.63 5.05,-31.59 5.08,-31.54 5.12,-31.5 5.16,-31.46 5.2,-31.41 5.24,-31.37 5.28,-31.32 5.32,-31.28 5.36,-31.24 5.4,-31.19 5.44,-31.15 5.48,-31.1 5.52,-31.06 5.56,-31.01 5.59,-30.96 5.63,-30.92 5.67,-30.87 5.71,-30.83 5.75,-30.78 5.79,-30.73 5.83,-30.69 5.87,-30.64 5.91,-30.59 5.95,-30.54 5.99,-30.5 6.03,-30.45 6.07,-30.4 6.11,-30.35 6.14,-30.3 6.18,-30.25 6.22,-30.2 6.26,-30.16 6.3,-30.11 6.34,-30.06 6.38,-30.01 6.42,-29.96 6.46,-29.91 6.5,-29.86 6.54,-29.81 6.58,-29.76 6.62,-29.7 6.65,-29.65 6.69,-29.6 6.73,-29.55 6.77,-29.5 6.81,-29.45 6.85,-29.4 6.89,-29.34 6.93,-29.29 6.97,-29.24 7.01,-29.19 7.05,-29.13 7.09,-29.08 7.13,-29.03 7.17,-28.97 7.2,-28.92 7.24,-28.86 7.28,-28.81 7.32,-28.76 7.36,-28.7 7.4,-28.65 7.44,-28.59 7.48,-28.54 7.52,-28.48 7.56,-28.43 7.6,-28.37 7.64,-28.31 7.68,-28.26 7.71,-28.2 7.75,-28.15 7.79,-28.09 7.83,-28.03 7.87,-27.98 7.91,-27.92 7.95,-27.86 7.99,-27.8 8.03,-27.75 8.07,-27.69 8.11,-27.63 8.15,-27.57 8.19,-27.51 8.23,-27.46 8.26,-27.4 8.3,-27.34 8.34,-27.28 8.38,-27.22 8.42,-27.16 8.46,-27.1 8.5,-27.04 8.54,-26.98 8.58,-26.92 8.62,-26.86 8.66,-26.8 8.7,-26.74 8.74,-26.68 8.77,-26.62 8.81,-26.56 8.85,-26.49 8.89,-26.43 8.93,-26.37 8.97,-26.31 9.01,-26.25 9.05,-26.18 9.09,-26.12 9.13,-26.06 9.17,-26 9.21,-25.93 9.25,-25.87 9.29,-25.81 9.32,-25.74 9.36,-25.68 9.4,-25.62 9.44,-25.55 9.48,-25.49 9.52,-25.42 9.56,-25.36 9.6,-25.29 9.64,-25.23 9.68,-25.16 9.72,-25.1 9.76,-25.03 9.8,-24.97 9.84,-24.9 9.87,-24.84 9.91,-24.77 9.95,-24.7 9.99,-24.64 10.03,-24.57 10.07,-24.5 10.11,-24.44 10.15,-24.37 10.19,-24.3 10.23,-24.24 10.27,-24.17 10.31,-24.1 10.35,-24.03 10.38,-23.97 10.42,-23.9 10.46,-23.83 10.5,-23.76 10.54,-23.69 10.58,-23.62 10.62,-23.55 10.66,-23.49 10.7,-23.42 10.74,-23.35 10.78,-23.28 10.82,-23.21 10.86,-23.14 10.9,-23.07 10.93,-23 10.97,-22.93 11.01,-22.86 11.05,-22.79 11.09,-22.71 11.13,-22.64 11.17,-22.57 11.21,-22.5 11.25,-22.43 11.29,-22.36 11.33,-22.29 11.37,-22.21 11.41,-22.14 11.44,-22.07 11.48,-22 11.52,-21.93 11.56,-21.85 11.6,-21.78 11.64,-21.71 11.68,-21.63 11.72,-21.56 11.76,-21.49 11.8,-21.41 11.84,-21.34 11.88,-21.27 11.92,-21.19 11.96,-21.12 11.99,-21.04 12.03,-20.97 12.07,-20.9 12.11,-20.82 12.15,-20.75 12.19,-20.67 12.23,-20.6 12.27,-20.52 12.31,-20.45 12.35,-20.37 12.39,-20.29 12.43,-20.22 12.47,-20.14 12.5,-20.07 12.54,-19.99 12.58,-19.91 12.62,-19.84 12.66,-19.76 12.7,-19.68 12.74,-19.61 12.78,-19.53 12.82,-19.45 12.86,-19.38 12.9,-19.3 12.94,-19.22 12.98,-19.14 13.02,-19.07 13.05,-18.99 13.09,-18.91 13.13,-18.83 13.17,-18.75 13.21,-18.68 13.25,-18.6 13.29,-18.52 13.33,-18.44 13.37,-18.36 13.41,-18.28 13.45,-18.2 13.49,-18.12 13.53,-18.04 13.56,-17.96 13.6,-17.88 13.64,-17.8 13.68,-17.72 13.72,-17.64 13.76,-17.56 13.8,-17.48 13.84,-17.4 13.88,-17.32 13.92,-17.24 13.96,-17.16 14,-17.08 14.04,-17 14.08,-16.92 14.11,-16.84 14.15,-16.76 14.19,-16.67 14.23,-16.59 14.27,-16.51 14.31,-16.43 14.35,-16.35 14.39,-16.26 14.43,-16.18 14.47,-16.1 14.51,-16.02 14.55,-15.93 14.59,-15.85 14.62,-15.77 14.66,-15.69 14.7,-15.6 14.74,-15.52 14.78,-15.44 14.82,-15.35 14.86,-15.27 14.9,-15.19 14.94,-15.1 14.98,-15.02 15.02,-14.94 15.06,-14.85 15.1,-14.77 15.14,-14.68 15.17,-14.6 15.21,-14.51 15.25,-14.43 15.29,-14.35 15.33,-14.26 15.37,-14.18 15.41,-14.09 15.45,-14.01 15.49,-13.92 15.53,-13.84 15.57,-13.75 15.61,-13.67 15.65,-13.58 15.68,-13.49 15.72,-13.41 15.76,-13.32 15.8,-13.24 15.84,-13.15 15.88,-13.06 15.92,-12.98 15.96,-12.89 16,-12.81 16.04,-12.72 16.08,-12.63 16.12,-12.55 16.16,-12.46 16.2,-12.37 16.23,-12.29 16.27,-12.2 16.31,-12.11 16.35,-12.02 16.39,-11.94 16.43,-11.85 16.47,-11.76 16.51,-11.68 16.55,-11.59 16.59,-11.5 16.63,-11.41 16.67,-11.32 16.71,-11.24 16.75,-11.15 16.78,-11.06 16.82,-10.97 16.86,-10.88 16.9,-10.8 16.94,-10.71 16.98,-10.62 17.02,-10.53 17.06,-10.44 17.1,-10.35 17.14,-10.26 17.18,-10.17 17.22,-10.09 17.26,-10 17.29,-9.91 17.33,-9.82 17.37,-9.73 17.41,-9.64 17.45,-9.55 17.49,-9.46 17.53,-9.37 17.57,-9.28 17.61,-9.19 17.65,-9.1 17.69,-9.01 17.73,-8.92 17.77,-8.83 17.81,-8.74 17.84,-8.65 17.88,-8.56 17.92,-8.47 17.96,-8.38 18,-8.29 18.04,-8.2 18.08,-8.11 18.12,-8.02 18.16,-7.93 18.2,-7.84 18.24,-7.75 18.28,-7.66 18.32,-7.57 18.35,-7.47 18.39,-7.38 18.43,-7.29 18.47,-7.2 18.51,-7.11 18.55,-7.02 18.59,-6.93 18.63,-6.84 18.67,-6.74 18.71,-6.65 18.75,-6.56 18.79,-6.47 18.83,-6.38 18.87,-6.29 18.9,-6.2 18.94,-6.1 18.98,-6.01 19.02,-5.92 19.06,-5.83 19.1,-5.74 19.14,-5.64 19.18,-5.55 19.22,-5.46 19.26,-5.37 19.3,-5.28 19.34,-5.18 19.38,-5.09 19.41,-5 19.45,-4.91 19.49,-4.81 19.53,-4.72 19.57,-4.63 19.61,-4.54 19.65,-4.44 19.69,-4.35 19.73,-4.26 19.77,-4.17 19.81,-4.07 19.85,-3.98 19.89,-3.89 19.93,-3.79 19.96,-3.7 20,-3.61 20.04,-3.52 20.08,-3.42 20.12,-3.33 20.16,-3.24 20.2,-3.14 20.24,-3.05 20.28,-2.96 20.32,-2.86 20.36,-2.77 20.4,-2.68 20.44,-2.58 20.47,-2.49 20.51,-2.4 20.55,-2.3 20.59,-2.21 20.63,-2.12 20.67,-2.02 20.71,-1.93 20.75,-1.84 20.79,-1.74 20.83,-1.65 20.87,-1.56 20.91,-1.46 20.95,-1.37 20.99,-1.27 21.02,-1.18 21.06,-1.09 21.1,-0.99 21.14,-0.9 21.18,-0.81 21.22,-0.71 21.26,-0.62 21.3,-0.52 21.34,-0.43 21.38,-0.34 21.42,-0.24 21.46,-0.15 21.5,-0.06 21.53,0.04 21.57,0.13 21.61,0.23 21.65,0.32 21.69,0.41 21.73,0.51 21.77,0.6 21.81,0.7 21.85,0.79 21.89,0.88 21.93,0.98 21.97,1.07 22.01,1.17 22.05,1.26 22.08,1.35 22.12,1.45 22.16,1.54 22.2,1.64 22.24,1.73 22.28,1.82 22.32,1.92 22.36,2.01 22.4,2.11 22.44,2.2 22.48,2.29 22.52,2.39 22.56,2.48 22.59,2.58 22.63,2.67 22.67,2.76 22.71,2.86 22.75,2.95 22.79,3.05 22.83,3.14 22.87,3.23 22.91,3.33 22.95,3.42 22.99,3.52 23.03,3.61 23.07,3.7 23.11,3.8 23.14,3.89 23.18,3.99 23.22,4.08 23.26,4.17 23.3,4.27 23.34,4.36 23.38,4.46 23.42,4.55 23.46,4.64 23.5,4.74 23.54,4.83 23.58,4.92 23.62,5.02 23.66,5.11 23.69,5.21 23.73,5.3 23.77,5.39 23.81,5.49 23.85,5.58 23.89,5.67 23.93,5.77 23.97,5.86 24.01,5.95 24.05,6.05 24.09,6.14 24.13,6.23 24.17,6.33 24.2,6.42 24.24,6.51 24.28,6.61 24.32,6.7 24.36,6.79 24.4,6.89 24.44,6.98 24.48,7.07 24.52,7.17 24.56,7.26 24.6,7.35 24.64,7.45 24.68,7.54 24.72,7.63 24.75,7.73 24.79,7.82 24.83,7.91 24.87,8 24.91,8.1 24.95,8.19 24.99,8.28 25.03,8.37 25.07,8.47 25.11,8.56 25.15,8.65 25.19,8.75 25.23,8.84 25.26,8.93 25.3,9.02 25.34,9.11 25.38,9.21 25.42,9.3 25.46,9.39 25.5,9.48 25.54,9.58 25.58,9.67 25.62,9.76 25.66,9.85 25.7,9.94 25.74,10.04 25.78,10.13 25.81,10.22 25.85,10.31 25.89,10.4 25.93,10.49 25.97,10.59 26.01,10.68 26.05,10.77 26.09,10.86 26.13,10.95 26.17,11.04 26.21,11.13 26.25,11.23 26.29,11.32 26.32,11.41 26.36,11.5 26.4,11.59 26.44,11.68 26.48,11.77 26.52,11.86 26.56,11.95 26.6,12.04 26.64,12.13 26.68,12.22 26.72,12.31 26.76,12.4 26.8,12.5 26.84,12.59 26.87,12.68 26.91,12.77 26.95,12.86 26.99,12.95 27.03,13.04 27.07,13.13 27.11,13.22 27.15,13.31 27.19,13.39 27.23,13.48 27.27,13.57 27.31,13.66 27.35,13.75 27.38,13.84 27.42,13.93 27.46,14.02 27.5,14.11 27.54,14.2 27.58,14.29 27.62,14.38 27.66,14.46 27.7,14.55 27.74,14.64 27.78,14.73 27.82,14.82 27.86,14.91 27.9,15 27.93,15.08 27.97,15.17 28.01,15.26 28.05,15.35 28.09,15.44 28.13,15.52 28.17,15.61 28.21,15.7 28.25,15.79 28.29,15.87 28.33,15.96 28.37,16.05 28.41,16.14 28.44,16.22 28.48,16.31 28.52,16.4 28.56,16.48 28.6,16.57 28.64,16.66 28.68,16.74 28.72,16.83 28.76,16.92 28.8,17 28.84,17.09 28.88,17.18 28.92,17.26 28.96,17.35 28.99,17.43 29.03,17.52 29.07,17.6 29.11,17.69 29.15,17.78 29.19,17.86 29.23,17.95 29.27,18.03 29.31,18.12 29.35,18.2 29.39,18.29 29.43,18.37 29.47,18.46 29.51,18.54 29.54,18.62 29.58,18.71 29.62,18.79 29.66,18.88 29.7,18.96 29.74,19.05 29.78,19.13 29.82,19.21 29.86,19.3 29.9,19.38 29.94,19.46 29.98,19.55 30.02,19.63 30.05,19.71 30.09,19.8 30.13,19.88 30.17,19.96 30.21,20.04 30.25,20.13 30.29,20.21 30.33,20.29 30.37,20.37 30.41,20.46 30.45,20.54 30.49,20.62 30.53,20.7 30.57,20.78 30.6,20.87 30.64,20.95 30.68,21.03 30.72,21.11 30.76,21.19 30.8,21.27 30.84,21.35 30.88,21.43 30.92,21.51 30.96,21.59 31,21.67 31.04,21.75 31.08,21.83 31.11,21.91 31.15,21.99 31.19,22.07 31.23,22.15 31.27,22.23 31.31,22.31 31.35,22.39 31.39,22.47 31.43,22.55 31.47,22.63 31.51,22.71 31.55,22.79 31.59,22.87 31.63,22.94 31.66,23.02 31.7,23.1 31.74,23.18 31.78,23.26 31.82,23.33 31.86,23.41 31.9,23.49 31.94,23.57 31.98,23.64 32.02,23.72 32.06,23.8 32.1,23.88 32.14,23.95 32.17,24.03 32.21,24.11 32.25,24.18 32.29,24.26 32.33,24.33 32.37,24.41 32.41,24.49 32.45,24.56 32.49,24.64 32.53,24.71 32.57,24.79 32.61,24.86 32.65,24.94 32.69,25.01 32.72,25.09 32.76,25.16 32.8,25.24 32.84,25.31 32.88,25.38 32.92,25.46 32.96,25.53 33,25.61 33.04,25.68 33.08,25.75 33.12,25.83 33.16,25.9 33.2,25.97 33.23,26.05 33.27,26.12 33.31,26.19 33.35,26.26 33.39,26.34 33.43,26.41 33.47,26.48 33.51,26.55 33.55,26.62 33.59,26.7 33.63,26.77 33.67,26.84 33.71,26.91 33.75,26.98 33.78,27.05 33.82,27.12 33.86,27.19 33.9,27.26 33.94,27.33 33.98,27.4 34.02,27.47 34.06,27.54 34.1,27.61 34.14,27.68 34.18,27.75 34.22,27.82 34.26,27.89 34.29,27.96 34.33,28.03 34.37,28.1 34.41,28.17 34.45,28.24 34.49,28.3 34.53,28.37 34.57,28.44 34.61,28.51 34.65,28.57 34.69,28.64 34.73,28.71 34.77,28.78 34.81,28.84 34.84,28.91 34.88,28.98 34.92,29.04 34.96,29.11 35,29.18 35.04,29.24 35.08,29.31 35.12,29.37 35.16,29.44 35.2,29.51 35.24,29.57 35.28,29.64 35.32,29.7 35.35,29.77 35.39,29.83 35.43,29.89 35.47,29.96 35.51,30.02 35.55,30.09 35.59,30.15 35.63,30.21 35.67,30.28 35.71,30.34 35.75,30.4 35.79,30.47 35.83,30.53 35.87,30.59 35.9,30.66 35.94,30.72 35.98,30.78 36.02,30.84 36.06,30.9 36.1,30.97 36.14,31.03 36.18,31.09 36.22,31.15 36.26,31.21 36.3,31.27 36.34,31.33 36.38,31.39 36.42,31.45 36.45,31.51 36.49,31.57 36.53,31.63 36.57,31.69 36.61,31.75 36.65,31.81 36.69,31.87 36.73,31.93 36.77,31.99 36.81,32.05 36.85,32.11 36.89,32.17 36.93,32.22 36.96,32.28 37,32.34 37.04,32.4 37.08,32.46 37.12,32.51 37.16,32.57 37.2,32.63 37.24,32.68 37.28,32.74 37.32,32.8 37.36,32.85 37.4,32.91 37.44,32.97 37.48,33.02 37.51,33.08 37.55,33.13 37.59,33.19 37.63,33.24 37.67,33.3 37.71,33.35 37.75,33.41 37.79,33.46 37.83,33.52 37.87,33.57 37.91,33.62 37.95,33.68 37.99,33.73 38.02,33.79 38.06,33.84 38.1,33.89 38.14,33.95 38.18,34 38.22,34.05 38.26,34.1 38.3,34.16 38.34,34.21 38.38,34.26 38.42,34.31 38.46,34.36 38.5,34.41 38.54,34.47 38.57,34.52 38.61,34.57 38.65,34.62 38.69,34.67 38.73,34.72 38.77,34.77 38.81,34.82 38.85,34.87 38.89,34.92 38.93,34.97 38.97,35.02 39.01,35.07 39.05,35.12 39.08,35.16 39.12,35.21 39.16,35.26 39.2,35.31 39.24,35.36 39.28,35.41 39.32,35.45 39.36,35.5 39.4,35.55 39.44,35.6 39.48,35.64 39.52,35.69 39.56,35.74 39.6,35.78 39.63,35.83 39.67,35.87 39.71,35.92 39.75,35.97 39.79,36.01 39.83,36.06 39.87,36.1 39.91,36.15 39.95,36.19 39.99,36.24 40.03,36.28 40.07,36.33 40.11,36.37 40.14,36.41 40.18,36.46 40.22,36.5 40.26,36.55 40.3,36.59 40.34,36.63 40.38,36.68 40.42,36.72 40.46,36.76 40.5,36.8 40.54,36.85 40.58,36.89 40.62,36.93 40.66,36.97 40.69,37.01 40.73,37.05 40.77,37.1 40.81,37.14 40.85,37.18 40.89,37.22 40.93,37.26 40.97,37.3 41.01,37.34 41.05,37.38 41.09,37.42 41.13,37.46 41.17,37.5 41.2,37.54 41.24,37.58 41.28,37.62 41.32,37.65 41.36,37.69 41.4,37.73 41.44,37.77 41.48,37.81 41.52,37.85 41.56,37.88 41.6,37.92 41.64,37.96 41.68,37.99 41.72,38.03 41.75,38.07 41.79,38.11 41.83,38.14 41.87,38.18 41.91,38.21 41.95,38.25 41.99,38.29 42.03,38.32 42.07,38.36 42.11,38.39 42.15,38.43 42.19,38.46 42.23,38.5 42.26,38.53 42.3,38.57 42.34,38.6 42.38,38.63 42.42,38.67 42.46,38.7 42.5,38.74 42.54,38.77 42.58,38.8 42.62,38.84 42.66,38.87 42.7,38.9 42.74,38.93 42.78,38.97 42.81,39 42.85,39.03 42.89,39.06 42.93,39.09 42.97,39.12 43.01,39.16 43.05,39.19 43.09,39.22 43.13,39.25 43.17,39.28 43.21,39.31 43.25,39.34 43.29,39.37 43.33,39.4 43.36,39.43 43.4,39.46 43.44,39.49 43.48,39.52 43.52,39.55 43.56,39.58 43.6,39.61 43.64,39.63 43.68,39.66 43.72,39.69 43.76,39.72 43.8,39.75 43.84,39.78 43.87,39.8 43.91,39.83 43.95,39.86 43.99,39.88 44.03,39.91 44.07,39.94 44.11,39.97 44.15,39.99 44.19,40.02 44.23,40.04 44.27,40.07 44.31,40.1 44.35,40.12 44.39,40.15 44.42,40.17 44.46,40.2 44.5,40.22 44.54,40.25 44.58,40.27 44.62,40.3 44.66,40.32 44.7,40.35 44.74,40.37 44.78,40.39 44.82,40.42 44.86,40.44 44.9,40.46 44.93,40.49 44.97,40.51 45.01,40.53 45.05,40.56 45.09,40.58 45.13,40.6 45.17,40.62 45.21,40.65 45.25,40.67 45.29,40.69 45.33,40.71 45.37,40.73 45.41,40.75 45.45,40.78 45.48,40.8 45.52,40.82 45.56,40.84 45.6,40.86 45.64,40.88 45.68,40.9 45.72,40.92 45.76,40.94 45.8,40.96 45.84,40.98 45.88,41 45.92,41.02 45.96,41.04 45.99,41.06 46.03,41.08 46.07,41.1 46.11,41.11 46.15,41.13 46.19,41.15 46.23,41.17 46.27,41.19 46.31,41.21 46.35,41.22 46.39,41.24 46.43,41.26 46.47,41.28 46.51,41.29 46.54,41.31 46.58,41.33 46.62,41.34 46.66,41.36 46.7,41.38 46.74,41.39 46.78,41.41 46.82,41.43 46.86,41.44 46.9,41.46 46.94,41.47 46.98,41.49 47.02,41.5 47.05,41.52 47.09,41.53 47.13,41.55 47.17,41.56 47.21,41.58 47.25,41.59 47.29,41.61 47.33,41.62 47.37,41.64 47.41,41.65 47.45,41.66 47.49,41.68 47.53,41.69 47.57,41.71 47.6,41.72 47.64,41.73 47.68,41.75 47.72,41.76 47.76,41.77 47.8,41.78 47.84,41.8 47.88,41.81 47.92,41.82 47.96,41.83 48,41.85 48.04,41.86 48.08,41.87 48.11,41.88 48.15,41.89 48.19,41.9 48.23,41.92 48.27,41.93 48.31,41.94 48.35,41.95 48.39,41.96 48.43,41.97 48.47,41.98 48.51,41.99 48.55,42 48.59,42.01 48.63,42.02 48.66,42.03 48.7,42.04 48.74,42.05 48.78,42.06 48.82,42.07 48.86,42.08 48.9,42.09 48.94,42.1 48.98,42.11 49.02,42.12 49.06,42.13 " class="primitive"/>
            </g>
          </g>
        </g>
      </g>
    </g>
  </g>
  <g class="guide ylabels" font-size="2.82" font-family="'PT Sans Caption','Helvetica Neue','Helvetica',sans-serif" fill="#6C606B" id="img-d0fd9980-23">
    <g transform="translate(9.35,108.33)" id="img-d0fd9980-24">
      <g class="primitive">
        <text text-anchor="end" dy="0.35em">0</text>
      </g>
    </g>
    <g transform="translate(9.35,74.55)" id="img-d0fd9980-25">
      <g class="primitive">
        <text text-anchor="end" dy="0.35em">5</text>
      </g>
    </g>
    <g transform="translate(9.35,40.78)" id="img-d0fd9980-26">
      <g class="primitive">
        <text text-anchor="end" dy="0.35em">10</text>
      </g>
    </g>
    <g transform="translate(9.35,7)" id="img-d0fd9980-27">
      <g class="primitive">
        <text text-anchor="end" dy="0.35em">15</text>
      </g>
    </g>
  </g>
</g>
<defs>
  <clipPath id="img-d0fd9980-3">
    <path d="M10.35,5 L155,5 155,110.33 10.35,110.33 " />
  </clipPath>
</defs>
</svg>
