<?xml version="1.0" encoding="UTF-8"?>
<svg xmlns="http://www.w3.org/2000/svg"
     xmlns:xlink="http://www.w3.org/1999/xlink"
     xmlns:gadfly="http://www.gadflyjl.org/ns"
     version="1.2"
     width="160mm" height="120mm" viewBox="0 0 160 120"
     stroke="none"
     fill="#000000"
     stroke-width="0.3"
     font-size="3.88"
>
<defs>
  <marker id="arrow" markerWidth="15" markerHeight="7" refX="5" refY="3.5" orient="auto" markerUnits="strokeWidth">
    <path d="M0,0 L15,3.5 L0,7 z" stroke="context-stroke" fill="context-stroke"/>
  </marker>
</defs>
<g class="plotroot xscalable yscalable" id="img-bca44f9e-1">
  <g class="guide xlabels" font-size="2.82" font-family="'PT Sans Caption','Helvetica Neue','Helvetica',sans-serif" fill="#6C606B" id="img-bca44f9e-2">
    <g transform="translate(13.02,111.33)">
      <g class="primitive">
        <text text-anchor="middle" dy="0.6em">-0.5</text>
      </g>
    </g>
    <g transform="translate(59.68,111.33)">
      <g class="primitive">
        <text text-anchor="middle" dy="0.6em">0.0</text>
      </g>
    </g>
    <g transform="translate(106.34,111.33)">
      <g class="primitive">
        <text text-anchor="middle" dy="0.6em">0.5</text>
      </g>
    </g>
    <g transform="translate(153,111.33)">
      <g class="primitive">
        <text text-anchor="middle" dy="0.6em">1.0</text>
      </g>
    </g>
  </g>
  <g clip-path="url(#img-bca44f9e-3)">
    <g id="img-bca44f9e-4">
      <g pointer-events="visible" stroke-width="0.3" fill="#000000" fill-opacity="0.000" stroke="#000000" stroke-opacity="0.000" class="guide background" id="img-bca44f9e-5">
        <g transform="translate(83.01,57.66)" id="img-bca44f9e-6">
          <path d="M-71.99,-52.66 L71.99,-52.66 71.99,52.66 -71.99,52.66  z" class="primitive"/>
        </g>
      </g>
      <g class="guide ygridlines xfixed" stroke-dasharray="0.5,0.5" stroke-width="0.2" stroke="#D0D0E0" id="img-bca44f9e-7">
        <g transform="translate(83.01,108.33)" id="img-bca44f9e-8">
          <path fill="none" d="M-71.99,0 L71.99,0 " class="primitive"/>
        </g>
        <g transform="translate(83.01,88.06)" id="img-bca44f9e-9">
          <path fill="none" d="M-71.99,0 L71.99,0 " class="primitive"/>
        </g>
        <g transform="translate(83.01,67.8)" id="img-bca44f9e-10">
          <path fill="none" d="M-71.99,0 L71.99,0 " class="primitive"/>
        </g>
        <g transform="translate(83.01,47.53)" id="img-bca44f9e-11">
          <path fill="none" d="M-71.99,0 L71.99,0 " class="primitive"/>
        </g>
        <g transform="translate(83.01,27.27)" id="img-bca44f9e-12">
          <path fill="none" d="M-71.99,0 L71.99,0 " class="primitive"/>
        </g>
        <g transform="translate(83.01,7)" id="img-bca44f9e-13">
          <path fill="none" d="M-71.99,0 L71.99,0 " class="primitive"/>
        </g>
      </g>
      <g class="guide xgridlines yfixed" stroke-dasharray="0.5,0.5" stroke-width="0.2" stroke="#D0D0E0" id="img-bca44f9e-14">
        <g transform="translate(13.02,57.66)" id="img-bca44f9e-15">
          <path fill="none" d="M0,-52.66 L0,52.66 " class="primitive"/>
        </g>
        <g transform="translate(59.68,57.66)" id="img-bca44f9e-16">
          <path fill="none" d="M0,-52.66 L0,52.66 " class="primitive"/>
        </g>
        <g transform="translate(106.34,57.66)" id="img-bca44f9e-17">
          <path fill="none" d="M0,-52.66 L0,52.66 " class="primitive"/>
        </g>
        <g transform="translate(153,57.66)" id="img-bca44f9e-18">
          <path fill="none" d="M0,-52.66 L0,52.66 " class="primitive"/>
        </g>
      </g>
      <g class="plotpanel" id="img-bca44f9e-19">
        <metadata>
          <boundingbox value="11.02000000000001mm 5.0mm 143.98mm 105.32666666666665mm"/>
          <unitbox value="-0.5214316330904415 2.549345351667873 1.5428632661808832 -2.598690703335746"/>
        </metadata>
        <g stroke-width="0.3" fill="#000000" fill-opacity="0.000" class="geometry" id="img-bca44f9e-20">
          <g class="color_LCHab{Float32}(70.0f0,60.0f0,240.0f0)" stroke-dasharray="none" stroke="#00BFFF" id="img-bca44f9e-21">
            <g transform="translate(99.56,49.62)" id="img-bca44f9e-22">
              <path fill="none" d="M-53.04,34.3 L-53,34.21 -52.96,34.12 -52.91,34.02 -52.87,33.93 -52.83,33.84 -52.79,33.74 -52.74,33.65 -52.7,33.56 -52.66,33.47 -52.62,33.37 -52.57,33.28 -52.53,33.19 -52.49,33.09 -52.45,33 -52.4,32.91 -52.36,32.81 -52.32,32.72 -52.28,32.63 -52.24,32.53 -52.19,32.44 -52.15,32.35 -52.11,32.25 -52.07,32.16 -52.02,32.06 -51.98,31.97 -51.94,31.88 -51.9,31.78 -51.85,31.69 -51.81,31.59 -51.77,31.5 -51.73,31.41 -51.68,31.31 -51.64,31.22 -51.6,31.12 -51.56,31.03 -51.51,30.93 -51.47,30.84 -51.43,30.75 -51.39,30.65 -51.34,30.56 -51.3,30.46 -51.26,30.37 -51.22,30.27 -51.17,30.18 -51.13,30.08 -51.09,29.99 -51.05,29.89 -51,29.8 -50.96,29.7 -50.92,29.61 -50.88,29.51 -50.83,29.42 -50.79,29.32 -50.75,29.23 -50.71,29.13 -50.66,29.04 -50.62,28.94 -50.58,28.85 -50.54,28.75 -50.49,28.66 -50.45,28.56 -50.41,28.46 -50.37,28.37 -50.32,28.27 -50.28,28.18 -50.24,28.08 -50.2,27.99 -50.16,27.89 -50.11,27.8 -50.07,27.7 -50.03,27.6 -49.99,27.51 -49.94,27.41 -49.9,27.32 -49.86,27.22 -49.82,27.12 -49.77,27.03 -49.73,26.93 -49.69,26.84 -49.65,26.74 -49.6,26.64 -49.56,26.55 -49.52,26.45 -49.48,26.35 -49.43,26.26 -49.39,26.16 -49.35,26.07 -49.31,25.97 -49.26,25.87 -49.22,25.78 -49.18,25.68 -49.14,25.58 -49.09,25.49 -49.05,25.39 -49.01,25.29 -48.97,25.2 -48.92,25.1 -48.88,25 -48.84,24.91 -48.8,24.81 -48.75,24.71 -48.71,24.62 -48.67,24.52 -48.63,24.42 -48.58,24.33 -48.54,24.23 -48.5,24.13 -48.46,24.04 -48.41,23.94 -48.37,23.84 -48.33,23.74 -48.29,23.65 -48.24,23.55 -48.2,23.45 -48.16,23.36 -48.12,23.26 -48.07,23.16 -48.03,23.06 -47.99,22.97 -47.95,22.87 -47.91,22.77 -47.86,22.68 -47.82,22.58 -47.78,22.48 -47.74,22.38 -47.69,22.29 -47.65,22.19 -47.61,22.09 -47.57,21.99 -47.52,21.9 -47.48,21.8 -47.44,21.7 -47.4,21.6 -47.35,21.51 -47.31,21.41 -47.27,21.31 -47.23,21.21 -47.18,21.12 -47.14,21.02 -47.1,20.92 -47.06,20.82 -47.01,20.73 -46.97,20.63 -46.93,20.53 -46.89,20.43 -46.84,20.34 -46.8,20.24 -46.76,20.14 -46.72,20.04 -46.67,19.94 -46.63,19.85 -46.59,19.75 -46.55,19.65 -46.5,19.55 -46.46,19.46 -46.42,19.36 -46.38,19.26 -46.33,19.16 -46.29,19.06 -46.25,18.97 -46.21,18.87 -46.16,18.77 -46.12,18.67 -46.08,18.58 -46.04,18.48 -45.99,18.38 -45.95,18.28 -45.91,18.18 -45.87,18.09 -45.83,17.99 -45.78,17.89 -45.74,17.79 -45.7,17.69 -45.66,17.6 -45.61,17.5 -45.57,17.4 -45.53,17.3 -45.49,17.2 -45.44,17.11 -45.4,17.01 -45.36,16.91 -45.32,16.81 -45.27,16.71 -45.23,16.62 -45.19,16.52 -45.15,16.42 -45.1,16.32 -45.06,16.22 -45.02,16.13 -44.98,16.03 -44.93,15.93 -44.89,15.83 -44.85,15.73 -44.81,15.64 -44.76,15.54 -44.72,15.44 -44.68,15.34 -44.64,15.25 -44.59,15.15 -44.55,15.05 -44.51,14.95 -44.47,14.85 -44.42,14.76 -44.38,14.66 -44.34,14.56 -44.3,14.46 -44.25,14.36 -44.21,14.27 -44.17,14.17 -44.13,14.07 -44.08,13.97 -44.04,13.87 -44,13.78 -43.96,13.68 -43.91,13.58 -43.87,13.48 -43.83,13.39 -43.79,13.29 -43.75,13.19 -43.7,13.09 -43.66,12.99 -43.62,12.9 -43.58,12.8 -43.53,12.7 -43.49,12.6 -43.45,12.51 -43.41,12.41 -43.36,12.31 -43.32,12.21 -43.28,12.11 -43.24,12.02 -43.19,11.92 -43.15,11.82 -43.11,11.72 -43.07,11.63 -43.02,11.53 -42.98,11.43 -42.94,11.33 -42.9,11.24 -42.85,11.14 -42.81,11.04 -42.77,10.94 -42.73,10.85 -42.68,10.75 -42.64,10.65 -42.6,10.55 -42.56,10.46 -42.51,10.36 -42.47,10.26 -42.43,10.16 -42.39,10.07 -42.34,9.97 -42.3,9.87 -42.26,9.78 -42.22,9.68 -42.17,9.58 -42.13,9.48 -42.09,9.39 -42.05,9.29 -42,9.19 -41.96,9.1 -41.92,9 -41.88,8.9 -41.83,8.8 -41.79,8.71 -41.75,8.61 -41.71,8.51 -41.66,8.42 -41.62,8.32 -41.58,8.22 -41.54,8.13 -41.5,8.03 -41.45,7.93 -41.41,7.84 -41.37,7.74 -41.33,7.64 -41.28,7.55 -41.24,7.45 -41.2,7.35 -41.16,7.26 -41.11,7.16 -41.07,7.06 -41.03,6.97 -40.99,6.87 -40.94,6.77 -40.9,6.68 -40.86,6.58 -40.82,6.48 -40.77,6.39 -40.73,6.29 -40.69,6.19 -40.65,6.1 -40.6,6 -40.56,5.91 -40.52,5.81 -40.48,5.71 -40.43,5.62 -40.39,5.52 -40.35,5.43 -40.31,5.33 -40.26,5.23 -40.22,5.14 -40.18,5.04 -40.14,4.95 -40.09,4.85 -40.05,4.76 -40.01,4.66 -39.97,4.56 -39.92,4.47 -39.88,4.37 -39.84,4.28 -39.8,4.18 -39.75,4.09 -39.71,3.99 -39.67,3.9 -39.63,3.8 -39.58,3.7 -39.54,3.61 -39.5,3.51 -39.46,3.42 -39.42,3.32 -39.37,3.23 -39.33,3.13 -39.29,3.04 -39.25,2.94 -39.2,2.85 -39.16,2.75 -39.12,2.66 -39.08,2.57 -39.03,2.47 -38.99,2.38 -38.95,2.28 -38.91,2.19 -38.86,2.09 -38.82,2 -38.78,1.9 -38.74,1.81 -38.69,1.71 -38.65,1.62 -38.61,1.53 -38.57,1.43 -38.52,1.34 -38.48,1.24 -38.44,1.15 -38.4,1.06 -38.35,0.96 -38.31,0.87 -38.27,0.77 -38.23,0.68 -38.18,0.59 -38.14,0.49 -38.1,0.4 -38.06,0.31 -38.01,0.21 -37.97,0.12 -37.93,0.03 -37.89,-0.07 -37.84,-0.16 -37.8,-0.25 -37.76,-0.35 -37.72,-0.44 -37.67,-0.53 -37.63,-0.63 -37.59,-0.72 -37.55,-0.81 -37.5,-0.91 -37.46,-1 -37.42,-1.09 -37.38,-1.18 -37.34,-1.28 -37.29,-1.37 -37.25,-1.46 -37.21,-1.55 -37.17,-1.65 -37.12,-1.74 -37.08,-1.83 -37.04,-1.92 -37,-2.02 -36.95,-2.11 -36.91,-2.2 -36.87,-2.29 -36.83,-2.38 -36.78,-2.48 -36.74,-2.57 -36.7,-2.66 -36.66,-2.75 -36.61,-2.84 -36.57,-2.93 -36.53,-3.02 -36.49,-3.12 -36.44,-3.21 -36.4,-3.3 -36.36,-3.39 -36.32,-3.48 -36.27,-3.57 -36.23,-3.66 -36.19,-3.75 -36.15,-3.84 -36.1,-3.94 -36.06,-4.03 -36.02,-4.12 -35.98,-4.21 -35.93,-4.3 -35.89,-4.39 -35.85,-4.48 -35.81,-4.57 -35.76,-4.66 -35.72,-4.75 -35.68,-4.84 -35.64,-4.93 -35.59,-5.02 -35.55,-5.11 -35.51,-5.2 -35.47,-5.29 -35.42,-5.38 -35.38,-5.47 -35.34,-5.56 -35.3,-5.65 -35.25,-5.74 -35.21,-5.83 -35.17,-5.92 -35.13,-6 -35.09,-6.09 -35.04,-6.18 -35,-6.27 -34.96,-6.36 -34.92,-6.45 -34.87,-6.54 -34.83,-6.63 -34.79,-6.71 -34.75,-6.8 -34.7,-6.89 -34.66,-6.98 -34.62,-7.07 -34.58,-7.16 -34.53,-7.24 -34.49,-7.33 -34.45,-7.42 -34.41,-7.51 -34.36,-7.6 -34.32,-7.68 -34.28,-7.77 -34.24,-7.86 -34.19,-7.95 -34.15,-8.03 -34.11,-8.12 -34.07,-8.21 -34.02,-8.29 -33.98,-8.38 -33.94,-8.47 -33.9,-8.56 -33.85,-8.64 -33.81,-8.73 -33.77,-8.82 -33.73,-8.9 -33.68,-8.99 -33.64,-9.07 -33.6,-9.16 -33.56,-9.25 -33.51,-9.33 -33.47,-9.42 -33.43,-9.5 -33.39,-9.59 -33.34,-9.68 -33.3,-9.76 -33.26,-9.85 -33.22,-9.93 -33.17,-10.02 -33.13,-10.1 -33.09,-10.19 -33.05,-10.27 -33.01,-10.36 -32.96,-10.44 -32.92,-10.53 -32.88,-10.61 -32.84,-10.7 -32.79,-10.78 -32.75,-10.87 -32.71,-10.95 -32.67,-11.04 -32.62,-11.12 -32.58,-11.2 -32.54,-11.29 -32.5,-11.37 -32.45,-11.46 -32.41,-11.54 -32.37,-11.62 -32.33,-11.71 -32.28,-11.79 -32.24,-11.87 -32.2,-11.96 -32.16,-12.04 -32.11,-12.12 -32.07,-12.21 -32.03,-12.29 -31.99,-12.37 -31.94,-12.45 -31.9,-12.54 -31.86,-12.62 -31.82,-12.7 -31.77,-12.78 -31.73,-12.87 -31.69,-12.95 -31.65,-13.03 -31.6,-13.11 -31.56,-13.19 -31.52,-13.27 -31.48,-13.36 -31.43,-13.44 -31.39,-13.52 -31.35,-13.6 -31.31,-13.68 -31.26,-13.76 -31.22,-13.84 -31.18,-13.92 -31.14,-14.01 -31.09,-14.09 -31.05,-14.17 -31.01,-14.25 -30.97,-14.33 -30.93,-14.41 -30.88,-14.49 -30.84,-14.57 -30.8,-14.65 -30.76,-14.73 -30.71,-14.81 -30.67,-14.89 -30.63,-14.97 -30.59,-15.05 -30.54,-15.12 -30.5,-15.2 -30.46,-15.28 -30.42,-15.36 -30.37,-15.44 -30.33,-15.52 -30.29,-15.6 -30.25,-15.68 -30.2,-15.76 -30.16,-15.83 -30.12,-15.91 -30.08,-15.99 -30.03,-16.07 -29.99,-16.15 -29.95,-16.22 -29.91,-16.3 -29.86,-16.38 -29.82,-16.46 -29.78,-16.53 -29.74,-16.61 -29.69,-16.69 -29.65,-16.76 -29.61,-16.84 -29.57,-16.92 -29.52,-16.99 -29.48,-17.07 -29.44,-17.15 -29.4,-17.22 -29.35,-17.3 -29.31,-17.38 -29.27,-17.45 -29.23,-17.53 -29.18,-17.6 -29.14,-17.68 -29.1,-17.75 -29.06,-17.83 -29.01,-17.9 -28.97,-17.98 -28.93,-18.06 -28.89,-18.13 -28.84,-18.2 -28.8,-18.28 -28.76,-18.35 -28.72,-18.43 -28.68,-18.5 -28.63,-18.58 -28.59,-18.65 -28.55,-18.72 -28.51,-18.8 -28.46,-18.87 -28.42,-18.95 -28.38,-19.02 -28.34,-19.09 -28.29,-19.17 -28.25,-19.24 -28.21,-19.31 -28.17,-19.38 -28.12,-19.46 -28.08,-19.53 -28.04,-19.6 -28,-19.67 -27.95,-19.75 -27.91,-19.82 -27.87,-19.89 -27.83,-19.96 -27.78,-20.03 -27.74,-20.11 -27.7,-20.18 -27.66,-20.25 -27.61,-20.32 -27.57,-20.39 -27.53,-20.46 -27.49,-20.53 -27.44,-20.6 -27.4,-20.67 -27.36,-20.75 -27.32,-20.82 -27.27,-20.89 -27.23,-20.96 -27.19,-21.03 -27.15,-21.1 -27.1,-21.17 -27.06,-21.23 -27.02,-21.3 -26.98,-21.37 -26.93,-21.44 -26.89,-21.51 -26.85,-21.58 -26.81,-21.65 -26.76,-21.72 -26.72,-21.79 -26.68,-21.85 -26.64,-21.92 -26.6,-21.99 -26.55,-22.06 -26.51,-22.13 -26.47,-22.2 -26.43,-22.26 -26.38,-22.33 -26.34,-22.4 -26.3,-22.46 -26.26,-22.53 -26.21,-22.6 -26.17,-22.67 -26.13,-22.73 -26.09,-22.8 -26.04,-22.87 -26,-22.93 -25.96,-23 -25.92,-23.06 -25.87,-23.13 -25.83,-23.2 -25.79,-23.26 -25.75,-23.33 -25.7,-23.39 -25.66,-23.46 -25.62,-23.52 -25.58,-23.59 -25.53,-23.65 -25.49,-23.72 -25.45,-23.78 -25.41,-23.84 -25.36,-23.91 -25.32,-23.97 -25.28,-24.04 -25.24,-24.1 -25.19,-24.16 -25.15,-24.23 -25.11,-24.29 -25.07,-24.35 -25.02,-24.42 -24.98,-24.48 -24.94,-24.54 -24.9,-24.61 -24.85,-24.67 -24.81,-24.73 -24.77,-24.79 -24.73,-24.86 -24.68,-24.92 -24.64,-24.98 -24.6,-25.04 -24.56,-25.1 -24.52,-25.16 -24.47,-25.22 -24.43,-25.29 -24.39,-25.35 -24.35,-25.41 -24.3,-25.47 -24.26,-25.53 -24.22,-25.59 -24.18,-25.65 -24.13,-25.71 -24.09,-25.77 -24.05,-25.83 -24.01,-25.89 -23.96,-25.95 -23.92,-26.01 -23.88,-26.07 -23.84,-26.13 -23.79,-26.19 -23.75,-26.24 -23.71,-26.3 -23.67,-26.36 -23.62,-26.42 -23.58,-26.48 -23.54,-26.54 -23.5,-26.59 -23.45,-26.65 -23.41,-26.71 -23.37,-26.77 -23.33,-26.82 -23.28,-26.88 -23.24,-26.94 -23.2,-26.99 -23.16,-27.05 -23.11,-27.11 -23.07,-27.16 -23.03,-27.22 -22.99,-27.28 -22.94,-27.33 -22.9,-27.39 -22.86,-27.44 -22.82,-27.5 -22.77,-27.55 -22.73,-27.61 -22.69,-27.66 -22.65,-27.72 -22.6,-27.77 -22.56,-27.83 -22.52,-27.88 -22.48,-27.94 -22.43,-27.99 -22.39,-28.05 -22.35,-28.1 -22.31,-28.15 -22.27,-28.21 -22.22,-28.26 -22.18,-28.31 -22.14,-28.37 -22.1,-28.42 -22.05,-28.47 -22.01,-28.52 -21.97,-28.58 -21.93,-28.63 -21.88,-28.68 -21.84,-28.73 -21.8,-28.78 -21.76,-28.84 -21.71,-28.89 -21.67,-28.94 -21.63,-28.99 -21.59,-29.04 -21.54,-29.09 -21.5,-29.14 -21.46,-29.19 -21.42,-29.24 -21.37,-29.29 -21.33,-29.34 -21.29,-29.39 -21.25,-29.44 -21.2,-29.49 -21.16,-29.54 -21.12,-29.59 -21.08,-29.64 -21.03,-29.69 -20.99,-29.74 -20.95,-29.79 -20.91,-29.84 -20.86,-29.88 -20.82,-29.93 -20.78,-29.98 -20.74,-30.03 -20.69,-30.07 -20.65,-30.12 -20.61,-30.17 -20.57,-30.22 -20.52,-30.26 -20.48,-30.31 -20.44,-30.36 -20.4,-30.4 -20.35,-30.45 -20.31,-30.5 -20.27,-30.54 -20.23,-30.59 -20.19,-30.63 -20.14,-30.68 -20.1,-30.72 -20.06,-30.77 -20.02,-30.82 -19.97,-30.86 -19.93,-30.9 -19.89,-30.95 -19.85,-30.99 -19.8,-31.04 -19.76,-31.08 -19.72,-31.13 -19.68,-31.17 -19.63,-31.21 -19.59,-31.26 -19.55,-31.3 -19.51,-31.34 -19.46,-31.39 -19.42,-31.43 -19.38,-31.47 -19.34,-31.51 -19.29,-31.56 -19.25,-31.6 -19.21,-31.64 -19.17,-31.68 -19.12,-31.72 -19.08,-31.76 -19.04,-31.81 -19,-31.85 -18.95,-31.89 -18.91,-31.93 -18.87,-31.97 -18.83,-32.01 -18.78,-32.05 -18.74,-32.09 -18.7,-32.13 -18.66,-32.17 -18.61,-32.21 -18.57,-32.25 -18.53,-32.29 -18.49,-32.33 -18.44,-32.36 -18.4,-32.4 -18.36,-32.44 -18.32,-32.48 -18.27,-32.52 -18.23,-32.56 -18.19,-32.59 -18.15,-32.63 -18.11,-32.67 -18.06,-32.71 -18.02,-32.74 -17.98,-32.78 -17.94,-32.82 -17.89,-32.85 -17.85,-32.89 -17.81,-32.93 -17.77,-32.96 -17.72,-33 -17.68,-33.03 -17.64,-33.07 -17.6,-33.11 -17.55,-33.14 -17.51,-33.18 -17.47,-33.21 -17.43,-33.25 -17.38,-33.28 -17.34,-33.31 -17.3,-33.35 -17.26,-33.38 -17.21,-33.42 -17.17,-33.45 -17.13,-33.48 -17.09,-33.52 -17.04,-33.55 -17,-33.58 -16.96,-33.62 -16.92,-33.65 -16.87,-33.68 -16.83,-33.71 -16.79,-33.75 -16.75,-33.78 -16.7,-33.81 -16.66,-33.84 -16.62,-33.87 -16.58,-33.9 -16.53,-33.93 -16.49,-33.97 -16.45,-34 -16.41,-34.03 -16.36,-34.06 -16.32,-34.09 -16.28,-34.12 -16.24,-34.15 -16.19,-34.18 -16.15,-34.21 -16.11,-34.24 -16.07,-34.26 -16.02,-34.29 -15.98,-34.32 -15.94,-34.35 -15.9,-34.38 -15.86,-34.41 -15.81,-34.44 -15.77,-34.46 -15.73,-34.49 -15.69,-34.52 -15.64,-34.55 -15.6,-34.57 -15.56,-34.6 -15.52,-34.63 -15.47,-34.65 -15.43,-34.68 -15.39,-34.71 -15.35,-34.73 -15.3,-34.76 -15.26,-34.78 -15.22,-34.81 -15.18,-34.83 -15.13,-34.86 -15.09,-34.89 -15.05,-34.91 -15.01,-34.93 -14.96,-34.96 -14.92,-34.98 -14.88,-35.01 -14.84,-35.03 -14.79,-35.06 -14.75,-35.08 -14.71,-35.1 -14.67,-35.13 -14.62,-35.15 -14.58,-35.17 -14.54,-35.19 -14.5,-35.22 -14.45,-35.24 -14.41,-35.26 -14.37,-35.28 -14.33,-35.3 -14.28,-35.33 -14.24,-35.35 -14.2,-35.37 -14.16,-35.39 -14.11,-35.41 -14.07,-35.43 -14.03,-35.45 -13.99,-35.47 -13.94,-35.49 -13.9,-35.51 -13.86,-35.53 -13.82,-35.55 -13.78,-35.57 -13.73,-35.59 -13.69,-35.61 -13.65,-35.63 -13.61,-35.65 -13.56,-35.67 -13.52,-35.68 -13.48,-35.7 -13.44,-35.72 -13.39,-35.74 -13.35,-35.76 -13.31,-35.77 -13.27,-35.79 -13.22,-35.81 -13.18,-35.82 -13.14,-35.84 -13.1,-35.86 -13.05,-35.87 -13.01,-35.89 -12.97,-35.91 -12.93,-35.92 -12.88,-35.94 -12.84,-35.95 -12.8,-35.97 -12.76,-35.98 -12.71,-36 -12.67,-36.01 -12.63,-36.03 -12.59,-36.04 -12.54,-36.05 -12.5,-36.07 -12.46,-36.08 -12.42,-36.1 -12.37,-36.11 -12.33,-36.12 -12.29,-36.14 -12.25,-36.15 -12.2,-36.16 -12.16,-36.17 -12.12,-36.19 -12.08,-36.2 -12.03,-36.21 -11.99,-36.22 -11.95,-36.23 -11.91,-36.24 -11.86,-36.26 -11.82,-36.27 -11.78,-36.28 -11.74,-36.29 -11.7,-36.3 -11.65,-36.31 -11.61,-36.32 -11.57,-36.33 -11.53,-36.34 -11.48,-36.35 -11.44,-36.36 -11.4,-36.37 -11.36,-36.38 -11.31,-36.38 -11.27,-36.39 -11.23,-36.4 -11.19,-36.41 -11.14,-36.42 -11.1,-36.43 -11.06,-36.43 -11.02,-36.44 -10.97,-36.45 -10.93,-36.45 -10.89,-36.46 -10.85,-36.47 -10.8,-36.47 -10.76,-36.48 -10.72,-36.49 -10.68,-36.49 -10.63,-36.5 -10.59,-36.5 -10.55,-36.51 -10.51,-36.52 -10.46,-36.52 -10.42,-36.53 -10.38,-36.53 -10.34,-36.53 -10.29,-36.54 -10.25,-36.54 -10.21,-36.55 -10.17,-36.55 -10.12,-36.55 -10.08,-36.56 -10.04,-36.56 -10,-36.56 -9.95,-36.57 -9.91,-36.57 -9.87,-36.57 -9.83,-36.57 -9.78,-36.58 -9.74,-36.58 -9.7,-36.58 -9.66,-36.58 -9.61,-36.58 -9.57,-36.58 -9.53,-36.58 -9.49,-36.59 -9.45,-36.59 -9.4,-36.59 -9.36,-36.59 -9.32,-36.59 -9.28,-36.59 -9.23,-36.59 -9.19,-36.59 -9.15,-36.59 -9.11,-36.58 -9.06,-36.58 -9.02,-36.58 -8.98,-36.58 -8.94,-36.58 -8.89,-36.58 -8.85,-36.58 -8.81,-36.57 -8.77,-36.57 -8.72,-36.57 -8.68,-36.57 -8.64,-36.56 -8.6,-36.56 -8.55,-36.56 -8.51,-36.55 -8.47,-36.55 -8.43,-36.54 -8.38,-36.54 -8.34,-36.54 -8.3,-36.53 -8.26,-36.53 -8.21,-36.52 -8.17,-36.52 -8.13,-36.51 -8.09,-36.51 -8.04,-36.5 -8,-36.5 -7.96,-36.49 -7.92,-36.48 -7.87,-36.48 -7.83,-36.47 -7.79,-36.46 -7.75,-36.46 -7.7,-36.45 -7.66,-36.44 -7.62,-36.44 -7.58,-36.43 -7.53,-36.42 -7.49,-36.41 -7.45,-36.41 -7.41,-36.4 -7.37,-36.39 -7.32,-36.38 -7.28,-36.37 -7.24,-36.36 -7.2,-36.35 -7.15,-36.34 -7.11,-36.33 -7.07,-36.32 -7.03,-36.31 -6.98,-36.3 -6.94,-36.29 -6.9,-36.28 -6.86,-36.27 -6.81,-36.26 -6.77,-36.25 -6.73,-36.24 -6.69,-36.23 -6.64,-36.22 -6.6,-36.2 -6.56,-36.19 -6.52,-36.18 -6.47,-36.17 -6.43,-36.16 -6.39,-36.14 -6.35,-36.13 -6.3,-36.12 -6.26,-36.1 -6.22,-36.09 -6.18,-36.08 -6.13,-36.06 -6.09,-36.05 -6.05,-36.03 -6.01,-36.02 -5.96,-36 -5.92,-35.99 -5.88,-35.98 -5.84,-35.96 -5.79,-35.94 -5.75,-35.93 -5.71,-35.91 -5.67,-35.9 -5.62,-35.88 -5.58,-35.87 -5.54,-35.85 -5.5,-35.83 -5.45,-35.82 -5.41,-35.8 -5.37,-35.78 -5.33,-35.76 -5.29,-35.75 -5.24,-35.73 -5.2,-35.71 -5.16,-35.69 -5.12,-35.68 -5.07,-35.66 -5.03,-35.64 -4.99,-35.62 -4.95,-35.6 -4.9,-35.58 -4.86,-35.56 -4.82,-35.54 -4.78,-35.52 -4.73,-35.5 -4.69,-35.48 -4.65,-35.46 -4.61,-35.44 -4.56,-35.42 -4.52,-35.4 -4.48,-35.38 -4.44,-35.36 -4.39,-35.34 -4.35,-35.32 -4.31,-35.29 -4.27,-35.27 -4.22,-35.25 -4.18,-35.23 -4.14,-35.21 -4.1,-35.18 -4.05,-35.16 -4.01,-35.14 -3.97,-35.11 -3.93,-35.09 -3.88,-35.07 -3.84,-35.04 -3.8,-35.02 -3.76,-35 -3.71,-34.97 -3.67,-34.95 -3.63,-34.92 -3.59,-34.9 -3.54,-34.87 -3.5,-34.85 -3.46,-34.82 -3.42,-34.8 -3.37,-34.77 -3.33,-34.75 -3.29,-34.72 -3.25,-34.69 -3.2,-34.67 -3.16,-34.64 -3.12,-34.62 -3.08,-34.59 -3.04,-34.56 -2.99,-34.53 -2.95,-34.51 -2.91,-34.48 -2.87,-34.45 -2.82,-34.42 -2.78,-34.4 -2.74,-34.37 -2.7,-34.34 -2.65,-34.31 -2.61,-34.28 -2.57,-34.25 -2.53,-34.22 -2.48,-34.19 -2.44,-34.16 -2.4,-34.13 -2.36,-34.1 -2.31,-34.07 -2.27,-34.04 -2.23,-34.01 -2.19,-33.98 -2.14,-33.95 -2.1,-33.92 -2.06,-33.89 -2.02,-33.86 -1.97,-33.83 -1.93,-33.8 -1.89,-33.76 -1.85,-33.73 -1.8,-33.7 -1.76,-33.67 -1.72,-33.64 -1.68,-33.6 -1.63,-33.57 -1.59,-33.54 -1.55,-33.5 -1.51,-33.47 -1.46,-33.44 -1.42,-33.4 -1.38,-33.37 -1.34,-33.34 -1.29,-33.3 -1.25,-33.27 -1.21,-33.23 -1.17,-33.2 -1.12,-33.16 -1.08,-33.13 -1.04,-33.09 -1,-33.06 -0.96,-33.02 -0.91,-32.99 -0.87,-32.95 -0.83,-32.91 -0.79,-32.88 -0.74,-32.84 -0.7,-32.8 -0.66,-32.77 -0.62,-32.73 -0.57,-32.69 -0.53,-32.66 -0.49,-32.62 -0.45,-32.58 -0.4,-32.54 -0.36,-32.5 -0.32,-32.47 -0.28,-32.43 -0.23,-32.39 -0.19,-32.35 -0.15,-32.31 -0.11,-32.27 -0.06,-32.23 -0.02,-32.19 0.02,-32.16 0.06,-32.12 0.11,-32.08 0.15,-32.04 0.19,-32 0.23,-31.96 0.28,-31.91 0.32,-31.87 0.36,-31.83 0.4,-31.79 0.45,-31.75 0.49,-31.71 0.53,-31.67 0.57,-31.63 0.62,-31.58 0.66,-31.54 0.7,-31.5 0.74,-31.46 0.79,-31.42 0.83,-31.37 0.87,-31.33 0.91,-31.29 0.96,-31.24 1,-31.2 1.04,-31.16 1.08,-31.11 1.12,-31.07 1.17,-31.03 1.21,-30.98 1.25,-30.94 1.29,-30.89 1.34,-30.85 1.38,-30.8 1.42,-30.76 1.46,-30.71 1.51,-30.67 1.55,-30.62 1.59,-30.58 1.63,-30.53 1.68,-30.49 1.72,-30.44 1.76,-30.39 1.8,-30.35 1.85,-30.3 1.89,-30.25 1.93,-30.21 1.97,-30.16 2.02,-30.11 2.06,-30.06 2.1,-30.02 2.14,-29.97 2.19,-29.92 2.23,-29.87 2.27,-29.83 2.31,-29.78 2.36,-29.73 2.4,-29.68 2.44,-29.63 2.48,-29.58 2.53,-29.53 2.57,-29.48 2.61,-29.43 2.65,-29.38 2.7,-29.33 2.74,-29.28 2.78,-29.23 2.82,-29.18 2.87,-29.13 2.91,-29.08 2.95,-29.03 2.99,-28.98 3.04,-28.93 3.08,-28.88 3.12,-28.83 3.16,-28.78 3.2,-28.73 3.25,-28.67 3.29,-28.62 3.33,-28.57 3.37,-28.52 3.42,-28.47 3.46,-28.41 3.5,-28.36 3.54,-28.31 3.59,-28.25 3.63,-28.2 3.67,-28.15 3.71,-28.09 3.76,-28.04 3.8,-27.99 3.84,-27.93 3.88,-27.88 3.93,-27.82 3.97,-27.77 4.01,-27.72 4.05,-27.66 4.1,-27.61 4.14,-27.55 4.18,-27.5 4.22,-27.44 4.27,-27.39 4.31,-27.33 4.35,-27.27 4.39,-27.22 4.44,-27.16 4.48,-27.11 4.52,-27.05 4.56,-26.99 4.61,-26.94 4.65,-26.88 4.69,-26.82 4.73,-26.77 4.78,-26.71 4.82,-26.65 4.86,-26.59 4.9,-26.54 4.95,-26.48 4.99,-26.42 5.03,-26.36 5.07,-26.3 5.12,-26.25 5.16,-26.19 5.2,-26.13 5.24,-26.07 5.29,-26.01 5.33,-25.95 5.37,-25.89 5.41,-25.83 5.45,-25.77 5.5,-25.71 5.54,-25.66 5.58,-25.6 5.62,-25.54 5.67,-25.48 5.71,-25.41 5.75,-25.35 5.79,-25.29 5.84,-25.23 5.88,-25.17 5.92,-25.11 5.96,-25.05 6.01,-24.99 6.05,-24.93 6.09,-24.87 6.13,-24.8 6.18,-24.74 6.22,-24.68 6.26,-24.62 6.3,-24.56 6.35,-24.49 6.39,-24.43 6.43,-24.37 6.47,-24.3 6.52,-24.24 6.56,-24.18 6.6,-24.12 6.64,-24.05 6.69,-23.99 6.73,-23.92 6.77,-23.86 6.81,-23.8 6.86,-23.73 6.9,-23.67 6.94,-23.6 6.98,-23.54 7.03,-23.48 7.07,-23.41 7.11,-23.35 7.15,-23.28 7.2,-23.22 7.24,-23.15 7.28,-23.09 7.32,-23.02 7.37,-22.95 7.41,-22.89 7.45,-22.82 7.49,-22.76 7.53,-22.69 7.58,-22.62 7.62,-22.56 7.66,-22.49 7.7,-22.42 7.75,-22.36 7.79,-22.29 7.83,-22.22 7.87,-22.16 7.92,-22.09 7.96,-22.02 8,-21.95 8.04,-21.89 8.09,-21.82 8.13,-21.75 8.17,-21.68 8.21,-21.61 8.26,-21.55 8.3,-21.48 8.34,-21.41 8.38,-21.34 8.43,-21.27 8.47,-21.2 8.51,-21.13 8.55,-21.06 8.6,-20.99 8.64,-20.92 8.68,-20.86 8.72,-20.79 8.77,-20.72 8.81,-20.65 8.85,-20.58 8.89,-20.51 8.94,-20.44 8.98,-20.36 9.02,-20.29 9.06,-20.22 9.11,-20.15 9.15,-20.08 9.19,-20.01 9.23,-19.94 9.28,-19.87 9.32,-19.8 9.36,-19.73 9.4,-19.65 9.45,-19.58 9.49,-19.51 9.53,-19.44 9.57,-19.37 9.61,-19.29 9.66,-19.22 9.7,-19.15 9.74,-19.08 9.78,-19 9.83,-18.93 9.87,-18.86 9.91,-18.79 9.95,-18.71 10,-18.64 10.04,-18.57 10.08,-18.49 10.12,-18.42 10.17,-18.34 10.21,-18.27 10.25,-18.2 10.29,-18.12 10.34,-18.05 10.38,-17.97 10.42,-17.9 10.46,-17.83 10.51,-17.75 10.55,-17.68 10.59,-17.6 10.63,-17.53 10.68,-17.45 10.72,-17.38 10.76,-17.3 10.8,-17.23 10.85,-17.15 10.89,-17.08 10.93,-17 10.97,-16.92 11.02,-16.85 11.06,-16.77 11.1,-16.7 11.14,-16.62 11.19,-16.54 11.23,-16.47 11.27,-16.39 11.31,-16.31 11.36,-16.24 11.4,-16.16 11.44,-16.08 11.48,-16.01 11.53,-15.93 11.57,-15.85 11.61,-15.77 11.65,-15.7 11.7,-15.62 11.74,-15.54 11.78,-15.46 11.82,-15.39 11.86,-15.31 11.91,-15.23 11.95,-15.15 11.99,-15.07 12.03,-15 12.08,-14.92 12.12,-14.84 12.16,-14.76 12.2,-14.68 12.25,-14.6 12.29,-14.52 12.33,-14.44 12.37,-14.37 12.42,-14.29 12.46,-14.21 12.5,-14.13 12.54,-14.05 12.59,-13.97 12.63,-13.89 12.67,-13.81 12.71,-13.73 12.76,-13.65 12.8,-13.57 12.84,-13.49 12.88,-13.41 12.93,-13.33 12.97,-13.25 13.01,-13.17 13.05,-13.09 13.1,-13.01 13.14,-12.92 13.18,-12.84 13.22,-12.76 13.27,-12.68 13.31,-12.6 13.35,-12.52 13.39,-12.44 13.44,-12.36 13.48,-12.27 13.52,-12.19 13.56,-12.11 13.61,-12.03 13.65,-11.95 13.69,-11.87 13.73,-11.78 13.78,-11.7 13.82,-11.62 13.86,-11.54 13.9,-11.45 13.94,-11.37 13.99,-11.29 14.03,-11.21 14.07,-11.12 14.11,-11.04 14.16,-10.96 14.2,-10.88 14.24,-10.79 14.28,-10.71 14.33,-10.63 14.37,-10.54 14.41,-10.46 14.45,-10.38 14.5,-10.29 14.54,-10.21 14.58,-10.13 14.62,-10.04 14.67,-9.96 14.71,-9.87 14.75,-9.79 14.79,-9.71 14.84,-9.62 14.88,-9.54 14.92,-9.45 14.96,-9.37 15.01,-9.28 15.05,-9.2 15.09,-9.12 15.13,-9.03 15.18,-8.95 15.22,-8.86 15.26,-8.78 15.3,-8.69 15.35,-8.61 15.39,-8.52 15.43,-8.44 15.47,-8.35 15.52,-8.26 15.56,-8.18 15.6,-8.09 15.64,-8.01 15.69,-7.92 15.73,-7.84 15.77,-7.75 15.81,-7.67 15.86,-7.58 15.9,-7.49 15.94,-7.41 15.98,-7.32 16.02,-7.24 16.07,-7.15 16.11,-7.06 16.15,-6.98 16.19,-6.89 16.24,-6.8 16.28,-6.72 16.32,-6.63 16.36,-6.54 16.41,-6.46 16.45,-6.37 16.49,-6.28 16.53,-6.2 16.58,-6.11 16.62,-6.02 16.66,-5.93 16.7,-5.85 16.75,-5.76 16.79,-5.67 16.83,-5.59 16.87,-5.5 16.92,-5.41 16.96,-5.32 17,-5.24 17.04,-5.15 17.09,-5.06 17.13,-4.97 17.17,-4.88 17.21,-4.8 17.26,-4.71 17.3,-4.62 17.34,-4.53 17.38,-4.44 17.43,-4.36 17.47,-4.27 17.51,-4.18 17.55,-4.09 17.6,-4 17.64,-3.91 17.68,-3.82 17.72,-3.74 17.77,-3.65 17.81,-3.56 17.85,-3.47 17.89,-3.38 17.94,-3.29 17.98,-3.2 18.02,-3.11 18.06,-3.03 18.11,-2.94 18.15,-2.85 18.19,-2.76 18.23,-2.67 18.27,-2.58 18.32,-2.49 18.36,-2.4 18.4,-2.31 18.44,-2.22 18.49,-2.13 18.53,-2.04 18.57,-1.95 18.61,-1.86 18.66,-1.77 18.7,-1.68 18.74,-1.59 18.78,-1.51 18.83,-1.42 18.87,-1.33 18.91,-1.24 18.95,-1.15 19,-1.06 19.04,-0.97 19.08,-0.88 19.12,-0.79 19.17,-0.69 19.21,-0.6 19.25,-0.51 19.29,-0.42 19.34,-0.33 19.38,-0.24 19.42,-0.15 19.46,-0.06 19.51,0.03 19.55,0.12 19.59,0.21 19.63,0.3 19.68,0.39 19.72,0.48 19.76,0.57 19.8,0.66 19.85,0.75 19.89,0.84 19.93,0.94 19.97,1.03 20.02,1.12 20.06,1.21 20.1,1.3 20.14,1.39 20.19,1.48 20.23,1.57 20.27,1.66 20.31,1.75 20.35,1.85 20.4,1.94 20.44,2.03 20.48,2.12 20.52,2.21 20.57,2.3 20.61,2.39 20.65,2.49 20.69,2.58 20.74,2.67 20.78,2.76 20.82,2.85 20.86,2.94 20.91,3.03 20.95,3.13 20.99,3.22 21.03,3.31 21.08,3.4 21.12,3.49 21.16,3.58 21.2,3.68 21.25,3.77 21.29,3.86 21.33,3.95 21.37,4.04 21.42,4.13 21.46,4.23 21.5,4.32 21.54,4.41 21.59,4.5 21.63,4.59 21.67,4.69 21.71,4.78 21.76,4.87 21.8,4.96 21.84,5.05 21.88,5.15 21.93,5.24 21.97,5.33 22.01,5.42 22.05,5.52 22.1,5.61 22.14,5.7 22.18,5.79 22.22,5.88 22.27,5.98 22.31,6.07 22.35,6.16 22.39,6.25 22.43,6.34 22.48,6.44 22.52,6.53 22.56,6.62 22.6,6.71 22.65,6.81 22.69,6.9 22.73,6.99 22.77,7.08 22.82,7.18 22.86,7.27 22.9,7.36 22.94,7.45 22.99,7.55 23.03,7.64 23.07,7.73 23.11,7.82 23.16,7.91 23.2,8.01 23.24,8.1 23.28,8.19 23.33,8.28 23.37,8.38 23.41,8.47 23.45,8.56 23.5,8.65 23.54,8.75 23.58,8.84 23.62,8.93 23.67,9.02 23.71,9.12 23.75,9.21 23.79,9.3 23.84,9.39 23.88,9.49 23.92,9.58 23.96,9.67 24.01,9.76 24.05,9.86 24.09,9.95 24.13,10.04 24.18,10.13 24.22,10.23 24.26,10.32 24.3,10.41 24.35,10.5 24.39,10.6 24.43,10.69 24.47,10.78 24.52,10.87 24.56,10.97 24.6,11.06 24.64,11.15 24.68,11.24 24.73,11.34 24.77,11.43 24.81,11.52 24.85,11.61 24.9,11.71 24.94,11.8 24.98,11.89 25.02,11.98 25.07,12.07 25.11,12.17 25.15,12.26 25.19,12.35 25.24,12.44 25.28,12.54 25.32,12.63 25.36,12.72 25.41,12.81 25.45,12.91 25.49,13 25.53,13.09 25.58,13.18 25.62,13.27 25.66,13.37 25.7,13.46 25.75,13.55 25.79,13.64 25.83,13.73 25.87,13.83 25.92,13.92 25.96,14.01 26,14.1 26.04,14.19 26.09,14.29 26.13,14.38 26.17,14.47 26.21,14.56 26.26,14.65 26.3,14.75 26.34,14.84 26.38,14.93 26.43,15.02 26.47,15.11 26.51,15.21 26.55,15.3 26.6,15.39 26.64,15.48 26.68,15.57 26.72,15.66 26.76,15.76 26.81,15.85 26.85,15.94 26.89,16.03 26.93,16.12 26.98,16.21 27.02,16.3 27.06,16.4 27.1,16.49 27.15,16.58 27.19,16.67 27.23,16.76 27.27,16.85 27.32,16.94 27.36,17.04 27.4,17.13 27.44,17.22 27.49,17.31 27.53,17.4 27.57,17.49 27.61,17.58 27.66,17.67 27.7,17.76 27.74,17.86 27.78,17.95 27.83,18.04 27.87,18.13 27.91,18.22 27.95,18.31 28,18.4 28.04,18.49 28.08,18.58 28.12,18.67 28.17,18.76 28.21,18.85 28.25,18.94 28.29,19.03 28.34,19.13 28.38,19.22 28.42,19.31 28.46,19.4 28.51,19.49 28.55,19.58 28.59,19.67 28.63,19.76 28.68,19.85 28.72,19.94 28.76,20.03 28.8,20.12 28.84,20.21 28.89,20.3 28.93,20.39 28.97,20.48 29.01,20.57 29.06,20.66 29.1,20.75 29.14,20.84 29.18,20.93 29.23,21.02 29.27,21.11 29.31,21.19 29.35,21.28 29.4,21.37 29.44,21.46 29.48,21.55 29.52,21.64 29.57,21.73 29.61,21.82 29.65,21.91 29.69,22 29.74,22.09 29.78,22.18 29.82,22.27 29.86,22.35 29.91,22.44 29.95,22.53 29.99,22.62 30.03,22.71 30.08,22.8 30.12,22.89 30.16,22.97 30.2,23.06 30.25,23.15 30.29,23.24 30.33,23.33 30.37,23.42 30.42,23.5 30.46,23.59 30.5,23.68 30.54,23.77 30.59,23.86 30.63,23.95 30.67,24.03 30.71,24.12 30.76,24.21 30.8,24.3 30.84,24.38 30.88,24.47 30.93,24.56 30.97,24.65 31.01,24.73 31.05,24.82 31.09,24.91 31.14,25 31.18,25.08 31.22,25.17 31.26,25.26 31.31,25.34 31.35,25.43 31.39,25.52 31.43,25.6 31.48,25.69 31.52,25.78 31.56,25.86 31.6,25.95 31.65,26.04 31.69,26.12 31.73,26.21 31.77,26.3 31.82,26.38 31.86,26.47 31.9,26.56 31.94,26.64 31.99,26.73 32.03,26.81 32.07,26.9 32.11,26.98 32.16,27.07 32.2,27.16 32.24,27.24 32.28,27.33 32.33,27.41 32.37,27.5 32.41,27.58 32.45,27.67 32.5,27.75 32.54,27.84 32.58,27.92 32.62,28.01 32.67,28.09 32.71,28.18 32.75,28.26 32.79,28.35 32.84,28.43 32.88,28.52 32.92,28.6 32.96,28.69 33.01,28.77 33.05,28.85 33.09,28.94 33.13,29.02 33.17,29.11 33.22,29.19 33.26,29.27 33.3,29.36 33.34,29.44 33.39,29.52 33.43,29.61 33.47,29.69 33.51,29.77 33.56,29.86 33.6,29.94 33.64,30.02 33.68,30.11 33.73,30.19 33.77,30.27 33.81,30.36 33.85,30.44 33.9,30.52 33.94,30.6 33.98,30.69 34.02,30.77 34.07,30.85 34.11,30.93 34.15,31.02 34.19,31.1 34.24,31.18 34.28,31.26 34.32,31.34 34.36,31.43 34.41,31.51 34.45,31.59 34.49,31.67 34.53,31.75 34.58,31.83 34.62,31.91 34.66,32 34.7,32.08 34.75,32.16 34.79,32.24 34.83,32.32 34.87,32.4 34.92,32.48 34.96,32.56 35,32.64 35.04,32.72 35.09,32.8 35.13,32.88 35.17,32.96 35.21,33.04 35.25,33.12 35.3,33.2 35.34,33.28 35.38,33.36 35.42,33.44 35.47,33.52 35.51,33.6 35.55,33.68 35.59,33.76 35.64,33.84 35.68,33.92 35.72,34 35.76,34.07 35.81,34.15 35.85,34.23 35.89,34.31 35.93,34.39 35.98,34.47 36.02,34.55 36.06,34.62 36.1,34.7 36.15,34.78 36.19,34.86 36.23,34.94 36.27,35.01 36.32,35.09 36.36,35.17 36.4,35.25 36.44,35.32 36.49,35.4 36.53,35.48 36.57,35.55 36.61,35.63 36.66,35.71 36.7,35.78 36.74,35.86 36.78,35.94 36.83,36.01 36.87,36.09 36.91,36.17 36.95,36.24 37,36.32 37.04,36.39 37.08,36.47 37.12,36.55 37.17,36.62 37.21,36.7 37.25,36.77 37.29,36.85 37.34,36.92 37.38,37 37.42,37.07 37.46,37.15 37.5,37.22 37.55,37.3 37.59,37.37 37.63,37.45 37.67,37.52 37.72,37.6 37.76,37.67 37.8,37.74 37.84,37.82 37.89,37.89 37.93,37.97 37.97,38.04 38.01,38.11 38.06,38.19 38.1,38.26 38.14,38.33 38.18,38.41 38.23,38.48 38.27,38.55 38.31,38.62 38.35,38.7 38.4,38.77 38.44,38.84 38.48,38.91 38.52,38.99 38.57,39.06 38.61,39.13 38.65,39.2 38.69,39.28 38.74,39.35 38.78,39.42 38.82,39.49 38.86,39.56 38.91,39.63 38.95,39.7 38.99,39.77 39.03,39.85 39.08,39.92 39.12,39.99 39.16,40.06 39.2,40.13 39.25,40.2 39.29,40.27 39.33,40.34 39.37,40.41 39.42,40.48 39.46,40.55 39.5,40.62 39.54,40.69 39.58,40.76 39.63,40.83 39.67,40.9 39.71,40.97 39.75,41.03 39.8,41.1 39.84,41.17 39.88,41.24 39.92,41.31 39.97,41.38 40.01,41.45 40.05,41.51 40.09,41.58 40.14,41.65 40.18,41.72 40.22,41.79 40.26,41.85 40.31,41.92 40.35,41.99 40.39,42.06 40.43,42.12 40.48,42.19 40.52,42.26 40.56,42.32 40.6,42.39 40.65,42.46 40.69,42.52 40.73,42.59 40.77,42.66 40.82,42.72 40.86,42.79 40.9,42.85 40.94,42.92 40.99,42.99 41.03,43.05 41.07,43.12 41.11,43.18 41.16,43.25 41.2,43.31 41.24,43.38 41.28,43.44 41.33,43.51 41.37,43.57 41.41,43.64 41.45,43.7 41.5,43.76 41.54,43.83 41.58,43.89 41.62,43.96 41.66,44.02 41.71,44.08 41.75,44.15 41.79,44.21 41.83,44.27 41.88,44.34 41.92,44.4 41.96,44.46 42,44.52 42.05,44.59 42.09,44.65 42.13,44.71 42.17,44.77 42.22,44.84 42.26,44.9 42.3,44.96 42.34,45.02 42.39,45.08 42.43,45.14 42.47,45.2 42.51,45.27 42.56,45.33 42.6,45.39 42.64,45.45 42.68,45.51 42.73,45.57 42.77,45.63 42.81,45.69 42.85,45.75 42.9,45.81 42.94,45.87 42.98,45.93 43.02,45.99 43.07,46.05 43.11,46.11 43.15,46.17 43.19,46.23 43.24,46.29 43.28,46.35 43.32,46.4 43.36,46.46 43.41,46.52 43.45,46.58 43.49,46.64 43.53,46.7 43.58,46.75 43.62,46.81 43.66,46.87 43.7,46.93 43.75,46.98 43.79,47.04 43.83,47.1 43.87,47.16 43.91,47.21 43.96,47.27 44,47.33 44.04,47.38 44.08,47.44 44.13,47.5 44.17,47.55 44.21,47.61 44.25,47.66 44.3,47.72 44.34,47.78 44.38,47.83 44.42,47.89 44.47,47.94 44.51,48 44.55,48.05 44.59,48.11 44.64,48.16 44.68,48.22 44.72,48.27 44.76,48.32 44.81,48.38 44.85,48.43 44.89,48.49 44.93,48.54 44.98,48.59 45.02,48.65 45.06,48.7 45.1,48.75 45.15,48.81 45.19,48.86 45.23,48.91 45.27,48.97 45.32,49.02 45.36,49.07 45.4,49.12 45.44,49.18 45.49,49.23 45.53,49.28 45.57,49.33 45.61,49.38 45.66,49.43 45.7,49.49 45.74,49.54 45.78,49.59 45.83,49.64 45.87,49.69 45.91,49.74 45.95,49.79 45.99,49.84 46.04,49.89 46.08,49.94 46.12,49.99 46.16,50.04 46.21,50.09 46.25,50.14 46.29,50.19 46.33,50.24 46.38,50.29 46.42,50.34 46.46,50.39 46.5,50.44 46.55,50.48 46.59,50.53 46.63,50.58 46.67,50.63 46.72,50.68 46.76,50.73 46.8,50.77 46.84,50.82 46.89,50.87 46.93,50.92 46.97,50.96 47.01,51.01 47.06,51.06 47.1,51.11 47.14,51.15 47.18,51.2 47.23,51.25 47.27,51.29 47.31,51.34 47.35,51.38 47.4,51.43 47.44,51.48 47.48,51.52 47.52,51.57 47.57,51.61 47.61,51.66 47.65,51.7 47.69,51.75 47.74,51.79 47.78,51.84 47.82,51.88 47.86,51.93 47.91,51.97 47.95,52.01 47.99,52.06 48.03,52.1 48.07,52.15 48.12,52.19 48.16,52.23 48.2,52.28 48.24,52.32 48.29,52.36 48.33,52.41 48.37,52.45 48.41,52.49 48.46,52.53 48.5,52.58 48.54,52.62 48.58,52.66 48.63,52.7 48.67,52.75 48.71,52.79 48.75,52.83 48.8,52.87 48.84,52.91 48.88,52.95 48.92,52.99 48.97,53.03 49.01,53.08 49.05,53.12 49.09,53.16 49.14,53.2 49.18,53.24 49.22,53.28 49.26,53.32 49.31,53.36 49.35,53.4 49.39,53.44 49.43,53.48 49.48,53.51 49.52,53.55 49.56,53.59 49.6,53.63 49.65,53.67 49.69,53.71 49.73,53.75 49.77,53.79 49.82,53.82 49.86,53.86 49.9,53.9 49.94,53.94 49.99,53.98 50.03,54.01 50.07,54.05 50.11,54.09 50.16,54.12 50.2,54.16 50.24,54.2 50.28,54.23 50.32,54.27 50.37,54.31 50.41,54.34 50.45,54.38 50.49,54.42 50.54,54.45 50.58,54.49 50.62,54.52 50.66,54.56 50.71,54.59 50.75,54.63 50.79,54.66 50.83,54.7 50.88,54.73 50.92,54.77 50.96,54.8 51,54.84 51.05,54.87 51.09,54.91 51.13,54.94 51.17,54.97 51.22,55.01 51.26,55.04 51.3,55.07 51.34,55.11 51.39,55.14 51.43,55.17 51.47,55.21 51.51,55.24 51.56,55.27 51.6,55.3 51.64,55.34 51.68,55.37 51.73,55.4 51.77,55.43 51.81,55.47 51.85,55.5 51.9,55.53 51.94,55.56 51.98,55.59 52.02,55.62 52.07,55.65 52.11,55.68 52.15,55.71 52.19,55.75 52.24,55.78 52.28,55.81 52.32,55.84 52.36,55.87 52.4,55.9 52.45,55.93 52.49,55.96 52.53,55.99 52.57,56.02 52.62,56.04 52.66,56.07 52.7,56.1 52.74,56.13 52.79,56.16 52.83,56.19 52.87,56.22 52.91,56.25 52.96,56.27 53,56.3 53.04,56.33 " class="primitive"/>
            </g>
          </g>
        </g>
      </g>
    </g>
  </g>
  <g class="guide ylabels" font-size="2.82" font-family="'PT Sans Caption','Helvetica Neue','Helvetica',sans-serif" fill="#6C606B" id="img-bca44f9e-23">
    <g transform="translate(10.02,108.33)" id="img-bca44f9e-24">
      <g class="primitive">
        <text text-anchor="end" dy="0.35em">0.0</text>
      </g>
    </g>
    <g transform="translate(10.02,88.06)" id="img-bca44f9e-25">
      <g class="primitive">
        <text text-anchor="end" dy="0.35em">0.5</text>
      </g>
    </g>
    <g transform="translate(10.02,67.8)" id="img-bca44f9e-26">
      <g class="primitive">
        <text text-anchor="end" dy="0.35em">1.0</text>
      </g>
    </g>
    <g transform="translate(10.02,47.53)" id="img-bca44f9e-27">
      <g class="primitive">
        <text text-anchor="end" dy="0.35em">1.5</text>
      </g>
    </g>
    <g transform="translate(10.02,27.27)" id="img-bca44f9e-28">
      <g class="primitive">
        <text text-anchor="end" dy="0.35em">2.0</text>
      </g>
    </g>
    <g transform="translate(10.02,7)" id="img-bca44f9e-29">
      <g class="primitive">
        <text text-anchor="end" dy="0.35em">2.5</text>
      </g>
    </g>
  </g>
</g>
<defs>
  <clipPath id="img-bca44f9e-3">
    <path d="M11.02,5 L155,5 155,110.33 11.02,110.33 " />
  </clipPath>
</defs>
</svg>
