<?xml version="1.0" encoding="UTF-8"?>
<svg xmlns="http://www.w3.org/2000/svg"
     xmlns:xlink="http://www.w3.org/1999/xlink"
     xmlns:gadfly="http://www.gadflyjl.org/ns"
     version="1.2"
     width="160mm" height="120mm" viewBox="0 0 160 120"
     stroke="none"
     fill="#000000"
     stroke-width="0.3"
     font-size="3.88"
>
<defs>
  <marker id="arrow" markerWidth="15" markerHeight="7" refX="5" refY="3.5" orient="auto" markerUnits="strokeWidth">
    <path d="M0,0 L15,3.5 L0,7 z" stroke="context-stroke" fill="context-stroke"/>
  </marker>
</defs>
<g class="plotroot xscalable yscalable" id="img-033cd6ab-1">
  <g class="guide xlabels" font-size="2.82" font-family="'PT Sans Caption','Helvetica Neue','Helvetica',sans-serif" fill="#6C606B" id="img-033cd6ab-2">
    <g transform="translate(10.67,111.33)">
      <g class="primitive">
        <text text-anchor="middle" dy="0.6em">-1.0</text>
      </g>
    </g>
    <g transform="translate(58.12,111.33)">
      <g class="primitive">
        <text text-anchor="middle" dy="0.6em">-0.5</text>
      </g>
    </g>
    <g transform="translate(105.56,111.33)">
      <g class="primitive">
        <text text-anchor="middle" dy="0.6em">0.0</text>
      </g>
    </g>
    <g transform="translate(153,111.33)">
      <g class="primitive">
        <text text-anchor="middle" dy="0.6em">0.5</text>
      </g>
    </g>
  </g>
  <g clip-path="url(#img-033cd6ab-3)">
    <g id="img-033cd6ab-4">
      <g pointer-events="visible" stroke-width="0.3" fill="#000000" fill-opacity="0.000" stroke="#000000" stroke-opacity="0.000" class="guide background" id="img-033cd6ab-5">
        <g transform="translate(81.84,57.66)" id="img-033cd6ab-6">
          <path d="M-73.16,-52.66 L73.16,-52.66 73.16,52.66 -73.16,52.66  z" class="primitive"/>
        </g>
      </g>
      <g class="guide ygridlines xfixed" stroke-dasharray="0.5,0.5" stroke-width="0.2" stroke="#D0D0E0" id="img-033cd6ab-7">
        <g transform="translate(81.84,108.33)" id="img-033cd6ab-8">
          <path fill="none" d="M-73.16,0 L73.16,0 " class="primitive"/>
        </g>
        <g transform="translate(81.84,91.44)" id="img-033cd6ab-9">
          <path fill="none" d="M-73.16,0 L73.16,0 " class="primitive"/>
        </g>
        <g transform="translate(81.84,74.55)" id="img-033cd6ab-10">
          <path fill="none" d="M-73.16,0 L73.16,0 " class="primitive"/>
        </g>
        <g transform="translate(81.84,57.66)" id="img-033cd6ab-11">
          <path fill="none" d="M-73.16,0 L73.16,0 " class="primitive"/>
        </g>
        <g transform="translate(81.84,40.78)" id="img-033cd6ab-12">
          <path fill="none" d="M-73.16,0 L73.16,0 " class="primitive"/>
        </g>
        <g transform="translate(81.84,23.89)" id="img-033cd6ab-13">
          <path fill="none" d="M-73.16,0 L73.16,0 " class="primitive"/>
        </g>
        <g transform="translate(81.84,7)" id="img-033cd6ab-14">
          <path fill="none" d="M-73.16,0 L73.16,0 " class="primitive"/>
        </g>
      </g>
      <g class="guide xgridlines yfixed" stroke-dasharray="0.5,0.5" stroke-width="0.2" stroke="#D0D0E0" id="img-033cd6ab-15">
        <g transform="translate(10.67,57.66)" id="img-033cd6ab-16">
          <path fill="none" d="M0,-52.66 L0,52.66 " class="primitive"/>
        </g>
        <g transform="translate(58.12,57.66)" id="img-033cd6ab-17">
          <path fill="none" d="M0,-52.66 L0,52.66 " class="primitive"/>
        </g>
        <g transform="translate(105.56,57.66)" id="img-033cd6ab-18">
          <path fill="none" d="M0,-52.66 L0,52.66 " class="primitive"/>
        </g>
        <g transform="translate(153,57.66)" id="img-033cd6ab-19">
          <path fill="none" d="M0,-52.66 L0,52.66 " class="primitive"/>
        </g>
      </g>
      <g class="plotpanel" id="img-033cd6ab-20">
        <metadata>
          <boundingbox value="8.673333333333346mm 5.0mm 146.32666666666668mm 105.32666666666668mm"/>
          <unitbox value="-1.021078270644995 6.118428844002895 1.54215654128999 -6.23685768800579"/>
        </metadata>
        <g stroke-width="0.3" fill="#000000" fill-opacity="0.000" class="geometry" id="img-033cd6ab-21">
          <g class="color_LCHab{Float32}(70.0f0,60.0f0,240.0f0)" stroke-dasharray="none" stroke="#00BFFF" id="img-033cd6ab-22">
            <g transform="translate(70.67,50.73)" id="img-033cd6ab-23">
              <path fill="none" d="M-48.63,52.23 L-48.59,52.13 -48.55,52.03 -48.51,51.92 -48.47,51.82 -48.43,51.72 -48.39,51.61 -48.35,51.51 -48.31,51.41 -48.28,51.3 -48.24,51.2 -48.2,51.1 -48.16,50.99 -48.12,50.89 -48.08,50.78 -48.04,50.68 -48,50.58 -47.96,50.47 -47.93,50.37 -47.89,50.26 -47.85,50.16 -47.81,50.05 -47.77,49.95 -47.73,49.84 -47.69,49.74 -47.65,49.63 -47.61,49.53 -47.58,49.42 -47.54,49.32 -47.5,49.21 -47.46,49.11 -47.42,49 -47.38,48.89 -47.34,48.79 -47.3,48.68 -47.26,48.58 -47.23,48.47 -47.19,48.36 -47.15,48.26 -47.11,48.15 -47.07,48.04 -47.03,47.94 -46.99,47.83 -46.95,47.72 -46.91,47.62 -46.87,47.51 -46.84,47.4 -46.8,47.29 -46.76,47.19 -46.72,47.08 -46.68,46.97 -46.64,46.86 -46.6,46.76 -46.56,46.65 -46.52,46.54 -46.49,46.43 -46.45,46.32 -46.41,46.22 -46.37,46.11 -46.33,46 -46.29,45.89 -46.25,45.78 -46.21,45.67 -46.17,45.56 -46.14,45.46 -46.1,45.35 -46.06,45.24 -46.02,45.13 -45.98,45.02 -45.94,44.91 -45.9,44.8 -45.86,44.69 -45.82,44.58 -45.79,44.47 -45.75,44.36 -45.71,44.25 -45.67,44.14 -45.63,44.03 -45.59,43.92 -45.55,43.81 -45.51,43.7 -45.47,43.59 -45.43,43.48 -45.4,43.37 -45.36,43.26 -45.32,43.15 -45.28,43.04 -45.24,42.93 -45.2,42.82 -45.16,42.71 -45.12,42.6 -45.08,42.49 -45.05,42.38 -45.01,42.27 -44.97,42.16 -44.93,42.05 -44.89,41.94 -44.85,41.83 -44.81,41.71 -44.77,41.6 -44.73,41.49 -44.7,41.38 -44.66,41.27 -44.62,41.16 -44.58,41.05 -44.54,40.94 -44.5,40.82 -44.46,40.71 -44.42,40.6 -44.38,40.49 -44.35,40.38 -44.31,40.27 -44.27,40.15 -44.23,40.04 -44.19,39.93 -44.15,39.82 -44.11,39.71 -44.07,39.59 -44.03,39.48 -43.99,39.37 -43.96,39.26 -43.92,39.15 -43.88,39.03 -43.84,38.92 -43.8,38.81 -43.76,38.7 -43.72,38.58 -43.68,38.47 -43.64,38.36 -43.61,38.25 -43.57,38.13 -43.53,38.02 -43.49,37.91 -43.45,37.79 -43.41,37.68 -43.37,37.57 -43.33,37.46 -43.29,37.34 -43.26,37.23 -43.22,37.12 -43.18,37 -43.14,36.89 -43.1,36.78 -43.06,36.67 -43.02,36.55 -42.98,36.44 -42.94,36.33 -42.91,36.21 -42.87,36.1 -42.83,35.99 -42.79,35.87 -42.75,35.76 -42.71,35.65 -42.67,35.53 -42.63,35.42 -42.59,35.31 -42.56,35.19 -42.52,35.08 -42.48,34.97 -42.44,34.85 -42.4,34.74 -42.36,34.63 -42.32,34.51 -42.28,34.4 -42.24,34.29 -42.2,34.17 -42.17,34.06 -42.13,33.94 -42.09,33.83 -42.05,33.72 -42.01,33.6 -41.97,33.49 -41.93,33.38 -41.89,33.26 -41.85,33.15 -41.82,33.04 -41.78,32.92 -41.74,32.81 -41.7,32.69 -41.66,32.58 -41.62,32.47 -41.58,32.35 -41.54,32.24 -41.5,32.12 -41.47,32.01 -41.43,31.9 -41.39,31.78 -41.35,31.67 -41.31,31.56 -41.27,31.44 -41.23,31.33 -41.19,31.21 -41.15,31.1 -41.12,30.99 -41.08,30.87 -41.04,30.76 -41,30.64 -40.96,30.53 -40.92,30.42 -40.88,30.3 -40.84,30.19 -40.8,30.08 -40.76,29.96 -40.73,29.85 -40.69,29.73 -40.65,29.62 -40.61,29.51 -40.57,29.39 -40.53,29.28 -40.49,29.16 -40.45,29.05 -40.41,28.94 -40.38,28.82 -40.34,28.71 -40.3,28.6 -40.26,28.48 -40.22,28.37 -40.18,28.25 -40.14,28.14 -40.1,28.03 -40.06,27.91 -40.03,27.8 -39.99,27.69 -39.95,27.57 -39.91,27.46 -39.87,27.34 -39.83,27.23 -39.79,27.12 -39.75,27 -39.71,26.89 -39.68,26.78 -39.64,26.66 -39.6,26.55 -39.56,26.44 -39.52,26.32 -39.48,26.21 -39.44,26.09 -39.4,25.98 -39.36,25.87 -39.32,25.75 -39.29,25.64 -39.25,25.53 -39.21,25.41 -39.17,25.3 -39.13,25.19 -39.09,25.07 -39.05,24.96 -39.01,24.85 -38.97,24.73 -38.94,24.62 -38.9,24.51 -38.86,24.4 -38.82,24.28 -38.78,24.17 -38.74,24.06 -38.7,23.94 -38.66,23.83 -38.62,23.72 -38.59,23.6 -38.55,23.49 -38.51,23.38 -38.47,23.27 -38.43,23.15 -38.39,23.04 -38.35,22.93 -38.31,22.81 -38.27,22.7 -38.24,22.59 -38.2,22.48 -38.16,22.36 -38.12,22.25 -38.08,22.14 -38.04,22.03 -38,21.91 -37.96,21.8 -37.92,21.69 -37.89,21.58 -37.85,21.46 -37.81,21.35 -37.77,21.24 -37.73,21.13 -37.69,21.02 -37.65,20.9 -37.61,20.79 -37.57,20.68 -37.53,20.57 -37.5,20.46 -37.46,20.34 -37.42,20.23 -37.38,20.12 -37.34,20.01 -37.3,19.9 -37.26,19.79 -37.22,19.67 -37.18,19.56 -37.15,19.45 -37.11,19.34 -37.07,19.23 -37.03,19.12 -36.99,19.01 -36.95,18.89 -36.91,18.78 -36.87,18.67 -36.83,18.56 -36.8,18.45 -36.76,18.34 -36.72,18.23 -36.68,18.12 -36.64,18.01 -36.6,17.9 -36.56,17.78 -36.52,17.67 -36.48,17.56 -36.45,17.45 -36.41,17.34 -36.37,17.23 -36.33,17.12 -36.29,17.01 -36.25,16.9 -36.21,16.79 -36.17,16.68 -36.13,16.57 -36.09,16.46 -36.06,16.35 -36.02,16.24 -35.98,16.13 -35.94,16.02 -35.9,15.91 -35.86,15.8 -35.82,15.69 -35.78,15.58 -35.74,15.47 -35.71,15.36 -35.67,15.25 -35.63,15.15 -35.59,15.04 -35.55,14.93 -35.51,14.82 -35.47,14.71 -35.43,14.6 -35.39,14.49 -35.36,14.38 -35.32,14.27 -35.28,14.16 -35.24,14.06 -35.2,13.95 -35.16,13.84 -35.12,13.73 -35.08,13.62 -35.04,13.51 -35.01,13.41 -34.97,13.3 -34.93,13.19 -34.89,13.08 -34.85,12.97 -34.81,12.87 -34.77,12.76 -34.73,12.65 -34.69,12.54 -34.66,12.44 -34.62,12.33 -34.58,12.22 -34.54,12.11 -34.5,12.01 -34.46,11.9 -34.42,11.79 -34.38,11.68 -34.34,11.58 -34.3,11.47 -34.27,11.36 -34.23,11.26 -34.19,11.15 -34.15,11.04 -34.11,10.94 -34.07,10.83 -34.03,10.73 -33.99,10.62 -33.95,10.51 -33.92,10.41 -33.88,10.3 -33.84,10.2 -33.8,10.09 -33.76,9.98 -33.72,9.88 -33.68,9.77 -33.64,9.67 -33.6,9.56 -33.57,9.46 -33.53,9.35 -33.49,9.25 -33.45,9.14 -33.41,9.04 -33.37,8.93 -33.33,8.83 -33.29,8.72 -33.25,8.62 -33.22,8.51 -33.18,8.41 -33.14,8.3 -33.1,8.2 -33.06,8.1 -33.02,7.99 -32.98,7.89 -32.94,7.78 -32.9,7.68 -32.86,7.58 -32.83,7.47 -32.79,7.37 -32.75,7.27 -32.71,7.16 -32.67,7.06 -32.63,6.96 -32.59,6.85 -32.55,6.75 -32.51,6.65 -32.48,6.54 -32.44,6.44 -32.4,6.34 -32.36,6.24 -32.32,6.13 -32.28,6.03 -32.24,5.93 -32.2,5.83 -32.16,5.73 -32.13,5.62 -32.09,5.52 -32.05,5.42 -32.01,5.32 -31.97,5.22 -31.93,5.12 -31.89,5.02 -31.85,4.91 -31.81,4.81 -31.78,4.71 -31.74,4.61 -31.7,4.51 -31.66,4.41 -31.62,4.31 -31.58,4.21 -31.54,4.11 -31.5,4.01 -31.46,3.91 -31.42,3.81 -31.39,3.71 -31.35,3.61 -31.31,3.51 -31.27,3.41 -31.23,3.31 -31.19,3.21 -31.15,3.11 -31.11,3.01 -31.07,2.91 -31.04,2.81 -31,2.71 -30.96,2.62 -30.92,2.52 -30.88,2.42 -30.84,2.32 -30.8,2.22 -30.76,2.12 -30.72,2.03 -30.69,1.93 -30.65,1.83 -30.61,1.73 -30.57,1.63 -30.53,1.54 -30.49,1.44 -30.45,1.34 -30.41,1.24 -30.37,1.15 -30.34,1.05 -30.3,0.95 -30.26,0.86 -30.22,0.76 -30.18,0.66 -30.14,0.57 -30.1,0.47 -30.06,0.37 -30.02,0.28 -29.99,0.18 -29.95,0.09 -29.91,-0.01 -29.87,-0.1 -29.83,-0.2 -29.79,-0.3 -29.75,-0.39 -29.71,-0.49 -29.67,-0.58 -29.63,-0.68 -29.6,-0.77 -29.56,-0.87 -29.52,-0.96 -29.48,-1.05 -29.44,-1.15 -29.4,-1.24 -29.36,-1.34 -29.32,-1.43 -29.28,-1.52 -29.25,-1.62 -29.21,-1.71 -29.17,-1.81 -29.13,-1.9 -29.09,-1.99 -29.05,-2.09 -29.01,-2.18 -28.97,-2.27 -28.93,-2.36 -28.9,-2.46 -28.86,-2.55 -28.82,-2.64 -28.78,-2.73 -28.74,-2.83 -28.7,-2.92 -28.66,-3.01 -28.62,-3.1 -28.58,-3.19 -28.55,-3.28 -28.51,-3.38 -28.47,-3.47 -28.43,-3.56 -28.39,-3.65 -28.35,-3.74 -28.31,-3.83 -28.27,-3.92 -28.23,-4.01 -28.19,-4.1 -28.16,-4.19 -28.12,-4.28 -28.08,-4.37 -28.04,-4.46 -28,-4.55 -27.96,-4.64 -27.92,-4.73 -27.88,-4.82 -27.84,-4.91 -27.81,-5 -27.77,-5.09 -27.73,-5.18 -27.69,-5.26 -27.65,-5.35 -27.61,-5.44 -27.57,-5.53 -27.53,-5.62 -27.49,-5.71 -27.46,-5.79 -27.42,-5.88 -27.38,-5.97 -27.34,-6.06 -27.3,-6.14 -27.26,-6.23 -27.22,-6.32 -27.18,-6.41 -27.14,-6.49 -27.11,-6.58 -27.07,-6.67 -27.03,-6.75 -26.99,-6.84 -26.95,-6.92 -26.91,-7.01 -26.87,-7.1 -26.83,-7.18 -26.79,-7.27 -26.76,-7.35 -26.72,-7.44 -26.68,-7.52 -26.64,-7.61 -26.6,-7.69 -26.56,-7.78 -26.52,-7.86 -26.48,-7.95 -26.44,-8.03 -26.4,-8.12 -26.37,-8.2 -26.33,-8.28 -26.29,-8.37 -26.25,-8.45 -26.21,-8.53 -26.17,-8.62 -26.13,-8.7 -26.09,-8.78 -26.05,-8.87 -26.02,-8.95 -25.98,-9.03 -25.94,-9.12 -25.9,-9.2 -25.86,-9.28 -25.82,-9.36 -25.78,-9.44 -25.74,-9.53 -25.7,-9.61 -25.67,-9.69 -25.63,-9.77 -25.59,-9.85 -25.55,-9.93 -25.51,-10.01 -25.47,-10.09 -25.43,-10.18 -25.39,-10.26 -25.35,-10.34 -25.32,-10.42 -25.28,-10.5 -25.24,-10.58 -25.2,-10.66 -25.16,-10.74 -25.12,-10.82 -25.08,-10.89 -25.04,-10.97 -25,-11.05 -24.96,-11.13 -24.93,-11.21 -24.89,-11.29 -24.85,-11.37 -24.81,-11.45 -24.77,-11.52 -24.73,-11.6 -24.69,-11.68 -24.65,-11.76 -24.61,-11.84 -24.58,-11.91 -24.54,-11.99 -24.5,-12.07 -24.46,-12.14 -24.42,-12.22 -24.38,-12.3 -24.34,-12.37 -24.3,-12.45 -24.26,-12.53 -24.23,-12.6 -24.19,-12.68 -24.15,-12.76 -24.11,-12.83 -24.07,-12.91 -24.03,-12.98 -23.99,-13.06 -23.95,-13.13 -23.91,-13.21 -23.88,-13.28 -23.84,-13.36 -23.8,-13.43 -23.76,-13.51 -23.72,-13.58 -23.68,-13.65 -23.64,-13.73 -23.6,-13.8 -23.56,-13.88 -23.52,-13.95 -23.49,-14.02 -23.45,-14.09 -23.41,-14.17 -23.37,-14.24 -23.33,-14.31 -23.29,-14.39 -23.25,-14.46 -23.21,-14.53 -23.17,-14.6 -23.14,-14.67 -23.1,-14.75 -23.06,-14.82 -23.02,-14.89 -22.98,-14.96 -22.94,-15.03 -22.9,-15.1 -22.86,-15.17 -22.82,-15.24 -22.79,-15.31 -22.75,-15.38 -22.71,-15.45 -22.67,-15.53 -22.63,-15.59 -22.59,-15.66 -22.55,-15.73 -22.51,-15.8 -22.47,-15.87 -22.44,-15.94 -22.4,-16.01 -22.36,-16.08 -22.32,-16.15 -22.28,-16.22 -22.24,-16.29 -22.2,-16.35 -22.16,-16.42 -22.12,-16.49 -22.09,-16.56 -22.05,-16.62 -22.01,-16.69 -21.97,-16.76 -21.93,-16.83 -21.89,-16.89 -21.85,-16.96 -21.81,-17.03 -21.77,-17.09 -21.73,-17.16 -21.7,-17.23 -21.66,-17.29 -21.62,-17.36 -21.58,-17.42 -21.54,-17.49 -21.5,-17.55 -21.46,-17.62 -21.42,-17.68 -21.38,-17.75 -21.35,-17.81 -21.31,-17.88 -21.27,-17.94 -21.23,-18.01 -21.19,-18.07 -21.15,-18.13 -21.11,-18.2 -21.07,-18.26 -21.03,-18.32 -21,-18.39 -20.96,-18.45 -20.92,-18.51 -20.88,-18.58 -20.84,-18.64 -20.8,-18.7 -20.76,-18.76 -20.72,-18.83 -20.68,-18.89 -20.65,-18.95 -20.61,-19.01 -20.57,-19.07 -20.53,-19.13 -20.49,-19.2 -20.45,-19.26 -20.41,-19.32 -20.37,-19.38 -20.33,-19.44 -20.29,-19.5 -20.26,-19.56 -20.22,-19.62 -20.18,-19.68 -20.14,-19.74 -20.1,-19.8 -20.06,-19.86 -20.02,-19.92 -19.98,-19.98 -19.94,-20.04 -19.91,-20.09 -19.87,-20.15 -19.83,-20.21 -19.79,-20.27 -19.75,-20.33 -19.71,-20.38 -19.67,-20.44 -19.63,-20.5 -19.59,-20.56 -19.56,-20.61 -19.52,-20.67 -19.48,-20.73 -19.44,-20.79 -19.4,-20.84 -19.36,-20.9 -19.32,-20.96 -19.28,-21.01 -19.24,-21.07 -19.21,-21.12 -19.17,-21.18 -19.13,-21.23 -19.09,-21.29 -19.05,-21.34 -19.01,-21.4 -18.97,-21.45 -18.93,-21.51 -18.89,-21.56 -18.85,-21.62 -18.82,-21.67 -18.78,-21.73 -18.74,-21.78 -18.7,-21.83 -18.66,-21.89 -18.62,-21.94 -18.58,-21.99 -18.54,-22.05 -18.5,-22.1 -18.47,-22.15 -18.43,-22.2 -18.39,-22.26 -18.35,-22.31 -18.31,-22.36 -18.27,-22.41 -18.23,-22.46 -18.19,-22.52 -18.15,-22.57 -18.12,-22.62 -18.08,-22.67 -18.04,-22.72 -18,-22.77 -17.96,-22.82 -17.92,-22.87 -17.88,-22.92 -17.84,-22.97 -17.8,-23.02 -17.77,-23.07 -17.73,-23.12 -17.69,-23.17 -17.65,-23.22 -17.61,-23.27 -17.57,-23.32 -17.53,-23.37 -17.49,-23.41 -17.45,-23.46 -17.42,-23.51 -17.38,-23.56 -17.34,-23.61 -17.3,-23.65 -17.26,-23.7 -17.22,-23.75 -17.18,-23.8 -17.14,-23.84 -17.1,-23.89 -17.06,-23.94 -17.03,-23.98 -16.99,-24.03 -16.95,-24.08 -16.91,-24.12 -16.87,-24.17 -16.83,-24.21 -16.79,-24.26 -16.75,-24.3 -16.71,-24.35 -16.68,-24.39 -16.64,-24.44 -16.6,-24.48 -16.56,-24.53 -16.52,-24.57 -16.48,-24.62 -16.44,-24.66 -16.4,-24.7 -16.36,-24.75 -16.33,-24.79 -16.29,-24.83 -16.25,-24.88 -16.21,-24.92 -16.17,-24.96 -16.13,-25.01 -16.09,-25.05 -16.05,-25.09 -16.01,-25.13 -15.98,-25.17 -15.94,-25.22 -15.9,-25.26 -15.86,-25.3 -15.82,-25.34 -15.78,-25.38 -15.74,-25.42 -15.7,-25.46 -15.66,-25.5 -15.62,-25.54 -15.59,-25.59 -15.55,-25.63 -15.51,-25.67 -15.47,-25.71 -15.43,-25.74 -15.39,-25.78 -15.35,-25.82 -15.31,-25.86 -15.27,-25.9 -15.24,-25.94 -15.2,-25.98 -15.16,-26.02 -15.12,-26.06 -15.08,-26.09 -15.04,-26.13 -15,-26.17 -14.96,-26.21 -14.92,-26.24 -14.89,-26.28 -14.85,-26.32 -14.81,-26.36 -14.77,-26.39 -14.73,-26.43 -14.69,-26.47 -14.65,-26.5 -14.61,-26.54 -14.57,-26.57 -14.54,-26.61 -14.5,-26.65 -14.46,-26.68 -14.42,-26.72 -14.38,-26.75 -14.34,-26.79 -14.3,-26.82 -14.26,-26.86 -14.22,-26.89 -14.19,-26.92 -14.15,-26.96 -14.11,-26.99 -14.07,-27.03 -14.03,-27.06 -13.99,-27.09 -13.95,-27.13 -13.91,-27.16 -13.87,-27.19 -13.83,-27.22 -13.8,-27.26 -13.76,-27.29 -13.72,-27.32 -13.68,-27.35 -13.64,-27.39 -13.6,-27.42 -13.56,-27.45 -13.52,-27.48 -13.48,-27.51 -13.45,-27.54 -13.41,-27.57 -13.37,-27.6 -13.33,-27.63 -13.29,-27.67 -13.25,-27.7 -13.21,-27.73 -13.17,-27.76 -13.13,-27.79 -13.1,-27.81 -13.06,-27.84 -13.02,-27.87 -12.98,-27.9 -12.94,-27.93 -12.9,-27.96 -12.86,-27.99 -12.82,-28.02 -12.78,-28.05 -12.75,-28.07 -12.71,-28.1 -12.67,-28.13 -12.63,-28.16 -12.59,-28.18 -12.55,-28.21 -12.51,-28.24 -12.47,-28.26 -12.43,-28.29 -12.39,-28.32 -12.36,-28.34 -12.32,-28.37 -12.28,-28.4 -12.24,-28.42 -12.2,-28.45 -12.16,-28.47 -12.12,-28.5 -12.08,-28.52 -12.04,-28.55 -12.01,-28.57 -11.97,-28.6 -11.93,-28.62 -11.89,-28.65 -11.85,-28.67 -11.81,-28.7 -11.77,-28.72 -11.73,-28.74 -11.69,-28.77 -11.66,-28.79 -11.62,-28.81 -11.58,-28.84 -11.54,-28.86 -11.5,-28.88 -11.46,-28.91 -11.42,-28.93 -11.38,-28.95 -11.34,-28.97 -11.31,-28.99 -11.27,-29.02 -11.23,-29.04 -11.19,-29.06 -11.15,-29.08 -11.11,-29.1 -11.07,-29.12 -11.03,-29.14 -10.99,-29.16 -10.95,-29.18 -10.92,-29.2 -10.88,-29.22 -10.84,-29.24 -10.8,-29.26 -10.76,-29.28 -10.72,-29.3 -10.68,-29.32 -10.64,-29.34 -10.6,-29.36 -10.57,-29.38 -10.53,-29.4 -10.49,-29.42 -10.45,-29.43 -10.41,-29.45 -10.37,-29.47 -10.33,-29.49 -10.29,-29.51 -10.25,-29.52 -10.22,-29.54 -10.18,-29.56 -10.14,-29.57 -10.1,-29.59 -10.06,-29.61 -10.02,-29.62 -9.98,-29.64 -9.94,-29.66 -9.9,-29.67 -9.87,-29.69 -9.83,-29.7 -9.79,-29.72 -9.75,-29.74 -9.71,-29.75 -9.67,-29.77 -9.63,-29.78 -9.59,-29.8 -9.55,-29.81 -9.52,-29.82 -9.48,-29.84 -9.44,-29.85 -9.4,-29.87 -9.36,-29.88 -9.32,-29.89 -9.28,-29.91 -9.24,-29.92 -9.2,-29.93 -9.16,-29.95 -9.13,-29.96 -9.09,-29.97 -9.05,-29.98 -9.01,-30 -8.97,-30.01 -8.93,-30.02 -8.89,-30.03 -8.85,-30.04 -8.81,-30.06 -8.78,-30.07 -8.74,-30.08 -8.7,-30.09 -8.66,-30.1 -8.62,-30.11 -8.58,-30.12 -8.54,-30.13 -8.5,-30.14 -8.46,-30.15 -8.43,-30.16 -8.39,-30.17 -8.35,-30.18 -8.31,-30.19 -8.27,-30.2 -8.23,-30.21 -8.19,-30.22 -8.15,-30.23 -8.11,-30.23 -8.08,-30.24 -8.04,-30.25 -8,-30.26 -7.96,-30.27 -7.92,-30.27 -7.88,-30.28 -7.84,-30.29 -7.8,-30.3 -7.76,-30.3 -7.72,-30.31 -7.69,-30.32 -7.65,-30.32 -7.61,-30.33 -7.57,-30.34 -7.53,-30.34 -7.49,-30.35 -7.45,-30.36 -7.41,-30.36 -7.37,-30.37 -7.34,-30.37 -7.3,-30.38 -7.26,-30.38 -7.22,-30.39 -7.18,-30.39 -7.14,-30.4 -7.1,-30.4 -7.06,-30.41 -7.02,-30.41 -6.99,-30.41 -6.95,-30.42 -6.91,-30.42 -6.87,-30.43 -6.83,-30.43 -6.79,-30.43 -6.75,-30.43 -6.71,-30.44 -6.67,-30.44 -6.64,-30.44 -6.6,-30.45 -6.56,-30.45 -6.52,-30.45 -6.48,-30.45 -6.44,-30.45 -6.4,-30.46 -6.36,-30.46 -6.32,-30.46 -6.28,-30.46 -6.25,-30.46 -6.21,-30.46 -6.17,-30.46 -6.13,-30.46 -6.09,-30.46 -6.05,-30.46 -6.01,-30.46 -5.97,-30.46 -5.93,-30.46 -5.9,-30.46 -5.86,-30.46 -5.82,-30.46 -5.78,-30.46 -5.74,-30.46 -5.7,-30.46 -5.66,-30.46 -5.62,-30.46 -5.58,-30.46 -5.55,-30.45 -5.51,-30.45 -5.47,-30.45 -5.43,-30.45 -5.39,-30.45 -5.35,-30.44 -5.31,-30.44 -5.27,-30.44 -5.23,-30.43 -5.2,-30.43 -5.16,-30.43 -5.12,-30.42 -5.08,-30.42 -5.04,-30.42 -5,-30.41 -4.96,-30.41 -4.92,-30.41 -4.88,-30.4 -4.85,-30.4 -4.81,-30.39 -4.77,-30.39 -4.73,-30.38 -4.69,-30.38 -4.65,-30.37 -4.61,-30.37 -4.57,-30.36 -4.53,-30.36 -4.49,-30.35 -4.46,-30.34 -4.42,-30.34 -4.38,-30.33 -4.34,-30.33 -4.3,-30.32 -4.26,-30.31 -4.22,-30.31 -4.18,-30.3 -4.14,-30.29 -4.11,-30.29 -4.07,-30.28 -4.03,-30.27 -3.99,-30.26 -3.95,-30.25 -3.91,-30.25 -3.87,-30.24 -3.83,-30.23 -3.79,-30.22 -3.76,-30.21 -3.72,-30.2 -3.68,-30.2 -3.64,-30.19 -3.6,-30.18 -3.56,-30.17 -3.52,-30.16 -3.48,-30.15 -3.44,-30.14 -3.41,-30.13 -3.37,-30.12 -3.33,-30.11 -3.29,-30.1 -3.25,-30.09 -3.21,-30.08 -3.17,-30.07 -3.13,-30.06 -3.09,-30.05 -3.05,-30.03 -3.02,-30.02 -2.98,-30.01 -2.94,-30 -2.9,-29.99 -2.86,-29.98 -2.82,-29.96 -2.78,-29.95 -2.74,-29.94 -2.7,-29.93 -2.67,-29.91 -2.63,-29.9 -2.59,-29.89 -2.55,-29.88 -2.51,-29.86 -2.47,-29.85 -2.43,-29.84 -2.39,-29.82 -2.35,-29.81 -2.32,-29.8 -2.28,-29.78 -2.24,-29.77 -2.2,-29.75 -2.16,-29.74 -2.12,-29.72 -2.08,-29.71 -2.04,-29.69 -2,-29.68 -1.97,-29.66 -1.93,-29.65 -1.89,-29.63 -1.85,-29.62 -1.81,-29.6 -1.77,-29.59 -1.73,-29.57 -1.69,-29.55 -1.65,-29.54 -1.62,-29.52 -1.58,-29.51 -1.54,-29.49 -1.5,-29.47 -1.46,-29.46 -1.42,-29.44 -1.38,-29.42 -1.34,-29.4 -1.3,-29.39 -1.26,-29.37 -1.23,-29.35 -1.19,-29.33 -1.15,-29.31 -1.11,-29.3 -1.07,-29.28 -1.03,-29.26 -0.99,-29.24 -0.95,-29.22 -0.91,-29.2 -0.88,-29.18 -0.84,-29.17 -0.8,-29.15 -0.76,-29.13 -0.72,-29.11 -0.68,-29.09 -0.64,-29.07 -0.6,-29.05 -0.56,-29.03 -0.53,-29.01 -0.49,-28.99 -0.45,-28.97 -0.41,-28.95 -0.37,-28.93 -0.33,-28.91 -0.29,-28.88 -0.25,-28.86 -0.21,-28.84 -0.18,-28.82 -0.14,-28.8 -0.1,-28.78 -0.06,-28.76 -0.02,-28.73 0.02,-28.71 0.06,-28.69 0.1,-28.67 0.14,-28.64 0.18,-28.62 0.21,-28.6 0.25,-28.58 0.29,-28.55 0.33,-28.53 0.37,-28.51 0.41,-28.48 0.45,-28.46 0.49,-28.44 0.53,-28.41 0.56,-28.39 0.6,-28.37 0.64,-28.34 0.68,-28.32 0.72,-28.29 0.76,-28.27 0.8,-28.24 0.84,-28.22 0.88,-28.19 0.91,-28.17 0.95,-28.14 0.99,-28.12 1.03,-28.09 1.07,-28.07 1.11,-28.04 1.15,-28.02 1.19,-27.99 1.23,-27.96 1.26,-27.94 1.3,-27.91 1.34,-27.89 1.38,-27.86 1.42,-27.83 1.46,-27.81 1.5,-27.78 1.54,-27.75 1.58,-27.73 1.62,-27.7 1.65,-27.67 1.69,-27.64 1.73,-27.62 1.77,-27.59 1.81,-27.56 1.85,-27.53 1.89,-27.5 1.93,-27.48 1.97,-27.45 2,-27.42 2.04,-27.39 2.08,-27.36 2.12,-27.33 2.16,-27.3 2.2,-27.27 2.24,-27.24 2.28,-27.22 2.32,-27.19 2.35,-27.16 2.39,-27.13 2.43,-27.1 2.47,-27.07 2.51,-27.04 2.55,-27.01 2.59,-26.98 2.63,-26.95 2.67,-26.92 2.7,-26.88 2.74,-26.85 2.78,-26.82 2.82,-26.79 2.86,-26.76 2.9,-26.73 2.94,-26.7 2.98,-26.67 3.02,-26.64 3.05,-26.6 3.09,-26.57 3.13,-26.54 3.17,-26.51 3.21,-26.48 3.25,-26.44 3.29,-26.41 3.33,-26.38 3.37,-26.35 3.41,-26.31 3.44,-26.28 3.48,-26.25 3.52,-26.21 3.56,-26.18 3.6,-26.15 3.64,-26.11 3.68,-26.08 3.72,-26.05 3.76,-26.01 3.79,-25.98 3.83,-25.94 3.87,-25.91 3.91,-25.88 3.95,-25.84 3.99,-25.81 4.03,-25.77 4.07,-25.74 4.11,-25.7 4.14,-25.67 4.18,-25.63 4.22,-25.6 4.26,-25.56 4.3,-25.53 4.34,-25.49 4.38,-25.46 4.42,-25.42 4.46,-25.38 4.49,-25.35 4.53,-25.31 4.57,-25.28 4.61,-25.24 4.65,-25.2 4.69,-25.17 4.73,-25.13 4.77,-25.09 4.81,-25.06 4.85,-25.02 4.88,-24.98 4.92,-24.95 4.96,-24.91 5,-24.87 5.04,-24.83 5.08,-24.8 5.12,-24.76 5.16,-24.72 5.2,-24.68 5.23,-24.64 5.27,-24.61 5.31,-24.57 5.35,-24.53 5.39,-24.49 5.43,-24.45 5.47,-24.41 5.51,-24.38 5.55,-24.34 5.58,-24.3 5.62,-24.26 5.66,-24.22 5.7,-24.18 5.74,-24.14 5.78,-24.1 5.82,-24.06 5.86,-24.02 5.9,-23.98 5.93,-23.94 5.97,-23.9 6.01,-23.86 6.05,-23.82 6.09,-23.78 6.13,-23.74 6.17,-23.7 6.21,-23.66 6.25,-23.62 6.28,-23.58 6.32,-23.54 6.36,-23.5 6.4,-23.46 6.44,-23.41 6.48,-23.37 6.52,-23.33 6.56,-23.29 6.6,-23.25 6.64,-23.21 6.67,-23.16 6.71,-23.12 6.75,-23.08 6.79,-23.04 6.83,-23 6.87,-22.95 6.91,-22.91 6.95,-22.87 6.99,-22.83 7.02,-22.78 7.06,-22.74 7.1,-22.7 7.14,-22.66 7.18,-22.61 7.22,-22.57 7.26,-22.53 7.3,-22.48 7.34,-22.44 7.37,-22.4 7.41,-22.35 7.45,-22.31 7.49,-22.26 7.53,-22.22 7.57,-22.18 7.61,-22.13 7.65,-22.09 7.69,-22.04 7.72,-22 7.76,-21.95 7.8,-21.91 7.84,-21.86 7.88,-21.82 7.92,-21.77 7.96,-21.73 8,-21.68 8.04,-21.64 8.08,-21.59 8.11,-21.55 8.15,-21.5 8.19,-21.46 8.23,-21.41 8.27,-21.37 8.31,-21.32 8.35,-21.27 8.39,-21.23 8.43,-21.18 8.46,-21.14 8.5,-21.09 8.54,-21.04 8.58,-21 8.62,-20.95 8.66,-20.9 8.7,-20.86 8.74,-20.81 8.78,-20.76 8.81,-20.72 8.85,-20.67 8.89,-20.62 8.93,-20.57 8.97,-20.53 9.01,-20.48 9.05,-20.43 9.09,-20.38 9.13,-20.34 9.16,-20.29 9.2,-20.24 9.24,-20.19 9.28,-20.15 9.32,-20.1 9.36,-20.05 9.4,-20 9.44,-19.95 9.48,-19.9 9.52,-19.86 9.55,-19.81 9.59,-19.76 9.63,-19.71 9.67,-19.66 9.71,-19.61 9.75,-19.56 9.79,-19.51 9.83,-19.46 9.87,-19.41 9.9,-19.36 9.94,-19.32 9.98,-19.27 10.02,-19.22 10.06,-19.17 10.1,-19.12 10.14,-19.07 10.18,-19.02 10.22,-18.97 10.25,-18.92 10.29,-18.87 10.33,-18.82 10.37,-18.77 10.41,-18.72 10.45,-18.66 10.49,-18.61 10.53,-18.56 10.57,-18.51 10.6,-18.46 10.64,-18.41 10.68,-18.36 10.72,-18.31 10.76,-18.26 10.8,-18.21 10.84,-18.15 10.88,-18.1 10.92,-18.05 10.95,-18 10.99,-17.95 11.03,-17.9 11.07,-17.85 11.11,-17.79 11.15,-17.74 11.19,-17.69 11.23,-17.64 11.27,-17.59 11.31,-17.53 11.34,-17.48 11.38,-17.43 11.42,-17.38 11.46,-17.32 11.5,-17.27 11.54,-17.22 11.58,-17.16 11.62,-17.11 11.66,-17.06 11.69,-17.01 11.73,-16.95 11.77,-16.9 11.81,-16.85 11.85,-16.79 11.89,-16.74 11.93,-16.69 11.97,-16.63 12.01,-16.58 12.04,-16.53 12.08,-16.47 12.12,-16.42 12.16,-16.36 12.2,-16.31 12.24,-16.26 12.28,-16.2 12.32,-16.15 12.36,-16.09 12.39,-16.04 12.43,-15.99 12.47,-15.93 12.51,-15.88 12.55,-15.82 12.59,-15.77 12.63,-15.71 12.67,-15.66 12.71,-15.6 12.75,-15.55 12.78,-15.49 12.82,-15.44 12.86,-15.38 12.9,-15.33 12.94,-15.27 12.98,-15.22 13.02,-15.16 13.06,-15.11 13.1,-15.05 13.13,-15 13.17,-14.94 13.21,-14.88 13.25,-14.83 13.29,-14.77 13.33,-14.72 13.37,-14.66 13.41,-14.6 13.45,-14.55 13.48,-14.49 13.52,-14.44 13.56,-14.38 13.6,-14.32 13.64,-14.27 13.68,-14.21 13.72,-14.15 13.76,-14.1 13.8,-14.04 13.83,-13.98 13.87,-13.93 13.91,-13.87 13.95,-13.81 13.99,-13.76 14.03,-13.7 14.07,-13.64 14.11,-13.59 14.15,-13.53 14.19,-13.47 14.22,-13.41 14.26,-13.36 14.3,-13.3 14.34,-13.24 14.38,-13.18 14.42,-13.13 14.46,-13.07 14.5,-13.01 14.54,-12.95 14.57,-12.89 14.61,-12.84 14.65,-12.78 14.69,-12.72 14.73,-12.66 14.77,-12.6 14.81,-12.55 14.85,-12.49 14.89,-12.43 14.92,-12.37 14.96,-12.31 15,-12.25 15.04,-12.2 15.08,-12.14 15.12,-12.08 15.16,-12.02 15.2,-11.96 15.24,-11.9 15.27,-11.84 15.31,-11.78 15.35,-11.73 15.39,-11.67 15.43,-11.61 15.47,-11.55 15.51,-11.49 15.55,-11.43 15.59,-11.37 15.62,-11.31 15.66,-11.25 15.7,-11.19 15.74,-11.13 15.78,-11.07 15.82,-11.01 15.86,-10.95 15.9,-10.89 15.94,-10.83 15.98,-10.77 16.01,-10.71 16.05,-10.65 16.09,-10.59 16.13,-10.53 16.17,-10.47 16.21,-10.41 16.25,-10.35 16.29,-10.29 16.33,-10.23 16.36,-10.17 16.4,-10.11 16.44,-10.05 16.48,-9.99 16.52,-9.93 16.56,-9.87 16.6,-9.81 16.64,-9.75 16.68,-9.69 16.71,-9.63 16.75,-9.57 16.79,-9.51 16.83,-9.45 16.87,-9.38 16.91,-9.32 16.95,-9.26 16.99,-9.2 17.03,-9.14 17.06,-9.08 17.1,-9.02 17.14,-8.96 17.18,-8.9 17.22,-8.83 17.26,-8.77 17.3,-8.71 17.34,-8.65 17.38,-8.59 17.42,-8.53 17.45,-8.46 17.49,-8.4 17.53,-8.34 17.57,-8.28 17.61,-8.22 17.65,-8.16 17.69,-8.09 17.73,-8.03 17.77,-7.97 17.8,-7.91 17.84,-7.85 17.88,-7.78 17.92,-7.72 17.96,-7.66 18,-7.6 18.04,-7.54 18.08,-7.47 18.12,-7.41 18.15,-7.35 18.19,-7.29 18.23,-7.22 18.27,-7.16 18.31,-7.1 18.35,-7.04 18.39,-6.97 18.43,-6.91 18.47,-6.85 18.5,-6.79 18.54,-6.72 18.58,-6.66 18.62,-6.6 18.66,-6.53 18.7,-6.47 18.74,-6.41 18.78,-6.35 18.82,-6.28 18.85,-6.22 18.89,-6.16 18.93,-6.09 18.97,-6.03 19.01,-5.97 19.05,-5.9 19.09,-5.84 19.13,-5.78 19.17,-5.71 19.21,-5.65 19.24,-5.59 19.28,-5.52 19.32,-5.46 19.36,-5.4 19.4,-5.33 19.44,-5.27 19.48,-5.21 19.52,-5.14 19.56,-5.08 19.59,-5.02 19.63,-4.95 19.67,-4.89 19.71,-4.82 19.75,-4.76 19.79,-4.7 19.83,-4.63 19.87,-4.57 19.91,-4.5 19.94,-4.44 19.98,-4.38 20.02,-4.31 20.06,-4.25 20.1,-4.18 20.14,-4.12 20.18,-4.06 20.22,-3.99 20.26,-3.93 20.29,-3.86 20.33,-3.8 20.37,-3.74 20.41,-3.67 20.45,-3.61 20.49,-3.54 20.53,-3.48 20.57,-3.41 20.61,-3.35 20.65,-3.28 20.68,-3.22 20.72,-3.16 20.76,-3.09 20.8,-3.03 20.84,-2.96 20.88,-2.9 20.92,-2.83 20.96,-2.77 21,-2.7 21.03,-2.64 21.07,-2.57 21.11,-2.51 21.15,-2.44 21.19,-2.38 21.23,-2.31 21.27,-2.25 21.31,-2.18 21.35,-2.12 21.38,-2.05 21.42,-1.99 21.46,-1.92 21.5,-1.86 21.54,-1.79 21.58,-1.73 21.62,-1.66 21.66,-1.6 21.7,-1.53 21.73,-1.47 21.77,-1.4 21.81,-1.34 21.85,-1.27 21.89,-1.21 21.93,-1.14 21.97,-1.08 22.01,-1.01 22.05,-0.95 22.09,-0.88 22.12,-0.82 22.16,-0.75 22.2,-0.69 22.24,-0.62 22.28,-0.55 22.32,-0.49 22.36,-0.42 22.4,-0.36 22.44,-0.29 22.47,-0.23 22.51,-0.16 22.55,-0.1 22.59,-0.03 22.63,0.04 22.67,0.1 22.71,0.17 22.75,0.23 22.79,0.3 22.82,0.36 22.86,0.43 22.9,0.49 22.94,0.56 22.98,0.63 23.02,0.69 23.06,0.76 23.1,0.82 23.14,0.89 23.17,0.96 23.21,1.02 23.25,1.09 23.29,1.15 23.33,1.22 23.37,1.28 23.41,1.35 23.45,1.42 23.49,1.48 23.52,1.55 23.56,1.61 23.6,1.68 23.64,1.75 23.68,1.81 23.72,1.88 23.76,1.94 23.8,2.01 23.84,2.08 23.88,2.14 23.91,2.21 23.95,2.27 23.99,2.34 24.03,2.41 24.07,2.47 24.11,2.54 24.15,2.61 24.19,2.67 24.23,2.74 24.26,2.8 24.3,2.87 24.34,2.94 24.38,3 24.42,3.07 24.46,3.13 24.5,3.2 24.54,3.27 24.58,3.33 24.61,3.4 24.65,3.47 24.69,3.53 24.73,3.6 24.77,3.66 24.81,3.73 24.85,3.8 24.89,3.86 24.93,3.93 24.96,4 25,4.06 25.04,4.13 25.08,4.2 25.12,4.26 25.16,4.33 25.2,4.39 25.24,4.46 25.28,4.53 25.32,4.59 25.35,4.66 25.39,4.73 25.43,4.79 25.47,4.86 25.51,4.93 25.55,4.99 25.59,5.06 25.63,5.12 25.67,5.19 25.7,5.26 25.74,5.32 25.78,5.39 25.82,5.46 25.86,5.52 25.9,5.59 25.94,5.66 25.98,5.72 26.02,5.79 26.05,5.85 26.09,5.92 26.13,5.99 26.17,6.05 26.21,6.12 26.25,6.19 26.29,6.25 26.33,6.32 26.37,6.39 26.4,6.45 26.44,6.52 26.48,6.59 26.52,6.65 26.56,6.72 26.6,6.78 26.64,6.85 26.68,6.92 26.72,6.98 26.76,7.05 26.79,7.12 26.83,7.18 26.87,7.25 26.91,7.32 26.95,7.38 26.99,7.45 27.03,7.52 27.07,7.58 27.11,7.65 27.14,7.71 27.18,7.78 27.22,7.85 27.26,7.91 27.3,7.98 27.34,8.05 27.38,8.11 27.42,8.18 27.46,8.25 27.49,8.31 27.53,8.38 27.57,8.44 27.61,8.51 27.65,8.58 27.69,8.64 27.73,8.71 27.77,8.78 27.81,8.84 27.84,8.91 27.88,8.98 27.92,9.04 27.96,9.11 28,9.17 28.04,9.24 28.08,9.31 28.12,9.37 28.16,9.44 28.19,9.51 28.23,9.57 28.27,9.64 28.31,9.7 28.35,9.77 28.39,9.84 28.43,9.9 28.47,9.97 28.51,10.04 28.55,10.1 28.58,10.17 28.62,10.23 28.66,10.3 28.7,10.37 28.74,10.43 28.78,10.5 28.82,10.56 28.86,10.63 28.9,10.7 28.93,10.76 28.97,10.83 29.01,10.89 29.05,10.96 29.09,11.03 29.13,11.09 29.17,11.16 29.21,11.23 29.25,11.29 29.28,11.36 29.32,11.42 29.36,11.49 29.4,11.55 29.44,11.62 29.48,11.69 29.52,11.75 29.56,11.82 29.6,11.88 29.63,11.95 29.67,12.02 29.71,12.08 29.75,12.15 29.79,12.21 29.83,12.28 29.87,12.35 29.91,12.41 29.95,12.48 29.99,12.54 30.02,12.61 30.06,12.67 30.1,12.74 30.14,12.81 30.18,12.87 30.22,12.94 30.26,13 30.3,13.07 30.34,13.13 30.37,13.2 30.41,13.26 30.45,13.33 30.49,13.4 30.53,13.46 30.57,13.53 30.61,13.59 30.65,13.66 30.69,13.72 30.72,13.79 30.76,13.85 30.8,13.92 30.84,13.98 30.88,14.05 30.92,14.12 30.96,14.18 31,14.25 31.04,14.31 31.07,14.38 31.11,14.44 31.15,14.51 31.19,14.57 31.23,14.64 31.27,14.7 31.31,14.77 31.35,14.83 31.39,14.9 31.42,14.96 31.46,15.03 31.5,15.09 31.54,15.16 31.58,15.22 31.62,15.29 31.66,15.35 31.7,15.42 31.74,15.48 31.78,15.55 31.81,15.61 31.85,15.68 31.89,15.74 31.93,15.81 31.97,15.87 32.01,15.94 32.05,16 32.09,16.07 32.13,16.13 32.16,16.2 32.2,16.26 32.24,16.33 32.28,16.39 32.32,16.45 32.36,16.52 32.4,16.58 32.44,16.65 32.48,16.71 32.51,16.78 32.55,16.84 32.59,16.91 32.63,16.97 32.67,17.03 32.71,17.1 32.75,17.16 32.79,17.23 32.83,17.29 32.86,17.36 32.9,17.42 32.94,17.48 32.98,17.55 33.02,17.61 33.06,17.68 33.1,17.74 33.14,17.81 33.18,17.87 33.22,17.93 33.25,18 33.29,18.06 33.33,18.13 33.37,18.19 33.41,18.25 33.45,18.32 33.49,18.38 33.53,18.44 33.57,18.51 33.6,18.57 33.64,18.64 33.68,18.7 33.72,18.76 33.76,18.83 33.8,18.89 33.84,18.95 33.88,19.02 33.92,19.08 33.95,19.14 33.99,19.21 34.03,19.27 34.07,19.33 34.11,19.4 34.15,19.46 34.19,19.52 34.23,19.59 34.27,19.65 34.3,19.71 34.34,19.78 34.38,19.84 34.42,19.9 34.46,19.97 34.5,20.03 34.54,20.09 34.58,20.16 34.62,20.22 34.66,20.28 34.69,20.34 34.73,20.41 34.77,20.47 34.81,20.53 34.85,20.6 34.89,20.66 34.93,20.72 34.97,20.78 35.01,20.85 35.04,20.91 35.08,20.97 35.12,21.03 35.16,21.1 35.2,21.16 35.24,21.22 35.28,21.28 35.32,21.35 35.36,21.41 35.39,21.47 35.43,21.53 35.47,21.6 35.51,21.66 35.55,21.72 35.59,21.78 35.63,21.85 35.67,21.91 35.71,21.97 35.74,22.03 35.78,22.09 35.82,22.16 35.86,22.22 35.9,22.28 35.94,22.34 35.98,22.4 36.02,22.46 36.06,22.53 36.09,22.59 36.13,22.65 36.17,22.71 36.21,22.77 36.25,22.83 36.29,22.9 36.33,22.96 36.37,23.02 36.41,23.08 36.45,23.14 36.48,23.2 36.52,23.26 36.56,23.33 36.6,23.39 36.64,23.45 36.68,23.51 36.72,23.57 36.76,23.63 36.8,23.69 36.83,23.75 36.87,23.81 36.91,23.88 36.95,23.94 36.99,24 37.03,24.06 37.07,24.12 37.11,24.18 37.15,24.24 37.18,24.3 37.22,24.36 37.26,24.42 37.3,24.48 37.34,24.54 37.38,24.6 37.42,24.66 37.46,24.72 37.5,24.78 37.53,24.85 37.57,24.91 37.61,24.97 37.65,25.03 37.69,25.09 37.73,25.15 37.77,25.21 37.81,25.27 37.85,25.33 37.89,25.39 37.92,25.45 37.96,25.51 38,25.57 38.04,25.63 38.08,25.69 38.12,25.74 38.16,25.8 38.2,25.86 38.24,25.92 38.27,25.98 38.31,26.04 38.35,26.1 38.39,26.16 38.43,26.22 38.47,26.28 38.51,26.34 38.55,26.4 38.59,26.46 38.62,26.52 38.66,26.58 38.7,26.64 38.74,26.69 38.78,26.75 38.82,26.81 38.86,26.87 38.9,26.93 38.94,26.99 38.97,27.05 39.01,27.11 39.05,27.17 39.09,27.22 39.13,27.28 39.17,27.34 39.21,27.4 39.25,27.46 39.29,27.52 39.32,27.57 39.36,27.63 39.4,27.69 39.44,27.75 39.48,27.81 39.52,27.87 39.56,27.92 39.6,27.98 39.64,28.04 39.68,28.1 39.71,28.16 39.75,28.21 39.79,28.27 39.83,28.33 39.87,28.39 39.91,28.45 39.95,28.5 39.99,28.56 40.03,28.62 40.06,28.68 40.1,28.73 40.14,28.79 40.18,28.85 40.22,28.91 40.26,28.96 40.3,29.02 40.34,29.08 40.38,29.13 40.41,29.19 40.45,29.25 40.49,29.31 40.53,29.36 40.57,29.42 40.61,29.48 40.65,29.53 40.69,29.59 40.73,29.65 40.76,29.7 40.8,29.76 40.84,29.82 40.88,29.87 40.92,29.93 40.96,29.99 41,30.04 41.04,30.1 41.08,30.15 41.12,30.21 41.15,30.27 41.19,30.32 41.23,30.38 41.27,30.44 41.31,30.49 41.35,30.55 41.39,30.6 41.43,30.66 41.47,30.71 41.5,30.77 41.54,30.83 41.58,30.88 41.62,30.94 41.66,30.99 41.7,31.05 41.74,31.1 41.78,31.16 41.82,31.21 41.85,31.27 41.89,31.33 41.93,31.38 41.97,31.44 42.01,31.49 42.05,31.55 42.09,31.6 42.13,31.66 42.17,31.71 42.2,31.77 42.24,31.82 42.28,31.88 42.32,31.93 42.36,31.98 42.4,32.04 42.44,32.09 42.48,32.15 42.52,32.2 42.56,32.26 42.59,32.31 42.63,32.37 42.67,32.42 42.71,32.47 42.75,32.53 42.79,32.58 42.83,32.64 42.87,32.69 42.91,32.74 42.94,32.8 42.98,32.85 43.02,32.91 43.06,32.96 43.1,33.01 43.14,33.07 43.18,33.12 43.22,33.17 43.26,33.23 43.29,33.28 43.33,33.33 43.37,33.39 43.41,33.44 43.45,33.49 43.49,33.55 43.53,33.6 43.57,33.65 43.61,33.71 43.64,33.76 43.68,33.81 43.72,33.86 43.76,33.92 43.8,33.97 43.84,34.02 43.88,34.08 43.92,34.13 43.96,34.18 43.99,34.23 44.03,34.29 44.07,34.34 44.11,34.39 44.15,34.44 44.19,34.49 44.23,34.55 44.27,34.6 44.31,34.65 44.35,34.7 44.38,34.75 44.42,34.81 44.46,34.86 44.5,34.91 44.54,34.96 44.58,35.01 44.62,35.06 44.66,35.12 44.7,35.17 44.73,35.22 44.77,35.27 44.81,35.32 44.85,35.37 44.89,35.42 44.93,35.48 44.97,35.53 45.01,35.58 45.05,35.63 45.08,35.68 45.12,35.73 45.16,35.78 45.2,35.83 45.24,35.88 45.28,35.93 45.32,35.98 45.36,36.03 45.4,36.08 45.43,36.14 45.47,36.19 45.51,36.24 45.55,36.29 45.59,36.34 45.63,36.39 45.67,36.44 45.71,36.49 45.75,36.54 45.79,36.59 45.82,36.64 45.86,36.69 45.9,36.74 45.94,36.79 45.98,36.84 46.02,36.88 46.06,36.93 46.1,36.98 46.14,37.03 46.17,37.08 46.21,37.13 46.25,37.18 46.29,37.23 46.33,37.28 46.37,37.33 46.41,37.38 46.45,37.43 46.49,37.48 46.52,37.52 46.56,37.57 46.6,37.62 46.64,37.67 46.68,37.72 46.72,37.77 46.76,37.82 46.8,37.86 46.84,37.91 46.87,37.96 46.91,38.01 46.95,38.06 46.99,38.11 47.03,38.15 47.07,38.2 47.11,38.25 47.15,38.3 47.19,38.35 47.23,38.39 47.26,38.44 47.3,38.49 47.34,38.54 47.38,38.58 47.42,38.63 47.46,38.68 47.5,38.73 47.54,38.77 47.58,38.82 47.61,38.87 47.65,38.91 47.69,38.96 47.73,39.01 47.77,39.06 47.81,39.1 47.85,39.15 47.89,39.2 47.93,39.24 47.96,39.29 48,39.34 48.04,39.38 48.08,39.43 48.12,39.48 48.16,39.52 48.2,39.57 48.24,39.62 48.28,39.66 48.31,39.71 48.35,39.75 48.39,39.8 48.43,39.85 48.47,39.89 48.51,39.94 48.55,39.98 48.59,40.03 48.63,40.07 " class="primitive"/>
            </g>
          </g>
        </g>
      </g>
    </g>
  </g>
  <g class="guide ylabels" font-size="2.82" font-family="'PT Sans Caption','Helvetica Neue','Helvetica',sans-serif" fill="#6C606B" id="img-033cd6ab-24">
    <g transform="translate(7.67,108.33)" id="img-033cd6ab-25">
      <g class="primitive">
        <text text-anchor="end" dy="0.35em">0</text>
      </g>
    </g>
    <g transform="translate(7.67,91.44)" id="img-033cd6ab-26">
      <g class="primitive">
        <text text-anchor="end" dy="0.35em">1</text>
      </g>
    </g>
    <g transform="translate(7.67,74.55)" id="img-033cd6ab-27">
      <g class="primitive">
        <text text-anchor="end" dy="0.35em">2</text>
      </g>
    </g>
    <g transform="translate(7.67,57.66)" id="img-033cd6ab-28">
      <g class="primitive">
        <text text-anchor="end" dy="0.35em">3</text>
      </g>
    </g>
    <g transform="translate(7.67,40.78)" id="img-033cd6ab-29">
      <g class="primitive">
        <text text-anchor="end" dy="0.35em">4</text>
      </g>
    </g>
    <g transform="translate(7.67,23.89)" id="img-033cd6ab-30">
      <g class="primitive">
        <text text-anchor="end" dy="0.35em">5</text>
      </g>
    </g>
    <g transform="translate(7.67,7)" id="img-033cd6ab-31">
      <g class="primitive">
        <text text-anchor="end" dy="0.35em">6</text>
      </g>
    </g>
  </g>
</g>
<defs>
  <clipPath id="img-033cd6ab-3">
    <path d="M8.67,5 L155,5 155,110.33 8.67,110.33 " />
  </clipPath>
</defs>
</svg>
