<?xml version="1.0" encoding="UTF-8"?>
<svg xmlns="http://www.w3.org/2000/svg"
     xmlns:xlink="http://www.w3.org/1999/xlink"
     xmlns:gadfly="http://www.gadflyjl.org/ns"
     version="1.2"
     width="160mm" height="120mm" viewBox="0 0 160 120"
     stroke="none"
     fill="#000000"
     stroke-width="0.3"
     font-size="3.88"
>
<defs>
  <marker id="arrow" markerWidth="15" markerHeight="7" refX="5" refY="3.5" orient="auto" markerUnits="strokeWidth">
    <path d="M0,0 L15,3.5 L0,7 z" stroke="context-stroke" fill="context-stroke"/>
  </marker>
</defs>
<g class="plotroot xscalable yscalable" id="img-2803eea2-1">
  <g class="guide xlabels" font-size="2.82" font-family="'PT Sans Caption','Helvetica Neue','Helvetica',sans-serif" fill="#6C606B" id="img-2803eea2-2">
    <g transform="translate(14.69,111.33)">
      <g class="primitive">
        <text text-anchor="middle" dy="0.6em">-0.25</text>
      </g>
    </g>
    <g transform="translate(49.27,111.33)">
      <g class="primitive">
        <text text-anchor="middle" dy="0.6em">0.00</text>
      </g>
    </g>
    <g transform="translate(83.85,111.33)">
      <g class="primitive">
        <text text-anchor="middle" dy="0.6em">0.25</text>
      </g>
    </g>
    <g transform="translate(118.42,111.33)">
      <g class="primitive">
        <text text-anchor="middle" dy="0.6em">0.50</text>
      </g>
    </g>
    <g transform="translate(153,111.33)">
      <g class="primitive">
        <text text-anchor="middle" dy="0.6em">0.75</text>
      </g>
    </g>
  </g>
  <g clip-path="url(#img-2803eea2-3)">
    <g id="img-2803eea2-4">
      <g pointer-events="visible" stroke-width="0.3" fill="#000000" fill-opacity="0.000" stroke="#000000" stroke-opacity="0.000" class="guide background" id="img-2803eea2-5">
        <g transform="translate(83.85,57.66)" id="img-2803eea2-6">
          <path d="M-71.15,-52.66 L71.15,-52.66 71.15,52.66 -71.15,52.66  z" class="primitive"/>
        </g>
      </g>
      <g class="guide ygridlines xfixed" stroke-dasharray="0.5,0.5" stroke-width="0.2" stroke="#D0D0E0" id="img-2803eea2-7">
        <g transform="translate(83.85,108.33)" id="img-2803eea2-8">
          <path fill="none" d="M-71.15,0 L71.15,0 " class="primitive"/>
        </g>
        <g transform="translate(83.85,82.99)" id="img-2803eea2-9">
          <path fill="none" d="M-71.15,0 L71.15,0 " class="primitive"/>
        </g>
        <g transform="translate(83.85,57.66)" id="img-2803eea2-10">
          <path fill="none" d="M-71.15,0 L71.15,0 " class="primitive"/>
        </g>
        <g transform="translate(83.85,32.33)" id="img-2803eea2-11">
          <path fill="none" d="M-71.15,0 L71.15,0 " class="primitive"/>
        </g>
        <g transform="translate(83.85,7)" id="img-2803eea2-12">
          <path fill="none" d="M-71.15,0 L71.15,0 " class="primitive"/>
        </g>
      </g>
      <g class="guide xgridlines yfixed" stroke-dasharray="0.5,0.5" stroke-width="0.2" stroke="#D0D0E0" id="img-2803eea2-13">
        <g transform="translate(14.69,57.66)" id="img-2803eea2-14">
          <path fill="none" d="M0,-52.66 L0,52.66 " class="primitive"/>
        </g>
        <g transform="translate(49.27,57.66)" id="img-2803eea2-15">
          <path fill="none" d="M0,-52.66 L0,52.66 " class="primitive"/>
        </g>
        <g transform="translate(83.85,57.66)" id="img-2803eea2-16">
          <path fill="none" d="M0,-52.66 L0,52.66 " class="primitive"/>
        </g>
        <g transform="translate(118.42,57.66)" id="img-2803eea2-17">
          <path fill="none" d="M0,-52.66 L0,52.66 " class="primitive"/>
        </g>
        <g transform="translate(153,57.66)" id="img-2803eea2-18">
          <path fill="none" d="M0,-52.66 L0,52.66 " class="primitive"/>
        </g>
      </g>
      <g class="plotpanel" id="img-2803eea2-19">
        <metadata>
          <boundingbox value="12.693333333333328mm 5.0mm 142.30666666666667mm 105.32666666666668mm"/>
          <unitbox value="-0.2644606189144895 10.197381406671491 1.0289212378289792 -10.394762813342984"/>
        </metadata>
        <g stroke-width="0.3" fill="#000000" fill-opacity="0.000" class="geometry" id="img-2803eea2-20">
          <g class="color_LCHab{Float32}(70.0f0,60.0f0,240.0f0)" stroke-dasharray="none" stroke="#00BFFF" id="img-2803eea2-21">
            <g transform="translate(88.1,51.36)" id="img-2803eea2-22">
              <path fill="none" d="M-61.67,48.27 L-61.62,48.25 -61.57,48.23 -61.52,48.2 -61.47,48.18 -61.42,48.15 -61.37,48.13 -61.32,48.1 -61.28,48.08 -61.23,48.06 -61.18,48.03 -61.13,48.01 -61.08,47.98 -61.03,47.96 -60.98,47.93 -60.93,47.91 -60.88,47.89 -60.83,47.86 -60.78,47.84 -60.73,47.81 -60.68,47.79 -60.63,47.76 -60.58,47.74 -60.53,47.71 -60.49,47.69 -60.44,47.66 -60.39,47.64 -60.34,47.61 -60.29,47.59 -60.24,47.56 -60.19,47.54 -60.14,47.51 -60.09,47.49 -60.04,47.46 -59.99,47.44 -59.94,47.41 -59.89,47.39 -59.84,47.36 -59.79,47.34 -59.75,47.31 -59.7,47.28 -59.65,47.26 -59.6,47.23 -59.55,47.21 -59.5,47.18 -59.45,47.16 -59.4,47.13 -59.35,47.1 -59.3,47.08 -59.25,47.05 -59.2,47.03 -59.15,47 -59.1,46.97 -59.05,46.95 -59,46.92 -58.96,46.9 -58.91,46.87 -58.86,46.84 -58.81,46.82 -58.76,46.79 -58.71,46.76 -58.66,46.74 -58.61,46.71 -58.56,46.69 -58.51,46.66 -58.46,46.63 -58.41,46.61 -58.36,46.58 -58.31,46.55 -58.26,46.52 -58.22,46.5 -58.17,46.47 -58.12,46.44 -58.07,46.42 -58.02,46.39 -57.97,46.36 -57.92,46.34 -57.87,46.31 -57.82,46.28 -57.77,46.25 -57.72,46.23 -57.67,46.2 -57.62,46.17 -57.57,46.15 -57.52,46.12 -57.47,46.09 -57.43,46.06 -57.38,46.04 -57.33,46.01 -57.28,45.98 -57.23,45.95 -57.18,45.92 -57.13,45.9 -57.08,45.87 -57.03,45.84 -56.98,45.81 -56.93,45.79 -56.88,45.76 -56.83,45.73 -56.78,45.7 -56.73,45.67 -56.69,45.64 -56.64,45.62 -56.59,45.59 -56.54,45.56 -56.49,45.53 -56.44,45.5 -56.39,45.47 -56.34,45.45 -56.29,45.42 -56.24,45.39 -56.19,45.36 -56.14,45.33 -56.09,45.3 -56.04,45.27 -55.99,45.25 -55.94,45.22 -55.9,45.19 -55.85,45.16 -55.8,45.13 -55.75,45.1 -55.7,45.07 -55.65,45.04 -55.6,45.01 -55.55,44.98 -55.5,44.95 -55.45,44.93 -55.4,44.9 -55.35,44.87 -55.3,44.84 -55.25,44.81 -55.2,44.78 -55.15,44.75 -55.11,44.72 -55.06,44.69 -55.01,44.66 -54.96,44.63 -54.91,44.6 -54.86,44.57 -54.81,44.54 -54.76,44.51 -54.71,44.48 -54.66,44.45 -54.61,44.42 -54.56,44.39 -54.51,44.36 -54.46,44.33 -54.41,44.3 -54.37,44.27 -54.32,44.24 -54.27,44.21 -54.22,44.18 -54.17,44.15 -54.12,44.12 -54.07,44.09 -54.02,44.06 -53.97,44.03 -53.92,43.99 -53.87,43.96 -53.82,43.93 -53.77,43.9 -53.72,43.87 -53.67,43.84 -53.62,43.81 -53.58,43.78 -53.53,43.75 -53.48,43.72 -53.43,43.68 -53.38,43.65 -53.33,43.62 -53.28,43.59 -53.23,43.56 -53.18,43.53 -53.13,43.5 -53.08,43.47 -53.03,43.43 -52.98,43.4 -52.93,43.37 -52.88,43.34 -52.84,43.31 -52.79,43.28 -52.74,43.24 -52.69,43.21 -52.64,43.18 -52.59,43.15 -52.54,43.12 -52.49,43.08 -52.44,43.05 -52.39,43.02 -52.34,42.99 -52.29,42.96 -52.24,42.92 -52.19,42.89 -52.14,42.86 -52.09,42.83 -52.05,42.79 -52,42.76 -51.95,42.73 -51.9,42.7 -51.85,42.66 -51.8,42.63 -51.75,42.6 -51.7,42.57 -51.65,42.53 -51.6,42.5 -51.55,42.47 -51.5,42.43 -51.45,42.4 -51.4,42.37 -51.35,42.34 -51.31,42.3 -51.26,42.27 -51.21,42.24 -51.16,42.2 -51.11,42.17 -51.06,42.14 -51.01,42.1 -50.96,42.07 -50.91,42.04 -50.86,42 -50.81,41.97 -50.76,41.94 -50.71,41.9 -50.66,41.87 -50.61,41.83 -50.56,41.8 -50.52,41.77 -50.47,41.73 -50.42,41.7 -50.37,41.66 -50.32,41.63 -50.27,41.6 -50.22,41.56 -50.17,41.53 -50.12,41.49 -50.07,41.46 -50.02,41.43 -49.97,41.39 -49.92,41.36 -49.87,41.32 -49.82,41.29 -49.78,41.25 -49.73,41.22 -49.68,41.18 -49.63,41.15 -49.58,41.11 -49.53,41.08 -49.48,41.05 -49.43,41.01 -49.38,40.98 -49.33,40.94 -49.28,40.91 -49.23,40.87 -49.18,40.84 -49.13,40.8 -49.08,40.77 -49.03,40.73 -48.99,40.69 -48.94,40.66 -48.89,40.62 -48.84,40.59 -48.79,40.55 -48.74,40.52 -48.69,40.48 -48.64,40.45 -48.59,40.41 -48.54,40.38 -48.49,40.34 -48.44,40.3 -48.39,40.27 -48.34,40.23 -48.29,40.2 -48.25,40.16 -48.2,40.12 -48.15,40.09 -48.1,40.05 -48.05,40.02 -48,39.98 -47.95,39.94 -47.9,39.91 -47.85,39.87 -47.8,39.83 -47.75,39.8 -47.7,39.76 -47.65,39.73 -47.6,39.69 -47.55,39.65 -47.5,39.62 -47.46,39.58 -47.41,39.54 -47.36,39.51 -47.31,39.47 -47.26,39.43 -47.21,39.39 -47.16,39.36 -47.11,39.32 -47.06,39.28 -47.01,39.25 -46.96,39.21 -46.91,39.17 -46.86,39.13 -46.81,39.1 -46.76,39.06 -46.72,39.02 -46.67,38.99 -46.62,38.95 -46.57,38.91 -46.52,38.87 -46.47,38.84 -46.42,38.8 -46.37,38.76 -46.32,38.72 -46.27,38.68 -46.22,38.65 -46.17,38.61 -46.12,38.57 -46.07,38.53 -46.02,38.49 -45.97,38.46 -45.93,38.42 -45.88,38.38 -45.83,38.34 -45.78,38.3 -45.73,38.27 -45.68,38.23 -45.63,38.19 -45.58,38.15 -45.53,38.11 -45.48,38.07 -45.43,38.03 -45.38,38 -45.33,37.96 -45.28,37.92 -45.23,37.88 -45.19,37.84 -45.14,37.8 -45.09,37.76 -45.04,37.72 -44.99,37.69 -44.94,37.65 -44.89,37.61 -44.84,37.57 -44.79,37.53 -44.74,37.49 -44.69,37.45 -44.64,37.41 -44.59,37.37 -44.54,37.33 -44.49,37.29 -44.44,37.25 -44.4,37.21 -44.35,37.17 -44.3,37.13 -44.25,37.09 -44.2,37.06 -44.15,37.02 -44.1,36.98 -44.05,36.94 -44,36.9 -43.95,36.86 -43.9,36.82 -43.85,36.78 -43.8,36.74 -43.75,36.7 -43.7,36.66 -43.66,36.62 -43.61,36.57 -43.56,36.53 -43.51,36.49 -43.46,36.45 -43.41,36.41 -43.36,36.37 -43.31,36.33 -43.26,36.29 -43.21,36.25 -43.16,36.21 -43.11,36.17 -43.06,36.13 -43.01,36.09 -42.96,36.05 -42.91,36.01 -42.87,35.97 -42.82,35.92 -42.77,35.88 -42.72,35.84 -42.67,35.8 -42.62,35.76 -42.57,35.72 -42.52,35.68 -42.47,35.64 -42.42,35.59 -42.37,35.55 -42.32,35.51 -42.27,35.47 -42.22,35.43 -42.17,35.39 -42.13,35.35 -42.08,35.3 -42.03,35.26 -41.98,35.22 -41.93,35.18 -41.88,35.14 -41.83,35.09 -41.78,35.05 -41.73,35.01 -41.68,34.97 -41.63,34.93 -41.58,34.88 -41.53,34.84 -41.48,34.8 -41.43,34.76 -41.38,34.72 -41.34,34.67 -41.29,34.63 -41.24,34.59 -41.19,34.55 -41.14,34.5 -41.09,34.46 -41.04,34.42 -40.99,34.37 -40.94,34.33 -40.89,34.29 -40.84,34.25 -40.79,34.2 -40.74,34.16 -40.69,34.12 -40.64,34.07 -40.6,34.03 -40.55,33.99 -40.5,33.95 -40.45,33.9 -40.4,33.86 -40.35,33.82 -40.3,33.77 -40.25,33.73 -40.2,33.69 -40.15,33.64 -40.1,33.6 -40.05,33.56 -40,33.51 -39.95,33.47 -39.9,33.42 -39.85,33.38 -39.81,33.34 -39.76,33.29 -39.71,33.25 -39.66,33.21 -39.61,33.16 -39.56,33.12 -39.51,33.07 -39.46,33.03 -39.41,32.99 -39.36,32.94 -39.31,32.9 -39.26,32.85 -39.21,32.81 -39.16,32.76 -39.11,32.72 -39.07,32.68 -39.02,32.63 -38.97,32.59 -38.92,32.54 -38.87,32.5 -38.82,32.45 -38.77,32.41 -38.72,32.36 -38.67,32.32 -38.62,32.27 -38.57,32.23 -38.52,32.18 -38.47,32.14 -38.42,32.09 -38.37,32.05 -38.32,32 -38.28,31.96 -38.23,31.91 -38.18,31.87 -38.13,31.82 -38.08,31.78 -38.03,31.73 -37.98,31.69 -37.93,31.64 -37.88,31.6 -37.83,31.55 -37.78,31.5 -37.73,31.46 -37.68,31.41 -37.63,31.37 -37.58,31.32 -37.53,31.28 -37.49,31.23 -37.44,31.18 -37.39,31.14 -37.34,31.09 -37.29,31.05 -37.24,31 -37.19,30.95 -37.14,30.91 -37.09,30.86 -37.04,30.82 -36.99,30.77 -36.94,30.72 -36.89,30.68 -36.84,30.63 -36.79,30.58 -36.75,30.54 -36.7,30.49 -36.65,30.44 -36.6,30.4 -36.55,30.35 -36.5,30.3 -36.45,30.26 -36.4,30.21 -36.35,30.16 -36.3,30.12 -36.25,30.07 -36.2,30.02 -36.15,29.98 -36.1,29.93 -36.05,29.88 -36,29.84 -35.96,29.79 -35.91,29.74 -35.86,29.69 -35.81,29.65 -35.76,29.6 -35.71,29.55 -35.66,29.5 -35.61,29.46 -35.56,29.41 -35.51,29.36 -35.46,29.31 -35.41,29.27 -35.36,29.22 -35.31,29.17 -35.26,29.12 -35.22,29.08 -35.17,29.03 -35.12,28.98 -35.07,28.93 -35.02,28.88 -34.97,28.84 -34.92,28.79 -34.87,28.74 -34.82,28.69 -34.77,28.64 -34.72,28.6 -34.67,28.55 -34.62,28.5 -34.57,28.45 -34.52,28.4 -34.47,28.35 -34.43,28.31 -34.38,28.26 -34.33,28.21 -34.28,28.16 -34.23,28.11 -34.18,28.06 -34.13,28.01 -34.08,27.96 -34.03,27.92 -33.98,27.87 -33.93,27.82 -33.88,27.77 -33.83,27.72 -33.78,27.67 -33.73,27.62 -33.69,27.57 -33.64,27.52 -33.59,27.48 -33.54,27.43 -33.49,27.38 -33.44,27.33 -33.39,27.28 -33.34,27.23 -33.29,27.18 -33.24,27.13 -33.19,27.08 -33.14,27.03 -33.09,26.98 -33.04,26.93 -32.99,26.88 -32.94,26.83 -32.9,26.78 -32.85,26.73 -32.8,26.68 -32.75,26.63 -32.7,26.58 -32.65,26.53 -32.6,26.48 -32.55,26.43 -32.5,26.38 -32.45,26.33 -32.4,26.28 -32.35,26.23 -32.3,26.18 -32.25,26.13 -32.2,26.08 -32.16,26.03 -32.11,25.98 -32.06,25.93 -32.01,25.88 -31.96,25.83 -31.91,25.78 -31.86,25.73 -31.81,25.68 -31.76,25.63 -31.71,25.58 -31.66,25.53 -31.61,25.48 -31.56,25.42 -31.51,25.37 -31.46,25.32 -31.41,25.27 -31.37,25.22 -31.32,25.17 -31.27,25.12 -31.22,25.07 -31.17,25.02 -31.12,24.97 -31.07,24.91 -31.02,24.86 -30.97,24.81 -30.92,24.76 -30.87,24.71 -30.82,24.66 -30.77,24.61 -30.72,24.56 -30.67,24.5 -30.63,24.45 -30.58,24.4 -30.53,24.35 -30.48,24.3 -30.43,24.25 -30.38,24.19 -30.33,24.14 -30.28,24.09 -30.23,24.04 -30.18,23.99 -30.13,23.93 -30.08,23.88 -30.03,23.83 -29.98,23.78 -29.93,23.73 -29.88,23.67 -29.84,23.62 -29.79,23.57 -29.74,23.52 -29.69,23.47 -29.64,23.41 -29.59,23.36 -29.54,23.31 -29.49,23.26 -29.44,23.2 -29.39,23.15 -29.34,23.1 -29.29,23.05 -29.24,22.99 -29.19,22.94 -29.14,22.89 -29.1,22.84 -29.05,22.78 -29,22.73 -28.95,22.68 -28.9,22.62 -28.85,22.57 -28.8,22.52 -28.75,22.47 -28.7,22.41 -28.65,22.36 -28.6,22.31 -28.55,22.25 -28.5,22.2 -28.45,22.15 -28.4,22.09 -28.35,22.04 -28.31,21.99 -28.26,21.93 -28.21,21.88 -28.16,21.83 -28.11,21.77 -28.06,21.72 -28.01,21.67 -27.96,21.61 -27.91,21.56 -27.86,21.51 -27.81,21.45 -27.76,21.4 -27.71,21.35 -27.66,21.29 -27.61,21.24 -27.57,21.19 -27.52,21.13 -27.47,21.08 -27.42,21.02 -27.37,20.97 -27.32,20.92 -27.27,20.86 -27.22,20.81 -27.17,20.75 -27.12,20.7 -27.07,20.65 -27.02,20.59 -26.97,20.54 -26.92,20.48 -26.87,20.43 -26.82,20.37 -26.78,20.32 -26.73,20.27 -26.68,20.21 -26.63,20.16 -26.58,20.1 -26.53,20.05 -26.48,19.99 -26.43,19.94 -26.38,19.88 -26.33,19.83 -26.28,19.77 -26.23,19.72 -26.18,19.67 -26.13,19.61 -26.08,19.56 -26.04,19.5 -25.99,19.45 -25.94,19.39 -25.89,19.34 -25.84,19.28 -25.79,19.23 -25.74,19.17 -25.69,19.12 -25.64,19.06 -25.59,19.01 -25.54,18.95 -25.49,18.9 -25.44,18.84 -25.39,18.79 -25.34,18.73 -25.29,18.67 -25.25,18.62 -25.2,18.56 -25.15,18.51 -25.1,18.45 -25.05,18.4 -25,18.34 -24.95,18.29 -24.9,18.23 -24.85,18.18 -24.8,18.12 -24.75,18.06 -24.7,18.01 -24.65,17.95 -24.6,17.9 -24.55,17.84 -24.51,17.79 -24.46,17.73 -24.41,17.67 -24.36,17.62 -24.31,17.56 -24.26,17.51 -24.21,17.45 -24.16,17.39 -24.11,17.34 -24.06,17.28 -24.01,17.23 -23.96,17.17 -23.91,17.11 -23.86,17.06 -23.81,17 -23.76,16.95 -23.72,16.89 -23.67,16.83 -23.62,16.78 -23.57,16.72 -23.52,16.66 -23.47,16.61 -23.42,16.55 -23.37,16.49 -23.32,16.44 -23.27,16.38 -23.22,16.32 -23.17,16.27 -23.12,16.21 -23.07,16.15 -23.02,16.1 -22.98,16.04 -22.93,15.98 -22.88,15.93 -22.83,15.87 -22.78,15.81 -22.73,15.76 -22.68,15.7 -22.63,15.64 -22.58,15.59 -22.53,15.53 -22.48,15.47 -22.43,15.42 -22.38,15.36 -22.33,15.3 -22.28,15.24 -22.23,15.19 -22.19,15.13 -22.14,15.07 -22.09,15.02 -22.04,14.96 -21.99,14.9 -21.94,14.84 -21.89,14.79 -21.84,14.73 -21.79,14.67 -21.74,14.62 -21.69,14.56 -21.64,14.5 -21.59,14.44 -21.54,14.39 -21.49,14.33 -21.45,14.27 -21.4,14.21 -21.35,14.16 -21.3,14.1 -21.25,14.04 -21.2,13.98 -21.15,13.92 -21.1,13.87 -21.05,13.81 -21,13.75 -20.95,13.69 -20.9,13.64 -20.85,13.58 -20.8,13.52 -20.75,13.46 -20.7,13.4 -20.66,13.35 -20.61,13.29 -20.56,13.23 -20.51,13.17 -20.46,13.11 -20.41,13.06 -20.36,13 -20.31,12.94 -20.26,12.88 -20.21,12.82 -20.16,12.77 -20.11,12.71 -20.06,12.65 -20.01,12.59 -19.96,12.53 -19.92,12.48 -19.87,12.42 -19.82,12.36 -19.77,12.3 -19.72,12.24 -19.67,12.18 -19.62,12.13 -19.57,12.07 -19.52,12.01 -19.47,11.95 -19.42,11.89 -19.37,11.83 -19.32,11.77 -19.27,11.72 -19.22,11.66 -19.17,11.6 -19.13,11.54 -19.08,11.48 -19.03,11.42 -18.98,11.36 -18.93,11.31 -18.88,11.25 -18.83,11.19 -18.78,11.13 -18.73,11.07 -18.68,11.01 -18.63,10.95 -18.58,10.89 -18.53,10.83 -18.48,10.78 -18.43,10.72 -18.38,10.66 -18.34,10.6 -18.29,10.54 -18.24,10.48 -18.19,10.42 -18.14,10.36 -18.09,10.3 -18.04,10.25 -17.99,10.19 -17.94,10.13 -17.89,10.07 -17.84,10.01 -17.79,9.95 -17.74,9.89 -17.69,9.83 -17.64,9.77 -17.6,9.71 -17.55,9.65 -17.5,9.59 -17.45,9.54 -17.4,9.48 -17.35,9.42 -17.3,9.36 -17.25,9.3 -17.2,9.24 -17.15,9.18 -17.1,9.12 -17.05,9.06 -17,9 -16.95,8.94 -16.9,8.88 -16.85,8.82 -16.81,8.76 -16.76,8.7 -16.71,8.64 -16.66,8.58 -16.61,8.53 -16.56,8.47 -16.51,8.41 -16.46,8.35 -16.41,8.29 -16.36,8.23 -16.31,8.17 -16.26,8.11 -16.21,8.05 -16.16,7.99 -16.11,7.93 -16.07,7.87 -16.02,7.81 -15.97,7.75 -15.92,7.69 -15.87,7.63 -15.82,7.57 -15.77,7.51 -15.72,7.45 -15.67,7.39 -15.62,7.33 -15.57,7.27 -15.52,7.21 -15.47,7.15 -15.42,7.09 -15.37,7.03 -15.32,6.97 -15.28,6.91 -15.23,6.85 -15.18,6.79 -15.13,6.73 -15.08,6.67 -15.03,6.61 -14.98,6.55 -14.93,6.49 -14.88,6.43 -14.83,6.37 -14.78,6.31 -14.73,6.25 -14.68,6.19 -14.63,6.13 -14.58,6.07 -14.54,6.01 -14.49,5.95 -14.44,5.89 -14.39,5.83 -14.34,5.77 -14.29,5.71 -14.24,5.65 -14.19,5.59 -14.14,5.53 -14.09,5.47 -14.04,5.41 -13.99,5.35 -13.94,5.29 -13.89,5.23 -13.84,5.17 -13.79,5.11 -13.75,5.05 -13.7,4.99 -13.65,4.93 -13.6,4.87 -13.55,4.81 -13.5,4.75 -13.45,4.69 -13.4,4.63 -13.35,4.57 -13.3,4.5 -13.25,4.44 -13.2,4.38 -13.15,4.32 -13.1,4.26 -13.05,4.2 -13.01,4.14 -12.96,4.08 -12.91,4.02 -12.86,3.96 -12.81,3.9 -12.76,3.84 -12.71,3.78 -12.66,3.72 -12.61,3.66 -12.56,3.6 -12.51,3.54 -12.46,3.48 -12.41,3.42 -12.36,3.36 -12.31,3.3 -12.26,3.24 -12.22,3.17 -12.17,3.11 -12.12,3.05 -12.07,2.99 -12.02,2.93 -11.97,2.87 -11.92,2.81 -11.87,2.75 -11.82,2.69 -11.77,2.63 -11.72,2.57 -11.67,2.51 -11.62,2.45 -11.57,2.39 -11.52,2.33 -11.48,2.27 -11.43,2.21 -11.38,2.15 -11.33,2.08 -11.28,2.02 -11.23,1.96 -11.18,1.9 -11.13,1.84 -11.08,1.78 -11.03,1.72 -10.98,1.66 -10.93,1.6 -10.88,1.54 -10.83,1.48 -10.78,1.42 -10.73,1.36 -10.69,1.3 -10.64,1.24 -10.59,1.18 -10.54,1.11 -10.49,1.05 -10.44,0.99 -10.39,0.93 -10.34,0.87 -10.29,0.81 -10.24,0.75 -10.19,0.69 -10.14,0.63 -10.09,0.57 -10.04,0.51 -9.99,0.45 -9.95,0.39 -9.9,0.33 -9.85,0.27 -9.8,0.21 -9.75,0.14 -9.7,0.08 -9.65,0.02 -9.6,-0.04 -9.55,-0.1 -9.5,-0.16 -9.45,-0.22 -9.4,-0.28 -9.35,-0.34 -9.3,-0.4 -9.25,-0.46 -9.2,-0.52 -9.16,-0.58 -9.11,-0.64 -9.06,-0.7 -9.01,-0.76 -8.96,-0.82 -8.91,-0.89 -8.86,-0.95 -8.81,-1.01 -8.76,-1.07 -8.71,-1.13 -8.66,-1.19 -8.61,-1.25 -8.56,-1.31 -8.51,-1.37 -8.46,-1.43 -8.42,-1.49 -8.37,-1.55 -8.32,-1.61 -8.27,-1.67 -8.22,-1.73 -8.17,-1.79 -8.12,-1.85 -8.07,-1.91 -8.02,-1.98 -7.97,-2.04 -7.92,-2.1 -7.87,-2.16 -7.82,-2.22 -7.77,-2.28 -7.72,-2.34 -7.67,-2.4 -7.63,-2.46 -7.58,-2.52 -7.53,-2.58 -7.48,-2.64 -7.43,-2.7 -7.38,-2.76 -7.33,-2.82 -7.28,-2.88 -7.23,-2.94 -7.18,-3 -7.13,-3.06 -7.08,-3.12 -7.03,-3.18 -6.98,-3.24 -6.93,-3.3 -6.89,-3.36 -6.84,-3.43 -6.79,-3.49 -6.74,-3.55 -6.69,-3.61 -6.64,-3.67 -6.59,-3.73 -6.54,-3.79 -6.49,-3.85 -6.44,-3.91 -6.39,-3.97 -6.34,-4.03 -6.29,-4.09 -6.24,-4.15 -6.19,-4.21 -6.14,-4.27 -6.1,-4.33 -6.05,-4.39 -6,-4.45 -5.95,-4.51 -5.9,-4.57 -5.85,-4.63 -5.8,-4.69 -5.75,-4.75 -5.7,-4.81 -5.65,-4.87 -5.6,-4.93 -5.55,-4.99 -5.5,-5.05 -5.45,-5.11 -5.4,-5.17 -5.36,-5.23 -5.31,-5.29 -5.26,-5.35 -5.21,-5.41 -5.16,-5.47 -5.11,-5.53 -5.06,-5.59 -5.01,-5.65 -4.96,-5.71 -4.91,-5.77 -4.86,-5.83 -4.81,-5.89 -4.76,-5.95 -4.71,-6.01 -4.66,-6.07 -4.61,-6.13 -4.57,-6.19 -4.52,-6.25 -4.47,-6.31 -4.42,-6.37 -4.37,-6.43 -4.32,-6.49 -4.27,-6.55 -4.22,-6.6 -4.17,-6.66 -4.12,-6.72 -4.07,-6.78 -4.02,-6.84 -3.97,-6.9 -3.92,-6.96 -3.87,-7.02 -3.83,-7.08 -3.78,-7.14 -3.73,-7.2 -3.68,-7.26 -3.63,-7.32 -3.58,-7.38 -3.53,-7.44 -3.48,-7.5 -3.43,-7.56 -3.38,-7.62 -3.33,-7.67 -3.28,-7.73 -3.23,-7.79 -3.18,-7.85 -3.13,-7.91 -3.08,-7.97 -3.04,-8.03 -2.99,-8.09 -2.94,-8.15 -2.89,-8.21 -2.84,-8.27 -2.79,-8.33 -2.74,-8.38 -2.69,-8.44 -2.64,-8.5 -2.59,-8.56 -2.54,-8.62 -2.49,-8.68 -2.44,-8.74 -2.39,-8.8 -2.34,-8.86 -2.3,-8.91 -2.25,-8.97 -2.2,-9.03 -2.15,-9.09 -2.1,-9.15 -2.05,-9.21 -2,-9.27 -1.95,-9.32 -1.9,-9.38 -1.85,-9.44 -1.8,-9.5 -1.75,-9.56 -1.7,-9.62 -1.65,-9.68 -1.6,-9.73 -1.55,-9.79 -1.51,-9.85 -1.46,-9.91 -1.41,-9.97 -1.36,-10.03 -1.31,-10.08 -1.26,-10.14 -1.21,-10.2 -1.16,-10.26 -1.11,-10.32 -1.06,-10.38 -1.01,-10.43 -0.96,-10.49 -0.91,-10.55 -0.86,-10.61 -0.81,-10.67 -0.77,-10.72 -0.72,-10.78 -0.67,-10.84 -0.62,-10.9 -0.57,-10.96 -0.52,-11.01 -0.47,-11.07 -0.42,-11.13 -0.37,-11.19 -0.32,-11.24 -0.27,-11.3 -0.22,-11.36 -0.17,-11.42 -0.12,-11.47 -0.07,-11.53 -0.02,-11.59 0.02,-11.65 0.07,-11.7 0.12,-11.76 0.17,-11.82 0.22,-11.88 0.27,-11.93 0.32,-11.99 0.37,-12.05 0.42,-12.11 0.47,-12.16 0.52,-12.22 0.57,-12.28 0.62,-12.33 0.67,-12.39 0.72,-12.45 0.77,-12.51 0.81,-12.56 0.86,-12.62 0.91,-12.68 0.96,-12.73 1.01,-12.79 1.06,-12.85 1.11,-12.9 1.16,-12.96 1.21,-13.02 1.26,-13.07 1.31,-13.13 1.36,-13.19 1.41,-13.24 1.46,-13.3 1.51,-13.36 1.55,-13.41 1.6,-13.47 1.65,-13.52 1.7,-13.58 1.75,-13.64 1.8,-13.69 1.85,-13.75 1.9,-13.81 1.95,-13.86 2,-13.92 2.05,-13.97 2.1,-14.03 2.15,-14.09 2.2,-14.14 2.25,-14.2 2.3,-14.25 2.34,-14.31 2.39,-14.36 2.44,-14.42 2.49,-14.48 2.54,-14.53 2.59,-14.59 2.64,-14.64 2.69,-14.7 2.74,-14.75 2.79,-14.81 2.84,-14.86 2.89,-14.92 2.94,-14.98 2.99,-15.03 3.04,-15.09 3.08,-15.14 3.13,-15.2 3.18,-15.25 3.23,-15.31 3.28,-15.36 3.33,-15.42 3.38,-15.47 3.43,-15.53 3.48,-15.58 3.53,-15.64 3.58,-15.69 3.63,-15.74 3.68,-15.8 3.73,-15.85 3.78,-15.91 3.83,-15.96 3.87,-16.02 3.92,-16.07 3.97,-16.13 4.02,-16.18 4.07,-16.23 4.12,-16.29 4.17,-16.34 4.22,-16.4 4.27,-16.45 4.32,-16.5 4.37,-16.56 4.42,-16.61 4.47,-16.67 4.52,-16.72 4.57,-16.77 4.61,-16.83 4.66,-16.88 4.71,-16.93 4.76,-16.99 4.81,-17.04 4.86,-17.1 4.91,-17.15 4.96,-17.2 5.01,-17.26 5.06,-17.31 5.11,-17.36 5.16,-17.42 5.21,-17.47 5.26,-17.52 5.31,-17.57 5.36,-17.63 5.4,-17.68 5.45,-17.73 5.5,-17.79 5.55,-17.84 5.6,-17.89 5.65,-17.94 5.7,-18 5.75,-18.05 5.8,-18.1 5.85,-18.15 5.9,-18.21 5.95,-18.26 6,-18.31 6.05,-18.36 6.1,-18.41 6.14,-18.47 6.19,-18.52 6.24,-18.57 6.29,-18.62 6.34,-18.67 6.39,-18.73 6.44,-18.78 6.49,-18.83 6.54,-18.88 6.59,-18.93 6.64,-18.98 6.69,-19.04 6.74,-19.09 6.79,-19.14 6.84,-19.19 6.89,-19.24 6.93,-19.29 6.98,-19.34 7.03,-19.39 7.08,-19.45 7.13,-19.5 7.18,-19.55 7.23,-19.6 7.28,-19.65 7.33,-19.7 7.38,-19.75 7.43,-19.8 7.48,-19.85 7.53,-19.9 7.58,-19.95 7.63,-20 7.67,-20.05 7.72,-20.1 7.77,-20.15 7.82,-20.2 7.87,-20.25 7.92,-20.3 7.97,-20.35 8.02,-20.4 8.07,-20.45 8.12,-20.5 8.17,-20.55 8.22,-20.6 8.27,-20.65 8.32,-20.7 8.37,-20.75 8.42,-20.8 8.46,-20.85 8.51,-20.9 8.56,-20.95 8.61,-21 8.66,-21.05 8.71,-21.09 8.76,-21.14 8.81,-21.19 8.86,-21.24 8.91,-21.29 8.96,-21.34 9.01,-21.39 9.06,-21.43 9.11,-21.48 9.16,-21.53 9.2,-21.58 9.25,-21.63 9.3,-21.68 9.35,-21.72 9.4,-21.77 9.45,-21.82 9.5,-21.87 9.55,-21.92 9.6,-21.96 9.65,-22.01 9.7,-22.06 9.75,-22.11 9.8,-22.15 9.85,-22.2 9.9,-22.25 9.95,-22.3 9.99,-22.34 10.04,-22.39 10.09,-22.44 10.14,-22.48 10.19,-22.53 10.24,-22.58 10.29,-22.62 10.34,-22.67 10.39,-22.72 10.44,-22.76 10.49,-22.81 10.54,-22.86 10.59,-22.9 10.64,-22.95 10.69,-22.99 10.73,-23.04 10.78,-23.09 10.83,-23.13 10.88,-23.18 10.93,-23.22 10.98,-23.27 11.03,-23.32 11.08,-23.36 11.13,-23.41 11.18,-23.45 11.23,-23.5 11.28,-23.54 11.33,-23.59 11.38,-23.63 11.43,-23.68 11.48,-23.72 11.52,-23.77 11.57,-23.81 11.62,-23.86 11.67,-23.9 11.72,-23.95 11.77,-23.99 11.82,-24.03 11.87,-24.08 11.92,-24.12 11.97,-24.17 12.02,-24.21 12.07,-24.26 12.12,-24.3 12.17,-24.34 12.22,-24.39 12.26,-24.43 12.31,-24.47 12.36,-24.52 12.41,-24.56 12.46,-24.6 12.51,-24.65 12.56,-24.69 12.61,-24.73 12.66,-24.78 12.71,-24.82 12.76,-24.86 12.81,-24.9 12.86,-24.95 12.91,-24.99 12.96,-25.03 13.01,-25.07 13.05,-25.12 13.1,-25.16 13.15,-25.2 13.2,-25.24 13.25,-25.29 13.3,-25.33 13.35,-25.37 13.4,-25.41 13.45,-25.45 13.5,-25.49 13.55,-25.54 13.6,-25.58 13.65,-25.62 13.7,-25.66 13.75,-25.7 13.79,-25.74 13.84,-25.78 13.89,-25.82 13.94,-25.86 13.99,-25.9 14.04,-25.94 14.09,-25.99 14.14,-26.03 14.19,-26.07 14.24,-26.11 14.29,-26.15 14.34,-26.19 14.39,-26.23 14.44,-26.27 14.49,-26.31 14.54,-26.35 14.58,-26.39 14.63,-26.42 14.68,-26.46 14.73,-26.5 14.78,-26.54 14.83,-26.58 14.88,-26.62 14.93,-26.66 14.98,-26.7 15.03,-26.74 15.08,-26.78 15.13,-26.81 15.18,-26.85 15.23,-26.89 15.28,-26.93 15.32,-26.97 15.37,-27.01 15.42,-27.04 15.47,-27.08 15.52,-27.12 15.57,-27.16 15.62,-27.19 15.67,-27.23 15.72,-27.27 15.77,-27.31 15.82,-27.34 15.87,-27.38 15.92,-27.42 15.97,-27.46 16.02,-27.49 16.07,-27.53 16.11,-27.57 16.16,-27.6 16.21,-27.64 16.26,-27.67 16.31,-27.71 16.36,-27.75 16.41,-27.78 16.46,-27.82 16.51,-27.85 16.56,-27.89 16.61,-27.93 16.66,-27.96 16.71,-28 16.76,-28.03 16.81,-28.07 16.85,-28.1 16.9,-28.14 16.95,-28.17 17,-28.21 17.05,-28.24 17.1,-28.28 17.15,-28.31 17.2,-28.35 17.25,-28.38 17.3,-28.41 17.35,-28.45 17.4,-28.48 17.45,-28.52 17.5,-28.55 17.55,-28.58 17.6,-28.62 17.64,-28.65 17.69,-28.68 17.74,-28.72 17.79,-28.75 17.84,-28.78 17.89,-28.82 17.94,-28.85 17.99,-28.88 18.04,-28.91 18.09,-28.95 18.14,-28.98 18.19,-29.01 18.24,-29.04 18.29,-29.08 18.34,-29.11 18.38,-29.14 18.43,-29.17 18.48,-29.2 18.53,-29.23 18.58,-29.27 18.63,-29.3 18.68,-29.33 18.73,-29.36 18.78,-29.39 18.83,-29.42 18.88,-29.45 18.93,-29.48 18.98,-29.51 19.03,-29.54 19.08,-29.57 19.13,-29.6 19.17,-29.63 19.22,-29.66 19.27,-29.69 19.32,-29.72 19.37,-29.75 19.42,-29.78 19.47,-29.81 19.52,-29.84 19.57,-29.87 19.62,-29.9 19.67,-29.93 19.72,-29.96 19.77,-29.99 19.82,-30.02 19.87,-30.04 19.92,-30.07 19.96,-30.1 20.01,-30.13 20.06,-30.16 20.11,-30.18 20.16,-30.21 20.21,-30.24 20.26,-30.27 20.31,-30.29 20.36,-30.32 20.41,-30.35 20.46,-30.38 20.51,-30.4 20.56,-30.43 20.61,-30.46 20.66,-30.48 20.7,-30.51 20.75,-30.54 20.8,-30.56 20.85,-30.59 20.9,-30.61 20.95,-30.64 21,-30.67 21.05,-30.69 21.1,-30.72 21.15,-30.74 21.2,-30.77 21.25,-30.79 21.3,-30.82 21.35,-30.84 21.4,-30.87 21.45,-30.89 21.49,-30.92 21.54,-30.94 21.59,-30.97 21.64,-30.99 21.69,-31.01 21.74,-31.04 21.79,-31.06 21.84,-31.09 21.89,-31.11 21.94,-31.13 21.99,-31.16 22.04,-31.18 22.09,-31.2 22.14,-31.22 22.19,-31.25 22.23,-31.27 22.28,-31.29 22.33,-31.32 22.38,-31.34 22.43,-31.36 22.48,-31.38 22.53,-31.4 22.58,-31.43 22.63,-31.45 22.68,-31.47 22.73,-31.49 22.78,-31.51 22.83,-31.53 22.88,-31.55 22.93,-31.57 22.98,-31.59 23.02,-31.62 23.07,-31.64 23.12,-31.66 23.17,-31.68 23.22,-31.7 23.27,-31.72 23.32,-31.74 23.37,-31.76 23.42,-31.78 23.47,-31.79 23.52,-31.81 23.57,-31.83 23.62,-31.85 23.67,-31.87 23.72,-31.89 23.76,-31.91 23.81,-31.93 23.86,-31.95 23.91,-31.96 23.96,-31.98 24.01,-32 24.06,-32.02 24.11,-32.03 24.16,-32.05 24.21,-32.07 24.26,-32.09 24.31,-32.1 24.36,-32.12 24.41,-32.14 24.46,-32.15 24.51,-32.17 24.55,-32.19 24.6,-32.2 24.65,-32.22 24.7,-32.24 24.75,-32.25 24.8,-32.27 24.85,-32.28 24.9,-32.3 24.95,-32.31 25,-32.33 25.05,-32.34 25.1,-32.36 25.15,-32.37 25.2,-32.39 25.25,-32.4 25.29,-32.42 25.34,-32.43 25.39,-32.45 25.44,-32.46 25.49,-32.47 25.54,-32.49 25.59,-32.5 25.64,-32.51 25.69,-32.53 25.74,-32.54 25.79,-32.55 25.84,-32.57 25.89,-32.58 25.94,-32.59 25.99,-32.6 26.04,-32.62 26.08,-32.63 26.13,-32.64 26.18,-32.65 26.23,-32.66 26.28,-32.67 26.33,-32.69 26.38,-32.7 26.43,-32.71 26.48,-32.72 26.53,-32.73 26.58,-32.74 26.63,-32.75 26.68,-32.76 26.73,-32.77 26.78,-32.78 26.82,-32.79 26.87,-32.8 26.92,-32.81 26.97,-32.82 27.02,-32.83 27.07,-32.84 27.12,-32.85 27.17,-32.86 27.22,-32.86 27.27,-32.87 27.32,-32.88 27.37,-32.89 27.42,-32.9 27.47,-32.91 27.52,-32.91 27.57,-32.92 27.61,-32.93 27.66,-32.94 27.71,-32.94 27.76,-32.95 27.81,-32.96 27.86,-32.96 27.91,-32.97 27.96,-32.98 28.01,-32.98 28.06,-32.99 28.11,-33 28.16,-33 28.21,-33.01 28.26,-33.01 28.31,-33.02 28.35,-33.02 28.4,-33.03 28.45,-33.03 28.5,-33.04 28.55,-33.04 28.6,-33.05 28.65,-33.05 28.7,-33.05 28.75,-33.06 28.8,-33.06 28.85,-33.07 28.9,-33.07 28.95,-33.07 29,-33.08 29.05,-33.08 29.1,-33.08 29.14,-33.08 29.19,-33.09 29.24,-33.09 29.29,-33.09 29.34,-33.09 29.39,-33.09 29.44,-33.1 29.49,-33.1 29.54,-33.1 29.59,-33.1 29.64,-33.1 29.69,-33.1 29.74,-33.1 29.79,-33.1 29.84,-33.1 29.88,-33.1 29.93,-33.1 29.98,-33.1 30.03,-33.1 30.08,-33.1 30.13,-33.1 30.18,-33.1 30.23,-33.1 30.28,-33.1 30.33,-33.1 30.38,-33.1 30.43,-33.1 30.48,-33.09 30.53,-33.09 30.58,-33.09 30.63,-33.09 30.67,-33.09 30.72,-33.08 30.77,-33.08 30.82,-33.08 30.87,-33.07 30.92,-33.07 30.97,-33.07 31.02,-33.06 31.07,-33.06 31.12,-33.06 31.17,-33.05 31.22,-33.05 31.27,-33.04 31.32,-33.04 31.37,-33.03 31.41,-33.03 31.46,-33.02 31.51,-33.02 31.56,-33.01 31.61,-33.01 31.66,-33 31.71,-33 31.76,-32.99 31.81,-32.98 31.86,-32.98 31.91,-32.97 31.96,-32.96 32.01,-32.96 32.06,-32.95 32.11,-32.94 32.16,-32.94 32.2,-32.93 32.25,-32.92 32.3,-32.91 32.35,-32.9 32.4,-32.9 32.45,-32.89 32.5,-32.88 32.55,-32.87 32.6,-32.86 32.65,-32.85 32.7,-32.84 32.75,-32.83 32.8,-32.82 32.85,-32.81 32.9,-32.8 32.94,-32.79 32.99,-32.78 33.04,-32.77 33.09,-32.76 33.14,-32.75 33.19,-32.74 33.24,-32.73 33.29,-32.72 33.34,-32.7 33.39,-32.69 33.44,-32.68 33.49,-32.67 33.54,-32.66 33.59,-32.64 33.64,-32.63 33.69,-32.62 33.73,-32.6 33.78,-32.59 33.83,-32.58 33.88,-32.56 33.93,-32.55 33.98,-32.54 34.03,-32.52 34.08,-32.51 34.13,-32.49 34.18,-32.48 34.23,-32.46 34.28,-32.45 34.33,-32.43 34.38,-32.42 34.43,-32.4 34.47,-32.39 34.52,-32.37 34.57,-32.35 34.62,-32.34 34.67,-32.32 34.72,-32.3 34.77,-32.29 34.82,-32.27 34.87,-32.25 34.92,-32.24 34.97,-32.22 35.02,-32.2 35.07,-32.18 35.12,-32.16 35.17,-32.15 35.22,-32.13 35.26,-32.11 35.31,-32.09 35.36,-32.07 35.41,-32.05 35.46,-32.03 35.51,-32.01 35.56,-31.99 35.61,-31.97 35.66,-31.95 35.71,-31.93 35.76,-31.91 35.81,-31.89 35.86,-31.87 35.91,-31.85 35.96,-31.83 36,-31.8 36.05,-31.78 36.1,-31.76 36.15,-31.74 36.2,-31.72 36.25,-31.69 36.3,-31.67 36.35,-31.65 36.4,-31.62 36.45,-31.6 36.5,-31.58 36.55,-31.55 36.6,-31.53 36.65,-31.51 36.7,-31.48 36.75,-31.46 36.79,-31.43 36.84,-31.41 36.89,-31.38 36.94,-31.36 36.99,-31.33 37.04,-31.31 37.09,-31.28 37.14,-31.26 37.19,-31.23 37.24,-31.2 37.29,-31.18 37.34,-31.15 37.39,-31.12 37.44,-31.1 37.49,-31.07 37.53,-31.04 37.58,-31.01 37.63,-30.99 37.68,-30.96 37.73,-30.93 37.78,-30.9 37.83,-30.87 37.88,-30.84 37.93,-30.81 37.98,-30.78 38.03,-30.76 38.08,-30.73 38.13,-30.7 38.18,-30.67 38.23,-30.64 38.28,-30.61 38.32,-30.57 38.37,-30.54 38.42,-30.51 38.47,-30.48 38.52,-30.45 38.57,-30.42 38.62,-30.39 38.67,-30.35 38.72,-30.32 38.77,-30.29 38.82,-30.26 38.87,-30.22 38.92,-30.19 38.97,-30.16 39.02,-30.12 39.07,-30.09 39.11,-30.06 39.16,-30.02 39.21,-29.99 39.26,-29.95 39.31,-29.92 39.36,-29.88 39.41,-29.85 39.46,-29.81 39.51,-29.78 39.56,-29.74 39.61,-29.71 39.66,-29.67 39.71,-29.64 39.76,-29.6 39.81,-29.56 39.85,-29.53 39.9,-29.49 39.95,-29.45 40,-29.41 40.05,-29.38 40.1,-29.34 40.15,-29.3 40.2,-29.26 40.25,-29.22 40.3,-29.18 40.35,-29.15 40.4,-29.11 40.45,-29.07 40.5,-29.03 40.55,-28.99 40.6,-28.95 40.64,-28.91 40.69,-28.87 40.74,-28.83 40.79,-28.79 40.84,-28.74 40.89,-28.7 40.94,-28.66 40.99,-28.62 41.04,-28.58 41.09,-28.54 41.14,-28.49 41.19,-28.45 41.24,-28.41 41.29,-28.37 41.34,-28.32 41.38,-28.28 41.43,-28.24 41.48,-28.19 41.53,-28.15 41.58,-28.11 41.63,-28.06 41.68,-28.02 41.73,-27.97 41.78,-27.93 41.83,-27.88 41.88,-27.84 41.93,-27.79 41.98,-27.75 42.03,-27.7 42.08,-27.65 42.13,-27.61 42.17,-27.56 42.22,-27.51 42.27,-27.47 42.32,-27.42 42.37,-27.37 42.42,-27.32 42.47,-27.28 42.52,-27.23 42.57,-27.18 42.62,-27.13 42.67,-27.08 42.72,-27.03 42.77,-26.98 42.82,-26.93 42.87,-26.88 42.91,-26.84 42.96,-26.79 43.01,-26.73 43.06,-26.68 43.11,-26.63 43.16,-26.58 43.21,-26.53 43.26,-26.48 43.31,-26.43 43.36,-26.38 43.41,-26.33 43.46,-26.27 43.51,-26.22 43.56,-26.17 43.61,-26.12 43.66,-26.06 43.7,-26.01 43.75,-25.96 43.8,-25.9 43.85,-25.85 43.9,-25.79 43.95,-25.74 44,-25.69 44.05,-25.63 44.1,-25.58 44.15,-25.52 44.2,-25.46 44.25,-25.41 44.3,-25.35 44.35,-25.3 44.4,-25.24 44.44,-25.18 44.49,-25.13 44.54,-25.07 44.59,-25.01 44.64,-24.96 44.69,-24.9 44.74,-24.84 44.79,-24.78 44.84,-24.72 44.89,-24.67 44.94,-24.61 44.99,-24.55 45.04,-24.49 45.09,-24.43 45.14,-24.37 45.19,-24.31 45.23,-24.25 45.28,-24.19 45.33,-24.13 45.38,-24.07 45.43,-24.01 45.48,-23.95 45.53,-23.89 45.58,-23.82 45.63,-23.76 45.68,-23.7 45.73,-23.64 45.78,-23.58 45.83,-23.51 45.88,-23.45 45.93,-23.39 45.97,-23.32 46.02,-23.26 46.07,-23.2 46.12,-23.13 46.17,-23.07 46.22,-23 46.27,-22.94 46.32,-22.87 46.37,-22.81 46.42,-22.74 46.47,-22.68 46.52,-22.61 46.57,-22.55 46.62,-22.48 46.67,-22.41 46.72,-22.35 46.76,-22.28 46.81,-22.21 46.86,-22.15 46.91,-22.08 46.96,-22.01 47.01,-21.94 47.06,-21.87 47.11,-21.81 47.16,-21.74 47.21,-21.67 47.26,-21.6 47.31,-21.53 47.36,-21.46 47.41,-21.39 47.46,-21.32 47.5,-21.25 47.55,-21.18 47.6,-21.11 47.65,-21.04 47.7,-20.97 47.75,-20.9 47.8,-20.82 47.85,-20.75 47.9,-20.68 47.95,-20.61 48,-20.54 48.05,-20.46 48.1,-20.39 48.15,-20.32 48.2,-20.24 48.25,-20.17 48.29,-20.1 48.34,-20.02 48.39,-19.95 48.44,-19.87 48.49,-19.8 48.54,-19.72 48.59,-19.65 48.64,-19.57 48.69,-19.5 48.74,-19.42 48.79,-19.34 48.84,-19.27 48.89,-19.19 48.94,-19.11 48.99,-19.04 49.03,-18.96 49.08,-18.88 49.13,-18.8 49.18,-18.73 49.23,-18.65 49.28,-18.57 49.33,-18.49 49.38,-18.41 49.43,-18.33 49.48,-18.25 49.53,-18.17 49.58,-18.09 49.63,-18.01 49.68,-17.93 49.73,-17.85 49.78,-17.77 49.82,-17.69 49.87,-17.61 49.92,-17.53 49.97,-17.45 50.02,-17.37 50.07,-17.28 50.12,-17.2 50.17,-17.12 50.22,-17.04 50.27,-16.95 50.32,-16.87 50.37,-16.79 50.42,-16.7 50.47,-16.62 50.52,-16.53 50.56,-16.45 50.61,-16.36 50.66,-16.28 50.71,-16.19 50.76,-16.11 50.81,-16.02 50.86,-15.94 50.91,-15.85 50.96,-15.77 51.01,-15.68 51.06,-15.59 51.11,-15.51 51.16,-15.42 51.21,-15.33 51.26,-15.24 51.31,-15.15 51.35,-15.07 51.4,-14.98 51.45,-14.89 51.5,-14.8 51.55,-14.71 51.6,-14.62 51.65,-14.53 51.7,-14.44 51.75,-14.35 51.8,-14.26 51.85,-14.17 51.9,-14.08 51.95,-13.99 52,-13.9 52.05,-13.81 52.09,-13.72 52.14,-13.63 52.19,-13.53 52.24,-13.44 52.29,-13.35 52.34,-13.26 52.39,-13.16 52.44,-13.07 52.49,-12.98 52.54,-12.88 52.59,-12.79 52.64,-12.69 52.69,-12.6 52.74,-12.5 52.79,-12.41 52.84,-12.31 52.88,-12.22 52.93,-12.12 52.98,-12.03 53.03,-11.93 53.08,-11.84 53.13,-11.74 53.18,-11.64 53.23,-11.55 53.28,-11.45 53.33,-11.35 53.38,-11.25 53.43,-11.16 53.48,-11.06 53.53,-10.96 53.58,-10.86 53.62,-10.76 53.67,-10.66 53.72,-10.56 53.77,-10.46 53.82,-10.36 53.87,-10.26 53.92,-10.16 53.97,-10.06 54.02,-9.96 54.07,-9.86 54.12,-9.76 54.17,-9.66 54.22,-9.56 54.27,-9.46 54.32,-9.35 54.37,-9.25 54.41,-9.15 54.46,-9.05 54.51,-8.94 54.56,-8.84 54.61,-8.74 54.66,-8.63 54.71,-8.53 54.76,-8.42 54.81,-8.32 54.86,-8.21 54.91,-8.11 54.96,-8 55.01,-7.9 55.06,-7.79 55.11,-7.69 55.15,-7.58 55.2,-7.48 55.25,-7.37 55.3,-7.26 55.35,-7.16 55.4,-7.05 55.45,-6.94 55.5,-6.83 55.55,-6.73 55.6,-6.62 55.65,-6.51 55.7,-6.4 55.75,-6.29 55.8,-6.18 55.85,-6.07 55.9,-5.96 55.94,-5.85 55.99,-5.74 56.04,-5.63 56.09,-5.52 56.14,-5.41 56.19,-5.3 56.24,-5.19 56.29,-5.08 56.34,-4.97 56.39,-4.85 56.44,-4.74 56.49,-4.63 56.54,-4.52 56.59,-4.4 56.64,-4.29 56.69,-4.18 56.73,-4.06 56.78,-3.95 56.83,-3.84 56.88,-3.72 56.93,-3.61 56.98,-3.49 57.03,-3.38 57.08,-3.26 57.13,-3.15 57.18,-3.03 57.23,-2.92 57.28,-2.8 57.33,-2.68 57.38,-2.57 57.43,-2.45 57.47,-2.33 57.52,-2.22 57.57,-2.1 57.62,-1.98 57.67,-1.86 57.72,-1.75 57.77,-1.63 57.82,-1.51 57.87,-1.39 57.92,-1.27 57.97,-1.15 58.02,-1.03 58.07,-0.91 58.12,-0.79 58.17,-0.67 58.22,-0.55 58.26,-0.43 58.31,-0.31 58.36,-0.19 58.41,-0.07 58.46,0.05 58.51,0.18 58.56,0.3 58.61,0.42 58.66,0.54 58.71,0.67 58.76,0.79 58.81,0.91 58.86,1.04 58.91,1.16 58.96,1.28 59,1.41 59.05,1.53 59.1,1.66 59.15,1.78 59.2,1.91 59.25,2.03 59.3,2.16 59.35,2.28 59.4,2.41 59.45,2.54 59.5,2.66 59.55,2.79 59.6,2.92 59.65,3.04 59.7,3.17 59.75,3.3 59.79,3.43 59.84,3.55 59.89,3.68 59.94,3.81 59.99,3.94 60.04,4.07 60.09,4.2 60.14,4.33 60.19,4.46 60.24,4.59 60.29,4.72 60.34,4.85 60.39,4.98 60.44,5.11 60.49,5.24 60.53,5.37 60.58,5.5 60.63,5.63 60.68,5.76 60.73,5.9 60.78,6.03 60.83,6.16 60.88,6.29 60.93,6.43 60.98,6.56 61.03,6.69 61.08,6.83 61.13,6.96 61.18,7.1 61.23,7.23 61.28,7.37 61.32,7.5 61.37,7.63 61.42,7.77 61.47,7.91 61.52,8.04 61.57,8.18 61.62,8.31 61.67,8.45 " class="primitive"/>
            </g>
          </g>
        </g>
      </g>
    </g>
  </g>
  <g class="guide ylabels" font-size="2.82" font-family="'PT Sans Caption','Helvetica Neue','Helvetica',sans-serif" fill="#6C606B" id="img-2803eea2-23">
    <g transform="translate(11.69,108.33)" id="img-2803eea2-24">
      <g class="primitive">
        <text text-anchor="end" dy="0.35em">0.0</text>
      </g>
    </g>
    <g transform="translate(11.69,82.99)" id="img-2803eea2-25">
      <g class="primitive">
        <text text-anchor="end" dy="0.35em">2.5</text>
      </g>
    </g>
    <g transform="translate(11.69,57.66)" id="img-2803eea2-26">
      <g class="primitive">
        <text text-anchor="end" dy="0.35em">5.0</text>
      </g>
    </g>
    <g transform="translate(11.69,32.33)" id="img-2803eea2-27">
      <g class="primitive">
        <text text-anchor="end" dy="0.35em">7.5</text>
      </g>
    </g>
    <g transform="translate(11.69,7)" id="img-2803eea2-28">
      <g class="primitive">
        <text text-anchor="end" dy="0.35em">10.0</text>
      </g>
    </g>
  </g>
</g>
<defs>
  <clipPath id="img-2803eea2-3">
    <path d="M12.69,5 L155,5 155,110.33 12.69,110.33 " />
  </clipPath>
</defs>
</svg>
