<?xml version="1.0" encoding="UTF-8"?>
<svg xmlns="http://www.w3.org/2000/svg"
     xmlns:xlink="http://www.w3.org/1999/xlink"
     xmlns:gadfly="http://www.gadflyjl.org/ns"
     version="1.2"
     width="160mm" height="120mm" viewBox="0 0 160 120"
     stroke="none"
     fill="#000000"
     stroke-width="0.3"
     font-size="3.88"
>
<defs>
  <marker id="arrow" markerWidth="15" markerHeight="7" refX="5" refY="3.5" orient="auto" markerUnits="strokeWidth">
    <path d="M0,0 L15,3.5 L0,7 z" stroke="context-stroke" fill="context-stroke"/>
  </marker>
</defs>
<g class="plotroot xscalable yscalable" id="img-9a6d0172-1">
  <g class="guide xlabels" font-size="2.82" font-family="'PT Sans Caption','Helvetica Neue','Helvetica',sans-serif" fill="#6C606B" id="img-9a6d0172-2">
    <g transform="translate(13.46,111.33)">
      <g class="primitive">
        <text text-anchor="middle" dy="0.6em">-1.0</text>
      </g>
    </g>
    <g transform="translate(48.35,111.33)">
      <g class="primitive">
        <text text-anchor="middle" dy="0.6em">-0.5</text>
      </g>
    </g>
    <g transform="translate(83.23,111.33)">
      <g class="primitive">
        <text text-anchor="middle" dy="0.6em">0.0</text>
      </g>
    </g>
    <g transform="translate(118.12,111.33)">
      <g class="primitive">
        <text text-anchor="middle" dy="0.6em">0.5</text>
      </g>
    </g>
    <g transform="translate(153,111.33)">
      <g class="primitive">
        <text text-anchor="middle" dy="0.6em">1.0</text>
      </g>
    </g>
  </g>
  <g clip-path="url(#img-9a6d0172-3)">
    <g id="img-9a6d0172-4">
      <g pointer-events="visible" stroke-width="0.3" fill="#000000" fill-opacity="0.000" stroke="#000000" stroke-opacity="0.000" class="guide background" id="img-9a6d0172-5">
        <g transform="translate(83.23,57.66)" id="img-9a6d0172-6">
          <path d="M-71.77,-52.66 L71.77,-52.66 71.77,52.66 -71.77,52.66  z" class="primitive"/>
        </g>
      </g>
      <g class="guide ygridlines xfixed" stroke-dasharray="0.5,0.5" stroke-width="0.2" stroke="#D0D0E0" id="img-9a6d0172-7">
        <g transform="translate(83.23,108.33)" id="img-9a6d0172-8">
          <path fill="none" d="M-71.77,0 L71.77,0 " class="primitive"/>
        </g>
        <g transform="translate(83.23,57.66)" id="img-9a6d0172-9">
          <path fill="none" d="M-71.77,0 L71.77,0 " class="primitive"/>
        </g>
        <g transform="translate(83.23,7)" id="img-9a6d0172-10">
          <path fill="none" d="M-71.77,0 L71.77,0 " class="primitive"/>
        </g>
      </g>
      <g class="guide xgridlines yfixed" stroke-dasharray="0.5,0.5" stroke-width="0.2" stroke="#D0D0E0" id="img-9a6d0172-11">
        <g transform="translate(13.46,57.66)" id="img-9a6d0172-12">
          <path fill="none" d="M0,-52.66 L0,52.66 " class="primitive"/>
        </g>
        <g transform="translate(48.35,57.66)" id="img-9a6d0172-13">
          <path fill="none" d="M0,-52.66 L0,52.66 " class="primitive"/>
        </g>
        <g transform="translate(83.23,57.66)" id="img-9a6d0172-14">
          <path fill="none" d="M0,-52.66 L0,52.66 " class="primitive"/>
        </g>
        <g transform="translate(118.12,57.66)" id="img-9a6d0172-15">
          <path fill="none" d="M0,-52.66 L0,52.66 " class="primitive"/>
        </g>
        <g transform="translate(153,57.66)" id="img-9a6d0172-16">
          <path fill="none" d="M0,-52.66 L0,52.66 " class="primitive"/>
        </g>
      </g>
      <g class="plotpanel" id="img-9a6d0172-17">
        <metadata>
          <boundingbox value="11.460000000000008mm 5.0mm 143.54000000000002mm 105.32666666666667mm"/>
          <unitbox value="-1.028665615594095 0.19738140667149157 2.05733123118819 -10.394762813342984"/>
        </metadata>
        <g stroke-width="0.3" fill="#000000" fill-opacity="0.000" class="geometry" id="img-9a6d0172-18">
          <g class="color_LCHab{Float32}(70.0f0,60.0f0,240.0f0)" stroke-dasharray="none" stroke="#00BFFF" id="img-9a6d0172-19">
            <g transform="translate(83.07,70.66)" id="img-9a6d0172-20">
              <path fill="none" d="M-42.87,-20.72 L-42.84,-20.63 -42.8,-20.55 -42.77,-20.46 -42.73,-20.38 -42.7,-20.29 -42.66,-20.2 -42.63,-20.12 -42.6,-20.03 -42.56,-19.95 -42.53,-19.86 -42.49,-19.78 -42.46,-19.69 -42.42,-19.61 -42.39,-19.52 -42.36,-19.44 -42.32,-19.35 -42.29,-19.27 -42.25,-19.18 -42.22,-19.1 -42.18,-19.01 -42.15,-18.92 -42.12,-18.84 -42.08,-18.75 -42.05,-18.67 -42.01,-18.58 -41.98,-18.5 -41.94,-18.41 -41.91,-18.33 -41.88,-18.24 -41.84,-18.15 -41.81,-18.07 -41.77,-17.98 -41.74,-17.9 -41.7,-17.81 -41.67,-17.73 -41.64,-17.64 -41.6,-17.56 -41.57,-17.47 -41.53,-17.38 -41.5,-17.3 -41.46,-17.21 -41.43,-17.13 -41.4,-17.04 -41.36,-16.96 -41.33,-16.87 -41.29,-16.79 -41.26,-16.7 -41.22,-16.61 -41.19,-16.53 -41.16,-16.44 -41.12,-16.36 -41.09,-16.27 -41.05,-16.19 -41.02,-16.1 -40.98,-16.01 -40.95,-15.93 -40.91,-15.84 -40.88,-15.76 -40.85,-15.67 -40.81,-15.59 -40.78,-15.5 -40.74,-15.42 -40.71,-15.33 -40.67,-15.24 -40.64,-15.16 -40.61,-15.07 -40.57,-14.99 -40.54,-14.9 -40.5,-14.82 -40.47,-14.73 -40.43,-14.64 -40.4,-14.56 -40.37,-14.47 -40.33,-14.39 -40.3,-14.3 -40.26,-14.22 -40.23,-14.13 -40.19,-14.05 -40.16,-13.96 -40.13,-13.87 -40.09,-13.79 -40.06,-13.7 -40.02,-13.62 -39.99,-13.53 -39.95,-13.45 -39.92,-13.36 -39.89,-13.28 -39.85,-13.19 -39.82,-13.1 -39.78,-13.02 -39.75,-12.93 -39.71,-12.85 -39.68,-12.76 -39.65,-12.68 -39.61,-12.59 -39.58,-12.51 -39.54,-12.42 -39.51,-12.34 -39.47,-12.25 -39.44,-12.16 -39.41,-12.08 -39.37,-11.99 -39.34,-11.91 -39.3,-11.82 -39.27,-11.74 -39.23,-11.65 -39.2,-11.57 -39.17,-11.48 -39.13,-11.4 -39.1,-11.31 -39.06,-11.23 -39.03,-11.14 -38.99,-11.06 -38.96,-10.97 -38.92,-10.89 -38.89,-10.8 -38.86,-10.72 -38.82,-10.63 -38.79,-10.55 -38.75,-10.46 -38.72,-10.37 -38.68,-10.29 -38.65,-10.2 -38.62,-10.12 -38.58,-10.03 -38.55,-9.95 -38.51,-9.86 -38.48,-9.78 -38.44,-9.69 -38.41,-9.61 -38.38,-9.53 -38.34,-9.44 -38.31,-9.36 -38.27,-9.27 -38.24,-9.19 -38.2,-9.1 -38.17,-9.02 -38.14,-8.93 -38.1,-8.85 -38.07,-8.76 -38.03,-8.68 -38,-8.59 -37.96,-8.51 -37.93,-8.42 -37.9,-8.34 -37.86,-8.25 -37.83,-8.17 -37.79,-8.09 -37.76,-8 -37.72,-7.92 -37.69,-7.83 -37.66,-7.75 -37.62,-7.66 -37.59,-7.58 -37.55,-7.49 -37.52,-7.41 -37.48,-7.33 -37.45,-7.24 -37.42,-7.16 -37.38,-7.07 -37.35,-6.99 -37.31,-6.91 -37.28,-6.82 -37.24,-6.74 -37.21,-6.65 -37.18,-6.57 -37.14,-6.49 -37.11,-6.4 -37.07,-6.32 -37.04,-6.23 -37,-6.15 -36.97,-6.07 -36.93,-5.98 -36.9,-5.9 -36.87,-5.81 -36.83,-5.73 -36.8,-5.65 -36.76,-5.56 -36.73,-5.48 -36.69,-5.4 -36.66,-5.31 -36.63,-5.23 -36.59,-5.15 -36.56,-5.06 -36.52,-4.98 -36.49,-4.9 -36.45,-4.81 -36.42,-4.73 -36.39,-4.65 -36.35,-4.56 -36.32,-4.48 -36.28,-4.4 -36.25,-4.31 -36.21,-4.23 -36.18,-4.15 -36.15,-4.07 -36.11,-3.98 -36.08,-3.9 -36.04,-3.82 -36.01,-3.73 -35.97,-3.65 -35.94,-3.57 -35.91,-3.49 -35.87,-3.4 -35.84,-3.32 -35.8,-3.24 -35.77,-3.16 -35.73,-3.07 -35.7,-2.99 -35.67,-2.91 -35.63,-2.83 -35.6,-2.74 -35.56,-2.66 -35.53,-2.58 -35.49,-2.5 -35.46,-2.42 -35.43,-2.33 -35.39,-2.25 -35.36,-2.17 -35.32,-2.09 -35.29,-2.01 -35.25,-1.92 -35.22,-1.84 -35.19,-1.76 -35.15,-1.68 -35.12,-1.6 -35.08,-1.51 -35.05,-1.43 -35.01,-1.35 -34.98,-1.27 -34.94,-1.19 -34.91,-1.11 -34.88,-1.03 -34.84,-0.94 -34.81,-0.86 -34.77,-0.78 -34.74,-0.7 -34.7,-0.62 -34.67,-0.54 -34.64,-0.46 -34.6,-0.38 -34.57,-0.3 -34.53,-0.22 -34.5,-0.13 -34.46,-0.05 -34.43,0.03 -34.4,0.11 -34.36,0.19 -34.33,0.27 -34.29,0.35 -34.26,0.43 -34.22,0.51 -34.19,0.59 -34.16,0.67 -34.12,0.75 -34.09,0.83 -34.05,0.91 -34.02,0.99 -33.98,1.07 -33.95,1.15 -33.92,1.23 -33.88,1.31 -33.85,1.39 -33.81,1.47 -33.78,1.55 -33.74,1.63 -33.71,1.71 -33.68,1.79 -33.64,1.87 -33.61,1.95 -33.57,2.03 -33.54,2.1 -33.5,2.18 -33.47,2.26 -33.44,2.34 -33.4,2.42 -33.37,2.5 -33.33,2.58 -33.3,2.66 -33.26,2.74 -33.23,2.81 -33.2,2.89 -33.16,2.97 -33.13,3.05 -33.09,3.13 -33.06,3.21 -33.02,3.29 -32.99,3.36 -32.95,3.44 -32.92,3.52 -32.89,3.6 -32.85,3.68 -32.82,3.75 -32.78,3.83 -32.75,3.91 -32.71,3.99 -32.68,4.06 -32.65,4.14 -32.61,4.22 -32.58,4.3 -32.54,4.37 -32.51,4.45 -32.47,4.53 -32.44,4.61 -32.41,4.68 -32.37,4.76 -32.34,4.84 -32.3,4.91 -32.27,4.99 -32.23,5.07 -32.2,5.14 -32.17,5.22 -32.13,5.3 -32.1,5.37 -32.06,5.45 -32.03,5.53 -31.99,5.6 -31.96,5.68 -31.93,5.76 -31.89,5.83 -31.86,5.91 -31.82,5.98 -31.79,6.06 -31.75,6.14 -31.72,6.21 -31.69,6.29 -31.65,6.36 -31.62,6.44 -31.58,6.51 -31.55,6.59 -31.51,6.66 -31.48,6.74 -31.45,6.81 -31.41,6.89 -31.38,6.96 -31.34,7.04 -31.31,7.11 -31.27,7.19 -31.24,7.26 -31.21,7.34 -31.17,7.41 -31.14,7.49 -31.1,7.56 -31.07,7.64 -31.03,7.71 -31,7.78 -30.96,7.86 -30.93,7.93 -30.9,8.01 -30.86,8.08 -30.83,8.15 -30.79,8.23 -30.76,8.3 -30.72,8.37 -30.69,8.45 -30.66,8.52 -30.62,8.59 -30.59,8.67 -30.55,8.74 -30.52,8.81 -30.48,8.89 -30.45,8.96 -30.42,9.03 -30.38,9.1 -30.35,9.18 -30.31,9.25 -30.28,9.32 -30.24,9.39 -30.21,9.47 -30.18,9.54 -30.14,9.61 -30.11,9.68 -30.07,9.75 -30.04,9.83 -30,9.9 -29.97,9.97 -29.94,10.04 -29.9,10.11 -29.87,10.18 -29.83,10.26 -29.8,10.33 -29.76,10.4 -29.73,10.47 -29.7,10.54 -29.66,10.61 -29.63,10.68 -29.59,10.75 -29.56,10.82 -29.52,10.89 -29.49,10.96 -29.46,11.03 -29.42,11.1 -29.39,11.18 -29.35,11.25 -29.32,11.32 -29.28,11.39 -29.25,11.45 -29.22,11.52 -29.18,11.59 -29.15,11.66 -29.11,11.73 -29.08,11.8 -29.04,11.87 -29.01,11.94 -28.97,12.01 -28.94,12.08 -28.91,12.15 -28.87,12.22 -28.84,12.29 -28.8,12.35 -28.77,12.42 -28.73,12.49 -28.7,12.56 -28.67,12.63 -28.63,12.7 -28.6,12.76 -28.56,12.83 -28.53,12.9 -28.49,12.97 -28.46,13.04 -28.43,13.1 -28.39,13.17 -28.36,13.24 -28.32,13.31 -28.29,13.37 -28.25,13.44 -28.22,13.51 -28.19,13.57 -28.15,13.64 -28.12,13.71 -28.08,13.77 -28.05,13.84 -28.01,13.91 -27.98,13.97 -27.95,14.04 -27.91,14.11 -27.88,14.17 -27.84,14.24 -27.81,14.3 -27.77,14.37 -27.74,14.44 -27.71,14.5 -27.67,14.57 -27.64,14.63 -27.6,14.7 -27.57,14.76 -27.53,14.83 -27.5,14.89 -27.47,14.96 -27.43,15.02 -27.4,15.09 -27.36,15.15 -27.33,15.22 -27.29,15.28 -27.26,15.34 -27.23,15.41 -27.19,15.47 -27.16,15.54 -27.12,15.6 -27.09,15.66 -27.05,15.73 -27.02,15.79 -26.98,15.85 -26.95,15.92 -26.92,15.98 -26.88,16.04 -26.85,16.11 -26.81,16.17 -26.78,16.23 -26.74,16.3 -26.71,16.36 -26.68,16.42 -26.64,16.48 -26.61,16.55 -26.57,16.61 -26.54,16.67 -26.5,16.73 -26.47,16.79 -26.44,16.86 -26.4,16.92 -26.37,16.98 -26.33,17.04 -26.3,17.1 -26.26,17.16 -26.23,17.22 -26.2,17.28 -26.16,17.35 -26.13,17.41 -26.09,17.47 -26.06,17.53 -26.02,17.59 -25.99,17.65 -25.96,17.71 -25.92,17.77 -25.89,17.83 -25.85,17.89 -25.82,17.95 -25.78,18.01 -25.75,18.07 -25.72,18.13 -25.68,18.19 -25.65,18.25 -25.61,18.3 -25.58,18.36 -25.54,18.42 -25.51,18.48 -25.48,18.54 -25.44,18.6 -25.41,18.66 -25.37,18.72 -25.34,18.77 -25.3,18.83 -25.27,18.89 -25.24,18.95 -25.2,19.01 -25.17,19.06 -25.13,19.12 -25.1,19.18 -25.06,19.24 -25.03,19.29 -24.99,19.35 -24.96,19.41 -24.93,19.46 -24.89,19.52 -24.86,19.58 -24.82,19.63 -24.79,19.69 -24.75,19.75 -24.72,19.8 -24.69,19.86 -24.65,19.91 -24.62,19.97 -24.58,20.03 -24.55,20.08 -24.51,20.14 -24.48,20.19 -24.45,20.25 -24.41,20.3 -24.38,20.36 -24.34,20.41 -24.31,20.47 -24.27,20.52 -24.24,20.58 -24.21,20.63 -24.17,20.68 -24.14,20.74 -24.1,20.79 -24.07,20.85 -24.03,20.9 -24,20.95 -23.97,21.01 -23.93,21.06 -23.9,21.11 -23.86,21.17 -23.83,21.22 -23.79,21.27 -23.76,21.33 -23.73,21.38 -23.69,21.43 -23.66,21.48 -23.62,21.54 -23.59,21.59 -23.55,21.64 -23.52,21.69 -23.49,21.74 -23.45,21.8 -23.42,21.85 -23.38,21.9 -23.35,21.95 -23.31,22 -23.28,22.05 -23.25,22.1 -23.21,22.15 -23.18,22.21 -23.14,22.26 -23.11,22.31 -23.07,22.36 -23.04,22.41 -23,22.46 -22.97,22.51 -22.94,22.56 -22.9,22.61 -22.87,22.66 -22.83,22.71 -22.8,22.76 -22.76,22.8 -22.73,22.85 -22.7,22.9 -22.66,22.95 -22.63,23 -22.59,23.05 -22.56,23.1 -22.52,23.15 -22.49,23.19 -22.46,23.24 -22.42,23.29 -22.39,23.34 -22.35,23.39 -22.32,23.43 -22.28,23.48 -22.25,23.53 -22.22,23.58 -22.18,23.62 -22.15,23.67 -22.11,23.72 -22.08,23.76 -22.04,23.81 -22.01,23.86 -21.98,23.9 -21.94,23.95 -21.91,23.99 -21.87,24.04 -21.84,24.09 -21.8,24.13 -21.77,24.18 -21.74,24.22 -21.7,24.27 -21.67,24.31 -21.63,24.36 -21.6,24.4 -21.56,24.45 -21.53,24.49 -21.5,24.54 -21.46,24.58 -21.43,24.63 -21.39,24.67 -21.36,24.71 -21.32,24.76 -21.29,24.8 -21.26,24.85 -21.22,24.89 -21.19,24.93 -21.15,24.98 -21.12,25.02 -21.08,25.06 -21.05,25.1 -21.01,25.15 -20.98,25.19 -20.95,25.23 -20.91,25.27 -20.88,25.32 -20.84,25.36 -20.81,25.4 -20.77,25.44 -20.74,25.48 -20.71,25.52 -20.67,25.57 -20.64,25.61 -20.6,25.65 -20.57,25.69 -20.53,25.73 -20.5,25.77 -20.47,25.81 -20.43,25.85 -20.4,25.89 -20.36,25.93 -20.33,25.97 -20.29,26.01 -20.26,26.05 -20.23,26.09 -20.19,26.13 -20.16,26.17 -20.12,26.21 -20.09,26.25 -20.05,26.29 -20.02,26.33 -19.99,26.36 -19.95,26.4 -19.92,26.44 -19.88,26.48 -19.85,26.52 -19.81,26.56 -19.78,26.59 -19.75,26.63 -19.71,26.67 -19.68,26.71 -19.64,26.74 -19.61,26.78 -19.57,26.82 -19.54,26.85 -19.51,26.89 -19.47,26.93 -19.44,26.96 -19.4,27 -19.37,27.04 -19.33,27.07 -19.3,27.11 -19.27,27.14 -19.23,27.18 -19.2,27.21 -19.16,27.25 -19.13,27.29 -19.09,27.32 -19.06,27.36 -19.03,27.39 -18.99,27.42 -18.96,27.46 -18.92,27.49 -18.89,27.53 -18.85,27.56 -18.82,27.6 -18.78,27.63 -18.75,27.66 -18.72,27.7 -18.68,27.73 -18.65,27.76 -18.61,27.8 -18.58,27.83 -18.54,27.86 -18.51,27.9 -18.48,27.93 -18.44,27.96 -18.41,27.99 -18.37,28.02 -18.34,28.06 -18.3,28.09 -18.27,28.12 -18.24,28.15 -18.2,28.18 -18.17,28.21 -18.13,28.25 -18.1,28.28 -18.06,28.31 -18.03,28.34 -18,28.37 -17.96,28.4 -17.93,28.43 -17.89,28.46 -17.86,28.49 -17.82,28.52 -17.79,28.55 -17.76,28.58 -17.72,28.61 -17.69,28.64 -17.65,28.67 -17.62,28.7 -17.58,28.72 -17.55,28.75 -17.52,28.78 -17.48,28.81 -17.45,28.84 -17.41,28.87 -17.38,28.89 -17.34,28.92 -17.31,28.95 -17.28,28.98 -17.24,29 -17.21,29.03 -17.17,29.06 -17.14,29.09 -17.1,29.11 -17.07,29.14 -17.04,29.17 -17,29.19 -16.97,29.22 -16.93,29.25 -16.9,29.27 -16.86,29.3 -16.83,29.32 -16.79,29.35 -16.76,29.37 -16.73,29.4 -16.69,29.42 -16.66,29.45 -16.62,29.47 -16.59,29.5 -16.55,29.52 -16.52,29.55 -16.49,29.57 -16.45,29.6 -16.42,29.62 -16.38,29.64 -16.35,29.67 -16.31,29.69 -16.28,29.71 -16.25,29.74 -16.21,29.76 -16.18,29.78 -16.14,29.81 -16.11,29.83 -16.07,29.85 -16.04,29.87 -16.01,29.9 -15.97,29.92 -15.94,29.94 -15.9,29.96 -15.87,29.98 -15.83,30.01 -15.8,30.03 -15.77,30.05 -15.73,30.07 -15.7,30.09 -15.66,30.11 -15.63,30.13 -15.59,30.15 -15.56,30.17 -15.53,30.19 -15.49,30.21 -15.46,30.23 -15.42,30.25 -15.39,30.27 -15.35,30.29 -15.32,30.31 -15.29,30.33 -15.25,30.35 -15.22,30.37 -15.18,30.39 -15.15,30.4 -15.11,30.42 -15.08,30.44 -15.05,30.46 -15.01,30.48 -14.98,30.5 -14.94,30.51 -14.91,30.53 -14.87,30.55 -14.84,30.56 -14.8,30.58 -14.77,30.6 -14.74,30.62 -14.7,30.63 -14.67,30.65 -14.63,30.67 -14.6,30.68 -14.56,30.7 -14.53,30.71 -14.5,30.73 -14.46,30.75 -14.43,30.76 -14.39,30.78 -14.36,30.79 -14.32,30.81 -14.29,30.82 -14.26,30.84 -14.22,30.85 -14.19,30.86 -14.15,30.88 -14.12,30.89 -14.08,30.91 -14.05,30.92 -14.02,30.93 -13.98,30.95 -13.95,30.96 -13.91,30.98 -13.88,30.99 -13.84,31 -13.81,31.01 -13.78,31.03 -13.74,31.04 -13.71,31.05 -13.67,31.06 -13.64,31.08 -13.6,31.09 -13.57,31.1 -13.54,31.11 -13.5,31.12 -13.47,31.13 -13.43,31.15 -13.4,31.16 -13.36,31.17 -13.33,31.18 -13.3,31.19 -13.26,31.2 -13.23,31.21 -13.19,31.22 -13.16,31.23 -13.12,31.24 -13.09,31.25 -13.06,31.26 -13.02,31.27 -12.99,31.28 -12.95,31.29 -12.92,31.3 -12.88,31.3 -12.85,31.31 -12.81,31.32 -12.78,31.33 -12.75,31.34 -12.71,31.35 -12.68,31.35 -12.64,31.36 -12.61,31.37 -12.57,31.38 -12.54,31.38 -12.51,31.39 -12.47,31.4 -12.44,31.41 -12.4,31.41 -12.37,31.42 -12.33,31.43 -12.3,31.43 -12.27,31.44 -12.23,31.44 -12.2,31.45 -12.16,31.46 -12.13,31.46 -12.09,31.47 -12.06,31.47 -12.03,31.48 -11.99,31.48 -11.96,31.49 -11.92,31.49 -11.89,31.5 -11.85,31.5 -11.82,31.5 -11.79,31.51 -11.75,31.51 -11.72,31.52 -11.68,31.52 -11.65,31.52 -11.61,31.53 -11.58,31.53 -11.55,31.53 -11.51,31.54 -11.48,31.54 -11.44,31.54 -11.41,31.54 -11.37,31.55 -11.34,31.55 -11.31,31.55 -11.27,31.55 -11.24,31.55 -11.2,31.56 -11.17,31.56 -11.13,31.56 -11.1,31.56 -11.07,31.56 -11.03,31.56 -11,31.56 -10.96,31.56 -10.93,31.56 -10.89,31.56 -10.86,31.56 -10.82,31.56 -10.79,31.56 -10.76,31.56 -10.72,31.56 -10.69,31.56 -10.65,31.56 -10.62,31.56 -10.58,31.56 -10.55,31.56 -10.52,31.56 -10.48,31.55 -10.45,31.55 -10.41,31.55 -10.38,31.55 -10.34,31.55 -10.31,31.54 -10.28,31.54 -10.24,31.54 -10.21,31.54 -10.17,31.53 -10.14,31.53 -10.1,31.53 -10.07,31.52 -10.04,31.52 -10,31.52 -9.97,31.51 -9.93,31.51 -9.9,31.51 -9.86,31.5 -9.83,31.5 -9.8,31.49 -9.76,31.49 -9.73,31.48 -9.69,31.48 -9.66,31.47 -9.62,31.47 -9.59,31.46 -9.56,31.46 -9.52,31.45 -9.49,31.45 -9.45,31.44 -9.42,31.43 -9.38,31.43 -9.35,31.42 -9.32,31.41 -9.28,31.41 -9.25,31.4 -9.21,31.39 -9.18,31.39 -9.14,31.38 -9.11,31.37 -9.08,31.36 -9.04,31.36 -9.01,31.35 -8.97,31.34 -8.94,31.33 -8.9,31.32 -8.87,31.32 -8.83,31.31 -8.8,31.3 -8.77,31.29 -8.73,31.28 -8.7,31.27 -8.66,31.26 -8.63,31.25 -8.59,31.24 -8.56,31.23 -8.53,31.22 -8.49,31.21 -8.46,31.2 -8.42,31.19 -8.39,31.18 -8.35,31.17 -8.32,31.16 -8.29,31.15 -8.25,31.14 -8.22,31.13 -8.18,31.12 -8.15,31.11 -8.11,31.09 -8.08,31.08 -8.05,31.07 -8.01,31.06 -7.98,31.05 -7.94,31.03 -7.91,31.02 -7.87,31.01 -7.84,31 -7.81,30.98 -7.77,30.97 -7.74,30.96 -7.7,30.94 -7.67,30.93 -7.63,30.92 -7.6,30.9 -7.57,30.89 -7.53,30.87 -7.5,30.86 -7.46,30.85 -7.43,30.83 -7.39,30.82 -7.36,30.8 -7.33,30.79 -7.29,30.77 -7.26,30.76 -7.22,30.74 -7.19,30.73 -7.15,30.71 -7.12,30.69 -7.09,30.68 -7.05,30.66 -7.02,30.65 -6.98,30.63 -6.95,30.61 -6.91,30.6 -6.88,30.58 -6.84,30.56 -6.81,30.55 -6.78,30.53 -6.74,30.51 -6.71,30.49 -6.67,30.48 -6.64,30.46 -6.6,30.44 -6.57,30.42 -6.54,30.4 -6.5,30.39 -6.47,30.37 -6.43,30.35 -6.4,30.33 -6.36,30.31 -6.33,30.29 -6.3,30.27 -6.26,30.25 -6.23,30.23 -6.19,30.21 -6.16,30.19 -6.12,30.17 -6.09,30.15 -6.06,30.13 -6.02,30.11 -5.99,30.09 -5.95,30.07 -5.92,30.05 -5.88,30.03 -5.85,30.01 -5.82,29.99 -5.78,29.97 -5.75,29.95 -5.71,29.93 -5.68,29.9 -5.64,29.88 -5.61,29.86 -5.58,29.84 -5.54,29.82 -5.51,29.79 -5.47,29.77 -5.44,29.75 -5.4,29.73 -5.37,29.7 -5.34,29.68 -5.3,29.66 -5.27,29.63 -5.23,29.61 -5.2,29.59 -5.16,29.56 -5.13,29.54 -5.1,29.51 -5.06,29.49 -5.03,29.47 -4.99,29.44 -4.96,29.42 -4.92,29.39 -4.89,29.37 -4.85,29.34 -4.82,29.32 -4.79,29.29 -4.75,29.27 -4.72,29.24 -4.68,29.21 -4.65,29.19 -4.61,29.16 -4.58,29.14 -4.55,29.11 -4.51,29.08 -4.48,29.06 -4.44,29.03 -4.41,29 -4.37,28.98 -4.34,28.95 -4.31,28.92 -4.27,28.9 -4.24,28.87 -4.2,28.84 -4.17,28.81 -4.13,28.79 -4.1,28.76 -4.07,28.73 -4.03,28.7 -4,28.67 -3.96,28.64 -3.93,28.62 -3.89,28.59 -3.86,28.56 -3.83,28.53 -3.79,28.5 -3.76,28.47 -3.72,28.44 -3.69,28.41 -3.65,28.38 -3.62,28.35 -3.59,28.32 -3.55,28.29 -3.52,28.26 -3.48,28.23 -3.45,28.2 -3.41,28.17 -3.38,28.14 -3.35,28.11 -3.31,28.08 -3.28,28.05 -3.24,28.02 -3.21,27.98 -3.17,27.95 -3.14,27.92 -3.11,27.89 -3.07,27.86 -3.04,27.82 -3,27.79 -2.97,27.76 -2.93,27.73 -2.9,27.7 -2.86,27.66 -2.83,27.63 -2.8,27.6 -2.76,27.56 -2.73,27.53 -2.69,27.5 -2.66,27.46 -2.62,27.43 -2.59,27.4 -2.56,27.36 -2.52,27.33 -2.49,27.29 -2.45,27.26 -2.42,27.23 -2.38,27.19 -2.35,27.16 -2.32,27.12 -2.28,27.09 -2.25,27.05 -2.21,27.02 -2.18,26.98 -2.14,26.95 -2.11,26.91 -2.08,26.87 -2.04,26.84 -2.01,26.8 -1.97,26.77 -1.94,26.73 -1.9,26.69 -1.87,26.66 -1.84,26.62 -1.8,26.58 -1.77,26.55 -1.73,26.51 -1.7,26.47 -1.66,26.44 -1.63,26.4 -1.6,26.36 -1.56,26.32 -1.53,26.29 -1.49,26.25 -1.46,26.21 -1.42,26.17 -1.39,26.13 -1.36,26.1 -1.32,26.06 -1.29,26.02 -1.25,25.98 -1.22,25.94 -1.18,25.9 -1.15,25.86 -1.12,25.82 -1.08,25.79 -1.05,25.75 -1.01,25.71 -0.98,25.67 -0.94,25.63 -0.91,25.59 -0.87,25.55 -0.84,25.51 -0.81,25.47 -0.77,25.43 -0.74,25.39 -0.7,25.35 -0.67,25.3 -0.63,25.26 -0.6,25.22 -0.57,25.18 -0.53,25.14 -0.5,25.1 -0.46,25.06 -0.43,25.02 -0.39,24.97 -0.36,24.93 -0.33,24.89 -0.29,24.85 -0.26,24.81 -0.22,24.76 -0.19,24.72 -0.15,24.68 -0.12,24.64 -0.09,24.59 -0.05,24.55 -0.02,24.51 0.02,24.46 0.05,24.42 0.09,24.38 0.12,24.33 0.15,24.29 0.19,24.25 0.22,24.2 0.26,24.16 0.29,24.12 0.33,24.07 0.36,24.03 0.39,23.98 0.43,23.94 0.46,23.89 0.5,23.85 0.53,23.8 0.57,23.76 0.6,23.71 0.63,23.67 0.67,23.62 0.7,23.58 0.74,23.53 0.77,23.49 0.81,23.44 0.84,23.39 0.87,23.35 0.91,23.3 0.94,23.26 0.98,23.21 1.01,23.16 1.05,23.12 1.08,23.07 1.12,23.02 1.15,22.98 1.18,22.93 1.22,22.88 1.25,22.84 1.29,22.79 1.32,22.74 1.36,22.69 1.39,22.64 1.42,22.6 1.46,22.55 1.49,22.5 1.53,22.45 1.56,22.4 1.6,22.36 1.63,22.31 1.66,22.26 1.7,22.21 1.73,22.16 1.77,22.11 1.8,22.06 1.84,22.01 1.87,21.97 1.9,21.92 1.94,21.87 1.97,21.82 2.01,21.77 2.04,21.72 2.08,21.67 2.11,21.62 2.14,21.57 2.18,21.52 2.21,21.47 2.25,21.42 2.28,21.37 2.32,21.32 2.35,21.26 2.38,21.21 2.42,21.16 2.45,21.11 2.49,21.06 2.52,21.01 2.56,20.96 2.59,20.91 2.62,20.85 2.66,20.8 2.69,20.75 2.73,20.7 2.76,20.65 2.8,20.6 2.83,20.54 2.86,20.49 2.9,20.44 2.93,20.39 2.97,20.33 3,20.28 3.04,20.23 3.07,20.17 3.11,20.12 3.14,20.07 3.17,20.02 3.21,19.96 3.24,19.91 3.28,19.85 3.31,19.8 3.35,19.75 3.38,19.69 3.41,19.64 3.45,19.59 3.48,19.53 3.52,19.48 3.55,19.42 3.59,19.37 3.62,19.31 3.65,19.26 3.69,19.2 3.72,19.15 3.76,19.09 3.79,19.04 3.83,18.98 3.86,18.93 3.89,18.87 3.93,18.82 3.96,18.76 4,18.71 4.03,18.65 4.07,18.6 4.1,18.54 4.13,18.48 4.17,18.43 4.2,18.37 4.24,18.32 4.27,18.26 4.31,18.2 4.34,18.15 4.37,18.09 4.41,18.03 4.44,17.98 4.48,17.92 4.51,17.86 4.55,17.8 4.58,17.75 4.61,17.69 4.65,17.63 4.68,17.57 4.72,17.52 4.75,17.46 4.79,17.4 4.82,17.34 4.85,17.29 4.89,17.23 4.92,17.17 4.96,17.11 4.99,17.05 5.03,16.99 5.06,16.94 5.1,16.88 5.13,16.82 5.16,16.76 5.2,16.7 5.23,16.64 5.27,16.58 5.3,16.52 5.34,16.46 5.37,16.4 5.4,16.35 5.44,16.29 5.47,16.23 5.51,16.17 5.54,16.11 5.58,16.05 5.61,15.99 5.64,15.93 5.68,15.87 5.71,15.81 5.75,15.75 5.78,15.69 5.82,15.62 5.85,15.56 5.88,15.5 5.92,15.44 5.95,15.38 5.99,15.32 6.02,15.26 6.06,15.2 6.09,15.14 6.12,15.08 6.16,15.02 6.19,14.95 6.23,14.89 6.26,14.83 6.3,14.77 6.33,14.71 6.36,14.65 6.4,14.58 6.43,14.52 6.47,14.46 6.5,14.4 6.54,14.33 6.57,14.27 6.6,14.21 6.64,14.15 6.67,14.08 6.71,14.02 6.74,13.96 6.78,13.9 6.81,13.83 6.84,13.77 6.88,13.71 6.91,13.64 6.95,13.58 6.98,13.52 7.02,13.45 7.05,13.39 7.09,13.33 7.12,13.26 7.15,13.2 7.19,13.14 7.22,13.07 7.26,13.01 7.29,12.94 7.33,12.88 7.36,12.82 7.39,12.75 7.43,12.69 7.46,12.62 7.5,12.56 7.53,12.49 7.57,12.43 7.6,12.36 7.63,12.3 7.67,12.23 7.7,12.17 7.74,12.1 7.77,12.04 7.81,11.97 7.84,11.91 7.87,11.84 7.91,11.78 7.94,11.71 7.98,11.65 8.01,11.58 8.05,11.52 8.08,11.45 8.11,11.38 8.15,11.32 8.18,11.25 8.22,11.19 8.25,11.12 8.29,11.05 8.32,10.99 8.35,10.92 8.39,10.86 8.42,10.79 8.46,10.72 8.49,10.66 8.53,10.59 8.56,10.52 8.59,10.46 8.63,10.39 8.66,10.32 8.7,10.25 8.73,10.19 8.77,10.12 8.8,10.05 8.83,9.99 8.87,9.92 8.9,9.85 8.94,9.78 8.97,9.72 9.01,9.65 9.04,9.58 9.08,9.51 9.11,9.44 9.14,9.38 9.18,9.31 9.21,9.24 9.25,9.17 9.28,9.1 9.32,9.04 9.35,8.97 9.38,8.9 9.42,8.83 9.45,8.76 9.49,8.69 9.52,8.63 9.56,8.56 9.59,8.49 9.62,8.42 9.66,8.35 9.69,8.28 9.73,8.21 9.76,8.14 9.8,8.07 9.83,8.01 9.86,7.94 9.9,7.87 9.93,7.8 9.97,7.73 10,7.66 10.04,7.59 10.07,7.52 10.1,7.45 10.14,7.38 10.17,7.31 10.21,7.24 10.24,7.17 10.28,7.1 10.31,7.03 10.34,6.96 10.38,6.89 10.41,6.82 10.45,6.75 10.48,6.68 10.52,6.61 10.55,6.54 10.58,6.47 10.62,6.4 10.65,6.33 10.69,6.26 10.72,6.19 10.76,6.12 10.79,6.04 10.82,5.97 10.86,5.9 10.89,5.83 10.93,5.76 10.96,5.69 11,5.62 11.03,5.55 11.07,5.48 11.1,5.4 11.13,5.33 11.17,5.26 11.2,5.19 11.24,5.12 11.27,5.05 11.31,4.98 11.34,4.9 11.37,4.83 11.41,4.76 11.44,4.69 11.48,4.62 11.51,4.55 11.55,4.47 11.58,4.4 11.61,4.33 11.65,4.26 11.68,4.18 11.72,4.11 11.75,4.04 11.79,3.97 11.82,3.9 11.85,3.82 11.89,3.75 11.92,3.68 11.96,3.61 11.99,3.53 12.03,3.46 12.06,3.39 12.09,3.32 12.13,3.24 12.16,3.17 12.2,3.1 12.23,3.02 12.27,2.95 12.3,2.88 12.33,2.8 12.37,2.73 12.4,2.66 12.44,2.59 12.47,2.51 12.51,2.44 12.54,2.37 12.57,2.29 12.61,2.22 12.64,2.15 12.68,2.07 12.71,2 12.75,1.92 12.78,1.85 12.81,1.78 12.85,1.7 12.88,1.63 12.92,1.56 12.95,1.48 12.99,1.41 13.02,1.33 13.06,1.26 13.09,1.19 13.12,1.11 13.16,1.04 13.19,0.96 13.23,0.89 13.26,0.82 13.3,0.74 13.33,0.67 13.36,0.59 13.4,0.52 13.43,0.44 13.47,0.37 13.5,0.3 13.54,0.22 13.57,0.15 13.6,0.07 13.64,-0 13.67,-0.08 13.71,-0.15 13.74,-0.23 13.78,-0.3 13.81,-0.38 13.84,-0.45 13.88,-0.53 13.91,-0.6 13.95,-0.67 13.98,-0.75 14.02,-0.82 14.05,-0.9 14.08,-0.97 14.12,-1.05 14.15,-1.13 14.19,-1.2 14.22,-1.28 14.26,-1.35 14.29,-1.43 14.32,-1.5 14.36,-1.58 14.39,-1.65 14.43,-1.73 14.46,-1.8 14.5,-1.88 14.53,-1.95 14.56,-2.03 14.6,-2.1 14.63,-2.18 14.67,-2.26 14.7,-2.33 14.74,-2.41 14.77,-2.48 14.8,-2.56 14.84,-2.63 14.87,-2.71 14.91,-2.78 14.94,-2.86 14.98,-2.94 15.01,-3.01 15.05,-3.09 15.08,-3.16 15.11,-3.24 15.15,-3.32 15.18,-3.39 15.22,-3.47 15.25,-3.54 15.29,-3.62 15.32,-3.7 15.35,-3.77 15.39,-3.85 15.42,-3.92 15.46,-4 15.49,-4.08 15.53,-4.15 15.56,-4.23 15.59,-4.31 15.63,-4.38 15.66,-4.46 15.7,-4.53 15.73,-4.61 15.77,-4.69 15.8,-4.76 15.83,-4.84 15.87,-4.92 15.9,-4.99 15.94,-5.07 15.97,-5.15 16.01,-5.22 16.04,-5.3 16.07,-5.37 16.11,-5.45 16.14,-5.53 16.18,-5.6 16.21,-5.68 16.25,-5.76 16.28,-5.83 16.31,-5.91 16.35,-5.99 16.38,-6.06 16.42,-6.14 16.45,-6.22 16.49,-6.29 16.52,-6.37 16.55,-6.45 16.59,-6.53 16.62,-6.6 16.66,-6.68 16.69,-6.76 16.73,-6.83 16.76,-6.91 16.79,-6.99 16.83,-7.06 16.86,-7.14 16.9,-7.22 16.93,-7.29 16.97,-7.37 17,-7.45 17.04,-7.53 17.07,-7.6 17.1,-7.68 17.14,-7.76 17.17,-7.83 17.21,-7.91 17.24,-7.99 17.28,-8.06 17.31,-8.14 17.34,-8.22 17.38,-8.3 17.41,-8.37 17.45,-8.45 17.48,-8.53 17.52,-8.6 17.55,-8.68 17.58,-8.76 17.62,-8.84 17.65,-8.91 17.69,-8.99 17.72,-9.07 17.76,-9.14 17.79,-9.22 17.82,-9.3 17.86,-9.38 17.89,-9.45 17.93,-9.53 17.96,-9.61 18,-9.69 18.03,-9.76 18.06,-9.84 18.1,-9.92 18.13,-9.99 18.17,-10.07 18.2,-10.15 18.24,-10.23 18.27,-10.3 18.3,-10.38 18.34,-10.46 18.37,-10.54 18.41,-10.61 18.44,-10.69 18.48,-10.77 18.51,-10.85 18.54,-10.92 18.58,-11 18.61,-11.08 18.65,-11.15 18.68,-11.23 18.72,-11.31 18.75,-11.39 18.78,-11.46 18.82,-11.54 18.85,-11.62 18.89,-11.7 18.92,-11.77 18.96,-11.85 18.99,-11.93 19.03,-12.01 19.06,-12.08 19.09,-12.16 19.13,-12.24 19.16,-12.32 19.2,-12.39 19.23,-12.47 19.27,-12.55 19.3,-12.62 19.33,-12.7 19.37,-12.78 19.4,-12.86 19.44,-12.93 19.47,-13.01 19.51,-13.09 19.54,-13.17 19.57,-13.24 19.61,-13.32 19.64,-13.4 19.68,-13.48 19.71,-13.55 19.75,-13.63 19.78,-13.71 19.81,-13.79 19.85,-13.86 19.88,-13.94 19.92,-14.02 19.95,-14.09 19.99,-14.17 20.02,-14.25 20.05,-14.33 20.09,-14.4 20.12,-14.48 20.16,-14.56 20.19,-14.64 20.23,-14.71 20.26,-14.79 20.29,-14.87 20.33,-14.94 20.36,-15.02 20.4,-15.1 20.43,-15.18 20.47,-15.25 20.5,-15.33 20.53,-15.41 20.57,-15.48 20.6,-15.56 20.64,-15.64 20.67,-15.72 20.71,-15.79 20.74,-15.87 20.77,-15.95 20.81,-16.02 20.84,-16.1 20.88,-16.18 20.91,-16.26 20.95,-16.33 20.98,-16.41 21.01,-16.49 21.05,-16.56 21.08,-16.64 21.12,-16.72 21.15,-16.79 21.19,-16.87 21.22,-16.95 21.26,-17.02 21.29,-17.1 21.32,-17.18 21.36,-17.26 21.39,-17.33 21.43,-17.41 21.46,-17.49 21.5,-17.56 21.53,-17.64 21.56,-17.72 21.6,-17.79 21.63,-17.87 21.67,-17.95 21.7,-18.02 21.74,-18.1 21.77,-18.18 21.8,-18.25 21.84,-18.33 21.87,-18.41 21.91,-18.48 21.94,-18.56 21.98,-18.64 22.01,-18.71 22.04,-18.79 22.08,-18.87 22.11,-18.94 22.15,-19.02 22.18,-19.09 22.22,-19.17 22.25,-19.25 22.28,-19.32 22.32,-19.4 22.35,-19.48 22.39,-19.55 22.42,-19.63 22.46,-19.71 22.49,-19.78 22.52,-19.86 22.56,-19.93 22.59,-20.01 22.63,-20.09 22.66,-20.16 22.7,-20.24 22.73,-20.32 22.76,-20.39 22.8,-20.47 22.83,-20.54 22.87,-20.62 22.9,-20.7 22.94,-20.77 22.97,-20.85 23,-20.92 23.04,-21 23.07,-21.07 23.11,-21.15 23.14,-21.23 23.18,-21.3 23.21,-21.38 23.25,-21.45 23.28,-21.53 23.31,-21.6 23.35,-21.68 23.38,-21.76 23.42,-21.83 23.45,-21.91 23.49,-21.98 23.52,-22.06 23.55,-22.13 23.59,-22.21 23.62,-22.28 23.66,-22.36 23.69,-22.44 23.73,-22.51 23.76,-22.59 23.79,-22.66 23.83,-22.74 23.86,-22.81 23.9,-22.89 23.93,-22.96 23.97,-23.04 24,-23.11 24.03,-23.19 24.07,-23.26 24.1,-23.34 24.14,-23.41 24.17,-23.49 24.21,-23.56 24.24,-23.64 24.27,-23.71 24.31,-23.79 24.34,-23.86 24.38,-23.94 24.41,-24.01 24.45,-24.09 24.48,-24.16 24.51,-24.23 24.55,-24.31 24.58,-24.38 24.62,-24.46 24.65,-24.53 24.69,-24.61 24.72,-24.68 24.75,-24.76 24.79,-24.83 24.82,-24.9 24.86,-24.98 24.89,-25.05 24.93,-25.13 24.96,-25.2 24.99,-25.28 25.03,-25.35 25.06,-25.42 25.1,-25.5 25.13,-25.57 25.17,-25.65 25.2,-25.72 25.24,-25.79 25.27,-25.87 25.3,-25.94 25.34,-26.01 25.37,-26.09 25.41,-26.16 25.44,-26.24 25.48,-26.31 25.51,-26.38 25.54,-26.46 25.58,-26.53 25.61,-26.6 25.65,-26.68 25.68,-26.75 25.72,-26.82 25.75,-26.9 25.78,-26.97 25.82,-27.04 25.85,-27.12 25.89,-27.19 25.92,-27.26 25.96,-27.34 25.99,-27.41 26.02,-27.48 26.06,-27.55 26.09,-27.63 26.13,-27.7 26.16,-27.77 26.2,-27.85 26.23,-27.92 26.26,-27.99 26.3,-28.06 26.33,-28.14 26.37,-28.21 26.4,-28.28 26.44,-28.35 26.47,-28.43 26.5,-28.5 26.54,-28.57 26.57,-28.64 26.61,-28.72 26.64,-28.79 26.68,-28.86 26.71,-28.93 26.74,-29 26.78,-29.08 26.81,-29.15 26.85,-29.22 26.88,-29.29 26.92,-29.36 26.95,-29.43 26.98,-29.51 27.02,-29.58 27.05,-29.65 27.09,-29.72 27.12,-29.79 27.16,-29.86 27.19,-29.94 27.23,-30.01 27.26,-30.08 27.29,-30.15 27.33,-30.22 27.36,-30.29 27.4,-30.36 27.43,-30.43 27.47,-30.51 27.5,-30.58 27.53,-30.65 27.57,-30.72 27.6,-30.79 27.64,-30.86 27.67,-30.93 27.71,-31 27.74,-31.07 27.77,-31.14 27.81,-31.21 27.84,-31.28 27.88,-31.35 27.91,-31.42 27.95,-31.49 27.98,-31.56 28.01,-31.63 28.05,-31.7 28.08,-31.77 28.12,-31.84 28.15,-31.92 28.19,-31.98 28.22,-32.05 28.25,-32.12 28.29,-32.19 28.32,-32.26 28.36,-32.33 28.39,-32.4 28.43,-32.47 28.46,-32.54 28.49,-32.61 28.53,-32.68 28.56,-32.75 28.6,-32.82 28.63,-32.89 28.67,-32.96 28.7,-33.03 28.73,-33.1 28.77,-33.17 28.8,-33.23 28.84,-33.3 28.87,-33.37 28.91,-33.44 28.94,-33.51 28.97,-33.58 29.01,-33.65 29.04,-33.72 29.08,-33.78 29.11,-33.85 29.15,-33.92 29.18,-33.99 29.22,-34.06 29.25,-34.13 29.28,-34.19 29.32,-34.26 29.35,-34.33 29.39,-34.4 29.42,-34.47 29.46,-34.53 29.49,-34.6 29.52,-34.67 29.56,-34.74 29.59,-34.81 29.63,-34.87 29.66,-34.94 29.7,-35.01 29.73,-35.08 29.76,-35.14 29.8,-35.21 29.83,-35.28 29.87,-35.34 29.9,-35.41 29.94,-35.48 29.97,-35.55 30,-35.61 30.04,-35.68 30.07,-35.75 30.11,-35.81 30.14,-35.88 30.18,-35.95 30.21,-36.01 30.24,-36.08 30.28,-36.15 30.31,-36.21 30.35,-36.28 30.38,-36.34 30.42,-36.41 30.45,-36.48 30.48,-36.54 30.52,-36.61 30.55,-36.68 30.59,-36.74 30.62,-36.81 30.66,-36.87 30.69,-36.94 30.72,-37 30.76,-37.07 30.79,-37.14 30.83,-37.2 30.86,-37.27 30.9,-37.33 30.93,-37.4 30.96,-37.46 31,-37.53 31.03,-37.59 31.07,-37.66 31.1,-37.72 31.14,-37.79 31.17,-37.85 31.21,-37.92 31.24,-37.98 31.27,-38.05 31.31,-38.11 31.34,-38.17 31.38,-38.24 31.41,-38.3 31.45,-38.37 31.48,-38.43 31.51,-38.5 31.55,-38.56 31.58,-38.62 31.62,-38.69 31.65,-38.75 31.69,-38.81 31.72,-38.88 31.75,-38.94 31.79,-39.01 31.82,-39.07 31.86,-39.13 31.89,-39.2 31.93,-39.26 31.96,-39.32 31.99,-39.39 32.03,-39.45 32.06,-39.51 32.1,-39.57 32.13,-39.64 32.17,-39.7 32.2,-39.76 32.23,-39.83 32.27,-39.89 32.3,-39.95 32.34,-40.01 32.37,-40.08 32.41,-40.14 32.44,-40.2 32.47,-40.26 32.51,-40.32 32.54,-40.39 32.58,-40.45 32.61,-40.51 32.65,-40.57 32.68,-40.63 32.71,-40.7 32.75,-40.76 32.78,-40.82 32.82,-40.88 32.85,-40.94 32.89,-41 32.92,-41.06 32.95,-41.13 32.99,-41.19 33.02,-41.25 33.06,-41.31 33.09,-41.37 33.13,-41.43 33.16,-41.49 33.2,-41.55 33.23,-41.61 33.26,-41.67 33.3,-41.73 33.33,-41.79 33.37,-41.85 33.4,-41.91 33.44,-41.97 33.47,-42.03 33.5,-42.09 33.54,-42.15 33.57,-42.21 33.61,-42.27 33.64,-42.33 33.68,-42.39 33.71,-42.45 33.74,-42.51 33.78,-42.57 33.81,-42.63 33.85,-42.69 33.88,-42.75 33.92,-42.81 33.95,-42.87 33.98,-42.93 34.02,-42.99 34.05,-43.04 34.09,-43.1 34.12,-43.16 34.16,-43.22 34.19,-43.28 34.22,-43.34 34.26,-43.4 34.29,-43.45 34.33,-43.51 34.36,-43.57 34.4,-43.63 34.43,-43.69 34.46,-43.74 34.5,-43.8 34.53,-43.86 34.57,-43.92 34.6,-43.98 34.64,-44.03 34.67,-44.09 34.7,-44.15 34.74,-44.2 34.77,-44.26 34.81,-44.32 34.84,-44.38 34.88,-44.43 34.91,-44.49 34.94,-44.55 34.98,-44.6 35.01,-44.66 35.05,-44.72 35.08,-44.77 35.12,-44.83 35.15,-44.89 35.19,-44.94 35.22,-45 35.25,-45.05 35.29,-45.11 35.32,-45.17 35.36,-45.22 35.39,-45.28 35.43,-45.33 35.46,-45.39 35.49,-45.45 35.53,-45.5 35.56,-45.56 35.6,-45.61 35.63,-45.67 35.67,-45.72 35.7,-45.78 35.73,-45.83 35.77,-45.89 35.8,-45.94 35.84,-46 35.87,-46.05 35.91,-46.11 35.94,-46.16 35.97,-46.21 36.01,-46.27 36.04,-46.32 36.08,-46.38 36.11,-46.43 36.15,-46.49 36.18,-46.54 36.21,-46.59 36.25,-46.65 36.28,-46.7 36.32,-46.75 36.35,-46.81 36.39,-46.86 36.42,-46.91 36.45,-46.97 36.49,-47.02 36.52,-47.07 36.56,-47.13 36.59,-47.18 36.63,-47.23 36.66,-47.29 36.69,-47.34 36.73,-47.39 36.76,-47.44 36.8,-47.5 36.83,-47.55 36.87,-47.6 36.9,-47.65 36.93,-47.71 36.97,-47.76 37,-47.81 37.04,-47.86 37.07,-47.91 37.11,-47.96 37.14,-48.02 37.18,-48.07 37.21,-48.12 37.24,-48.17 37.28,-48.22 37.31,-48.27 37.35,-48.32 37.38,-48.38 37.42,-48.43 37.45,-48.48 37.48,-48.53 37.52,-48.58 37.55,-48.63 37.59,-48.68 37.62,-48.73 37.66,-48.78 37.69,-48.83 37.72,-48.88 37.76,-48.93 37.79,-48.98 37.83,-49.03 37.86,-49.08 37.9,-49.13 37.93,-49.18 37.96,-49.23 38,-49.28 38.03,-49.33 38.07,-49.38 38.1,-49.43 38.14,-49.48 38.17,-49.53 38.2,-49.58 38.24,-49.62 38.27,-49.67 38.31,-49.72 38.34,-49.77 38.38,-49.82 38.41,-49.87 38.44,-49.92 38.48,-49.96 38.51,-50.01 38.55,-50.06 38.58,-50.11 38.62,-50.16 38.65,-50.21 38.68,-50.25 38.72,-50.3 38.75,-50.35 38.79,-50.4 38.82,-50.44 38.86,-50.49 38.89,-50.54 38.92,-50.59 38.96,-50.63 38.99,-50.68 39.03,-50.73 39.06,-50.77 39.1,-50.82 39.13,-50.87 39.17,-50.91 39.2,-50.96 39.23,-51.01 39.27,-51.05 39.3,-51.1 39.34,-51.15 39.37,-51.19 39.41,-51.24 39.44,-51.28 39.47,-51.33 39.51,-51.37 39.54,-51.42 39.58,-51.47 39.61,-51.51 39.65,-51.56 39.68,-51.6 39.71,-51.65 39.75,-51.69 39.78,-51.74 39.82,-51.78 39.85,-51.83 39.89,-51.87 39.92,-51.92 39.95,-51.96 39.99,-52.01 40.02,-52.05 40.06,-52.1 40.09,-52.14 40.13,-52.18 40.16,-52.23 40.19,-52.27 40.23,-52.32 40.26,-52.36 40.3,-52.4 40.33,-52.45 40.37,-52.49 40.4,-52.53 40.43,-52.58 40.47,-52.62 40.5,-52.66 40.54,-52.71 40.57,-52.75 40.61,-52.79 40.64,-52.84 40.67,-52.88 40.71,-52.92 40.74,-52.96 40.78,-53.01 40.81,-53.05 40.85,-53.09 40.88,-53.13 40.91,-53.18 40.95,-53.22 40.98,-53.26 41.02,-53.3 41.05,-53.34 41.09,-53.39 41.12,-53.43 41.16,-53.47 41.19,-53.51 41.22,-53.55 41.26,-53.59 41.29,-53.63 41.33,-53.68 41.36,-53.72 41.4,-53.76 41.43,-53.8 41.46,-53.84 41.5,-53.88 41.53,-53.92 41.57,-53.96 41.6,-54 41.64,-54.04 41.67,-54.08 41.7,-54.12 41.74,-54.16 41.77,-54.2 41.81,-54.24 41.84,-54.28 41.88,-54.32 41.91,-54.36 41.94,-54.4 41.98,-54.44 42.01,-54.48 42.05,-54.52 42.08,-54.56 42.12,-54.6 42.15,-54.64 42.18,-54.67 42.22,-54.71 42.25,-54.75 42.29,-54.79 42.32,-54.83 42.36,-54.87 42.39,-54.91 42.42,-54.94 42.46,-54.98 42.49,-55.02 42.53,-55.06 42.56,-55.1 42.6,-55.14 42.63,-55.17 42.66,-55.21 42.7,-55.25 42.73,-55.29 42.77,-55.32 42.8,-55.36 42.84,-55.4 42.87,-55.43 " class="primitive"/>
            </g>
          </g>
        </g>
      </g>
    </g>
  </g>
  <g class="guide ylabels" font-size="2.82" font-family="'PT Sans Caption','Helvetica Neue','Helvetica',sans-serif" fill="#6C606B" id="img-9a6d0172-21">
    <g transform="translate(10.46,108.33)" id="img-9a6d0172-22">
      <g class="primitive">
        <text text-anchor="end" dy="0.35em">-10</text>
      </g>
    </g>
    <g transform="translate(10.46,57.66)" id="img-9a6d0172-23">
      <g class="primitive">
        <text text-anchor="end" dy="0.35em">-5</text>
      </g>
    </g>
    <g transform="translate(10.46,7)" id="img-9a6d0172-24">
      <g class="primitive">
        <text text-anchor="end" dy="0.35em">0</text>
      </g>
    </g>
  </g>
</g>
<defs>
  <clipPath id="img-9a6d0172-3">
    <path d="M11.46,5 L155,5 155,110.33 11.46,110.33 " />
  </clipPath>
</defs>
</svg>
