<?xml version="1.0" encoding="UTF-8"?>
<svg xmlns="http://www.w3.org/2000/svg"
     xmlns:xlink="http://www.w3.org/1999/xlink"
     xmlns:gadfly="http://www.gadflyjl.org/ns"
     version="1.2"
     width="160mm" height="120mm" viewBox="0 0 160 120"
     stroke="none"
     fill="#000000"
     stroke-width="0.3"
     font-size="3.88"
>
<defs>
  <marker id="arrow" markerWidth="15" markerHeight="7" refX="5" refY="3.5" orient="auto" markerUnits="strokeWidth">
    <path d="M0,0 L15,3.5 L0,7 z" stroke="context-stroke" fill="context-stroke"/>
  </marker>
</defs>
<g class="plotroot xscalable yscalable" id="img-e080973a-1">
  <g class="guide xlabels" font-size="2.82" font-family="'PT Sans Caption','Helvetica Neue','Helvetica',sans-serif" fill="#6C606B" id="img-e080973a-2">
    <g transform="translate(13.02,111.33)">
      <g class="primitive">
        <text text-anchor="middle" dy="0.6em">-1.0</text>
      </g>
    </g>
    <g transform="translate(59.68,111.33)">
      <g class="primitive">
        <text text-anchor="middle" dy="0.6em">-0.5</text>
      </g>
    </g>
    <g transform="translate(106.34,111.33)">
      <g class="primitive">
        <text text-anchor="middle" dy="0.6em">0.0</text>
      </g>
    </g>
    <g transform="translate(153,111.33)">
      <g class="primitive">
        <text text-anchor="middle" dy="0.6em">0.5</text>
      </g>
    </g>
  </g>
  <g clip-path="url(#img-e080973a-3)">
    <g id="img-e080973a-4">
      <g pointer-events="visible" stroke-width="0.3" fill="#000000" fill-opacity="0.000" stroke="#000000" stroke-opacity="0.000" class="guide background" id="img-e080973a-5">
        <g transform="translate(83.01,57.66)" id="img-e080973a-6">
          <path d="M-71.99,-52.66 L71.99,-52.66 71.99,52.66 -71.99,52.66  z" class="primitive"/>
        </g>
      </g>
      <g class="guide ygridlines xfixed" stroke-dasharray="0.5,0.5" stroke-width="0.2" stroke="#D0D0E0" id="img-e080973a-7">
        <g transform="translate(83.01,108.33)" id="img-e080973a-8">
          <path fill="none" d="M-71.99,0 L71.99,0 " class="primitive"/>
        </g>
        <g transform="translate(83.01,82.99)" id="img-e080973a-9">
          <path fill="none" d="M-71.99,0 L71.99,0 " class="primitive"/>
        </g>
        <g transform="translate(83.01,57.66)" id="img-e080973a-10">
          <path fill="none" d="M-71.99,0 L71.99,0 " class="primitive"/>
        </g>
        <g transform="translate(83.01,32.33)" id="img-e080973a-11">
          <path fill="none" d="M-71.99,0 L71.99,0 " class="primitive"/>
        </g>
        <g transform="translate(83.01,7)" id="img-e080973a-12">
          <path fill="none" d="M-71.99,0 L71.99,0 " class="primitive"/>
        </g>
      </g>
      <g class="guide xgridlines yfixed" stroke-dasharray="0.5,0.5" stroke-width="0.2" stroke="#D0D0E0" id="img-e080973a-13">
        <g transform="translate(13.02,57.66)" id="img-e080973a-14">
          <path fill="none" d="M0,-52.66 L0,52.66 " class="primitive"/>
        </g>
        <g transform="translate(59.68,57.66)" id="img-e080973a-15">
          <path fill="none" d="M0,-52.66 L0,52.66 " class="primitive"/>
        </g>
        <g transform="translate(106.34,57.66)" id="img-e080973a-16">
          <path fill="none" d="M0,-52.66 L0,52.66 " class="primitive"/>
        </g>
        <g transform="translate(153,57.66)" id="img-e080973a-17">
          <path fill="none" d="M0,-52.66 L0,52.66 " class="primitive"/>
        </g>
      </g>
      <g class="plotpanel" id="img-e080973a-18">
        <metadata>
          <boundingbox value="11.02000000000001mm 5.0mm 143.98mm 105.32666666666668mm"/>
          <unitbox value="-1.0214316330904416 2.039476281334298 1.5428632661808832 -2.0789525626685967"/>
        </metadata>
        <g stroke-width="0.3" fill="#000000" fill-opacity="0.000" class="geometry" id="img-e080973a-19">
          <g class="color_LCHab{Float32}(70.0f0,60.0f0,240.0f0)" stroke-dasharray="none" stroke="#00BFFF" id="img-e080973a-20">
            <g transform="translate(72.36,65.65)" id="img-e080973a-21">
              <path fill="none" d="M-58.3,26.9 L-58.25,26.81 -58.21,26.71 -58.16,26.62 -58.11,26.52 -58.07,26.43 -58.02,26.33 -57.97,26.24 -57.93,26.14 -57.88,26.05 -57.83,25.95 -57.79,25.85 -57.74,25.76 -57.69,25.66 -57.65,25.56 -57.6,25.47 -57.55,25.37 -57.51,25.27 -57.46,25.18 -57.41,25.08 -57.37,24.98 -57.32,24.88 -57.27,24.78 -57.23,24.69 -57.18,24.59 -57.13,24.49 -57.09,24.39 -57.04,24.29 -56.99,24.19 -56.95,24.09 -56.9,23.99 -56.85,23.89 -56.81,23.79 -56.76,23.69 -56.71,23.59 -56.67,23.49 -56.62,23.39 -56.57,23.29 -56.53,23.19 -56.48,23.09 -56.43,22.99 -56.39,22.89 -56.34,22.79 -56.29,22.69 -56.25,22.58 -56.2,22.48 -56.15,22.38 -56.11,22.28 -56.06,22.18 -56.01,22.07 -55.97,21.97 -55.92,21.87 -55.87,21.76 -55.83,21.66 -55.78,21.56 -55.73,21.45 -55.69,21.35 -55.64,21.25 -55.59,21.14 -55.55,21.04 -55.5,20.94 -55.45,20.83 -55.41,20.73 -55.36,20.62 -55.31,20.52 -55.27,20.41 -55.22,20.31 -55.17,20.2 -55.13,20.1 -55.08,19.99 -55.03,19.89 -54.99,19.78 -54.94,19.68 -54.89,19.57 -54.85,19.46 -54.8,19.36 -54.75,19.25 -54.71,19.15 -54.66,19.04 -54.61,18.93 -54.57,18.83 -54.52,18.72 -54.47,18.61 -54.43,18.51 -54.38,18.4 -54.33,18.29 -54.29,18.18 -54.24,18.08 -54.19,17.97 -54.15,17.86 -54.1,17.75 -54.05,17.65 -54.01,17.54 -53.96,17.43 -53.91,17.32 -53.87,17.21 -53.82,17.11 -53.77,17 -53.73,16.89 -53.68,16.78 -53.63,16.67 -53.59,16.56 -53.54,16.45 -53.49,16.34 -53.45,16.23 -53.4,16.13 -53.35,16.02 -53.31,15.91 -53.26,15.8 -53.21,15.69 -53.17,15.58 -53.12,15.47 -53.07,15.36 -53.03,15.25 -52.98,15.14 -52.93,15.03 -52.89,14.92 -52.84,14.81 -52.79,14.7 -52.75,14.59 -52.7,14.48 -52.65,14.36 -52.61,14.25 -52.56,14.14 -52.51,14.03 -52.47,13.92 -52.42,13.81 -52.37,13.7 -52.33,13.59 -52.28,13.48 -52.23,13.37 -52.19,13.25 -52.14,13.14 -52.09,13.03 -52.05,12.92 -52,12.81 -51.95,12.7 -51.91,12.58 -51.86,12.47 -51.81,12.36 -51.77,12.25 -51.72,12.14 -51.67,12.02 -51.63,11.91 -51.58,11.8 -51.53,11.69 -51.49,11.58 -51.44,11.46 -51.39,11.35 -51.35,11.24 -51.3,11.13 -51.25,11.01 -51.21,10.9 -51.16,10.79 -51.11,10.68 -51.07,10.56 -51.02,10.45 -50.97,10.34 -50.93,10.22 -50.88,10.11 -50.83,10 -50.79,9.89 -50.74,9.77 -50.69,9.66 -50.65,9.55 -50.6,9.43 -50.55,9.32 -50.51,9.21 -50.46,9.09 -50.41,8.98 -50.37,8.87 -50.32,8.75 -50.27,8.64 -50.23,8.53 -50.18,8.41 -50.13,8.3 -50.09,8.19 -50.04,8.07 -49.99,7.96 -49.95,7.85 -49.9,7.73 -49.85,7.62 -49.81,7.5 -49.76,7.39 -49.71,7.28 -49.67,7.16 -49.62,7.05 -49.57,6.94 -49.53,6.82 -49.48,6.71 -49.43,6.59 -49.39,6.48 -49.34,6.37 -49.29,6.25 -49.25,6.14 -49.2,6.03 -49.15,5.91 -49.11,5.8 -49.06,5.68 -49.01,5.57 -48.97,5.46 -48.92,5.34 -48.87,5.23 -48.83,5.12 -48.78,5 -48.73,4.89 -48.69,4.77 -48.64,4.66 -48.59,4.55 -48.55,4.43 -48.5,4.32 -48.45,4.21 -48.41,4.09 -48.36,3.98 -48.31,3.86 -48.27,3.75 -48.22,3.64 -48.17,3.52 -48.13,3.41 -48.08,3.3 -48.03,3.18 -47.99,3.07 -47.94,2.95 -47.89,2.84 -47.85,2.73 -47.8,2.61 -47.75,2.5 -47.71,2.39 -47.66,2.27 -47.61,2.16 -47.57,2.05 -47.52,1.93 -47.48,1.82 -47.43,1.71 -47.38,1.59 -47.34,1.48 -47.29,1.37 -47.24,1.25 -47.2,1.14 -47.15,1.03 -47.1,0.91 -47.06,0.8 -47.01,0.69 -46.96,0.57 -46.92,0.46 -46.87,0.35 -46.82,0.23 -46.78,0.12 -46.73,0.01 -46.68,-0.1 -46.64,-0.22 -46.59,-0.33 -46.54,-0.44 -46.5,-0.56 -46.45,-0.67 -46.4,-0.78 -46.36,-0.89 -46.31,-1.01 -46.26,-1.12 -46.22,-1.23 -46.17,-1.34 -46.12,-1.46 -46.08,-1.57 -46.03,-1.68 -45.98,-1.79 -45.94,-1.9 -45.89,-2.02 -45.84,-2.13 -45.8,-2.24 -45.75,-2.35 -45.7,-2.46 -45.66,-2.58 -45.61,-2.69 -45.56,-2.8 -45.52,-2.91 -45.47,-3.02 -45.42,-3.13 -45.38,-3.24 -45.33,-3.36 -45.28,-3.47 -45.24,-3.58 -45.19,-3.69 -45.14,-3.8 -45.1,-3.91 -45.05,-4.02 -45,-4.13 -44.96,-4.24 -44.91,-4.35 -44.86,-4.46 -44.82,-4.57 -44.77,-4.69 -44.72,-4.8 -44.68,-4.91 -44.63,-5.02 -44.58,-5.13 -44.54,-5.24 -44.49,-5.35 -44.44,-5.46 -44.4,-5.57 -44.35,-5.68 -44.3,-5.79 -44.26,-5.89 -44.21,-6 -44.16,-6.11 -44.12,-6.22 -44.07,-6.33 -44.02,-6.44 -43.98,-6.55 -43.93,-6.66 -43.88,-6.77 -43.84,-6.88 -43.79,-6.99 -43.74,-7.09 -43.7,-7.2 -43.65,-7.31 -43.6,-7.42 -43.56,-7.53 -43.51,-7.64 -43.46,-7.74 -43.42,-7.85 -43.37,-7.96 -43.32,-8.07 -43.28,-8.17 -43.23,-8.28 -43.18,-8.39 -43.14,-8.5 -43.09,-8.6 -43.04,-8.71 -43,-8.82 -42.95,-8.92 -42.9,-9.03 -42.86,-9.14 -42.81,-9.24 -42.76,-9.35 -42.72,-9.46 -42.67,-9.56 -42.62,-9.67 -42.58,-9.78 -42.53,-9.88 -42.48,-9.99 -42.44,-10.09 -42.39,-10.2 -42.34,-10.3 -42.3,-10.41 -42.25,-10.51 -42.2,-10.62 -42.16,-10.72 -42.11,-10.83 -42.06,-10.93 -42.02,-11.04 -41.97,-11.14 -41.92,-11.25 -41.88,-11.35 -41.83,-11.46 -41.78,-11.56 -41.74,-11.66 -41.69,-11.77 -41.64,-11.87 -41.6,-11.97 -41.55,-12.08 -41.5,-12.18 -41.46,-12.28 -41.41,-12.39 -41.36,-12.49 -41.32,-12.59 -41.27,-12.7 -41.22,-12.8 -41.18,-12.9 -41.13,-13 -41.08,-13.1 -41.04,-13.21 -40.99,-13.31 -40.94,-13.41 -40.9,-13.51 -40.85,-13.61 -40.8,-13.71 -40.76,-13.82 -40.71,-13.92 -40.66,-14.02 -40.62,-14.12 -40.57,-14.22 -40.52,-14.32 -40.48,-14.42 -40.43,-14.52 -40.38,-14.62 -40.34,-14.72 -40.29,-14.82 -40.24,-14.92 -40.2,-15.02 -40.15,-15.12 -40.1,-15.22 -40.06,-15.31 -40.01,-15.41 -39.96,-15.51 -39.92,-15.61 -39.87,-15.71 -39.82,-15.81 -39.78,-15.91 -39.73,-16 -39.68,-16.1 -39.64,-16.2 -39.59,-16.3 -39.54,-16.39 -39.5,-16.49 -39.45,-16.59 -39.4,-16.68 -39.36,-16.78 -39.31,-16.88 -39.26,-16.97 -39.22,-17.07 -39.17,-17.17 -39.12,-17.26 -39.08,-17.36 -39.03,-17.45 -38.98,-17.55 -38.94,-17.64 -38.89,-17.74 -38.84,-17.83 -38.8,-17.93 -38.75,-18.02 -38.7,-18.12 -38.66,-18.21 -38.61,-18.31 -38.56,-18.4 -38.52,-18.49 -38.47,-18.59 -38.42,-18.68 -38.38,-18.77 -38.33,-18.87 -38.28,-18.96 -38.24,-19.05 -38.19,-19.14 -38.14,-19.24 -38.1,-19.33 -38.05,-19.42 -38,-19.51 -37.96,-19.6 -37.91,-19.7 -37.86,-19.79 -37.82,-19.88 -37.77,-19.97 -37.72,-20.06 -37.68,-20.15 -37.63,-20.24 -37.58,-20.33 -37.54,-20.42 -37.49,-20.51 -37.44,-20.6 -37.4,-20.69 -37.35,-20.78 -37.3,-20.87 -37.26,-20.96 -37.21,-21.05 -37.16,-21.13 -37.12,-21.22 -37.07,-21.31 -37.02,-21.4 -36.98,-21.49 -36.93,-21.58 -36.88,-21.66 -36.84,-21.75 -36.79,-21.84 -36.74,-21.92 -36.7,-22.01 -36.65,-22.1 -36.6,-22.18 -36.56,-22.27 -36.51,-22.36 -36.46,-22.44 -36.42,-22.53 -36.37,-22.61 -36.32,-22.7 -36.28,-22.78 -36.23,-22.87 -36.18,-22.95 -36.14,-23.04 -36.09,-23.12 -36.04,-23.2 -36,-23.29 -35.95,-23.37 -35.9,-23.46 -35.86,-23.54 -35.81,-23.62 -35.76,-23.7 -35.72,-23.79 -35.67,-23.87 -35.62,-23.95 -35.58,-24.03 -35.53,-24.12 -35.48,-24.2 -35.44,-24.28 -35.39,-24.36 -35.34,-24.44 -35.3,-24.52 -35.25,-24.6 -35.2,-24.68 -35.16,-24.76 -35.11,-24.84 -35.06,-24.92 -35.02,-25 -34.97,-25.08 -34.92,-25.16 -34.88,-25.24 -34.83,-25.32 -34.78,-25.4 -34.74,-25.48 -34.69,-25.56 -34.64,-25.63 -34.6,-25.71 -34.55,-25.79 -34.5,-25.87 -34.46,-25.94 -34.41,-26.02 -34.36,-26.1 -34.32,-26.17 -34.27,-26.25 -34.22,-26.33 -34.18,-26.4 -34.13,-26.48 -34.08,-26.55 -34.04,-26.63 -33.99,-26.7 -33.94,-26.78 -33.9,-26.85 -33.85,-26.93 -33.8,-27 -33.76,-27.07 -33.71,-27.15 -33.66,-27.22 -33.62,-27.3 -33.57,-27.37 -33.52,-27.44 -33.48,-27.51 -33.43,-27.59 -33.38,-27.66 -33.34,-27.73 -33.29,-27.8 -33.24,-27.87 -33.2,-27.95 -33.15,-28.02 -33.1,-28.09 -33.06,-28.16 -33.01,-28.23 -32.96,-28.3 -32.92,-28.37 -32.87,-28.44 -32.82,-28.51 -32.78,-28.58 -32.73,-28.65 -32.68,-28.72 -32.64,-28.78 -32.59,-28.85 -32.54,-28.92 -32.5,-28.99 -32.45,-29.06 -32.4,-29.12 -32.36,-29.19 -32.31,-29.26 -32.26,-29.33 -32.22,-29.39 -32.17,-29.46 -32.12,-29.52 -32.08,-29.59 -32.03,-29.66 -31.98,-29.72 -31.94,-29.79 -31.89,-29.85 -31.84,-29.92 -31.8,-29.98 -31.75,-30.05 -31.7,-30.11 -31.66,-30.17 -31.61,-30.24 -31.56,-30.3 -31.52,-30.36 -31.47,-30.43 -31.42,-30.49 -31.38,-30.55 -31.33,-30.62 -31.28,-30.68 -31.24,-30.74 -31.19,-30.8 -31.14,-30.86 -31.1,-30.92 -31.05,-30.98 -31,-31.05 -30.96,-31.11 -30.91,-31.17 -30.86,-31.23 -30.82,-31.29 -30.77,-31.35 -30.72,-31.4 -30.68,-31.46 -30.63,-31.52 -30.58,-31.58 -30.54,-31.64 -30.49,-31.7 -30.44,-31.76 -30.4,-31.81 -30.35,-31.87 -30.3,-31.93 -30.26,-31.98 -30.21,-32.04 -30.16,-32.1 -30.12,-32.15 -30.07,-32.21 -30.02,-32.27 -29.98,-32.32 -29.93,-32.38 -29.88,-32.43 -29.84,-32.49 -29.79,-32.54 -29.74,-32.59 -29.7,-32.65 -29.65,-32.7 -29.6,-32.76 -29.56,-32.81 -29.51,-32.86 -29.46,-32.92 -29.42,-32.97 -29.37,-33.02 -29.32,-33.07 -29.28,-33.12 -29.23,-33.18 -29.18,-33.23 -29.14,-33.28 -29.09,-33.33 -29.04,-33.38 -29,-33.43 -28.95,-33.48 -28.9,-33.53 -28.86,-33.58 -28.81,-33.63 -28.76,-33.68 -28.72,-33.73 -28.67,-33.78 -28.62,-33.83 -28.58,-33.87 -28.53,-33.92 -28.49,-33.97 -28.44,-34.02 -28.39,-34.06 -28.35,-34.11 -28.3,-34.16 -28.25,-34.2 -28.21,-34.25 -28.16,-34.3 -28.11,-34.34 -28.07,-34.39 -28.02,-34.43 -27.97,-34.48 -27.93,-34.52 -27.88,-34.57 -27.83,-34.61 -27.79,-34.66 -27.74,-34.7 -27.69,-34.74 -27.65,-34.79 -27.6,-34.83 -27.55,-34.87 -27.51,-34.92 -27.46,-34.96 -27.41,-35 -27.37,-35.04 -27.32,-35.08 -27.27,-35.13 -27.23,-35.17 -27.18,-35.21 -27.13,-35.25 -27.09,-35.29 -27.04,-35.33 -26.99,-35.37 -26.95,-35.41 -26.9,-35.45 -26.85,-35.49 -26.81,-35.53 -26.76,-35.57 -26.71,-35.6 -26.67,-35.64 -26.62,-35.68 -26.57,-35.72 -26.53,-35.75 -26.48,-35.79 -26.43,-35.83 -26.39,-35.87 -26.34,-35.9 -26.29,-35.94 -26.25,-35.97 -26.2,-36.01 -26.15,-36.05 -26.11,-36.08 -26.06,-36.12 -26.01,-36.15 -25.97,-36.18 -25.92,-36.22 -25.87,-36.25 -25.83,-36.29 -25.78,-36.32 -25.73,-36.35 -25.69,-36.39 -25.64,-36.42 -25.59,-36.45 -25.55,-36.48 -25.5,-36.52 -25.45,-36.55 -25.41,-36.58 -25.36,-36.61 -25.31,-36.64 -25.27,-36.67 -25.22,-36.7 -25.17,-36.73 -25.13,-36.76 -25.08,-36.79 -25.03,-36.82 -24.99,-36.85 -24.94,-36.88 -24.89,-36.91 -24.85,-36.94 -24.8,-36.97 -24.75,-36.99 -24.71,-37.02 -24.66,-37.05 -24.61,-37.08 -24.57,-37.1 -24.52,-37.13 -24.47,-37.16 -24.43,-37.18 -24.38,-37.21 -24.33,-37.23 -24.29,-37.26 -24.24,-37.29 -24.19,-37.31 -24.15,-37.33 -24.1,-37.36 -24.05,-37.38 -24.01,-37.41 -23.96,-37.43 -23.91,-37.45 -23.87,-37.48 -23.82,-37.5 -23.77,-37.52 -23.73,-37.55 -23.68,-37.57 -23.63,-37.59 -23.59,-37.61 -23.54,-37.63 -23.49,-37.66 -23.45,-37.68 -23.4,-37.7 -23.35,-37.72 -23.31,-37.74 -23.26,-37.76 -23.21,-37.78 -23.17,-37.8 -23.12,-37.82 -23.07,-37.84 -23.03,-37.85 -22.98,-37.87 -22.93,-37.89 -22.89,-37.91 -22.84,-37.93 -22.79,-37.94 -22.75,-37.96 -22.7,-37.98 -22.65,-38 -22.61,-38.01 -22.56,-38.03 -22.51,-38.04 -22.47,-38.06 -22.42,-38.08 -22.37,-38.09 -22.33,-38.11 -22.28,-38.12 -22.23,-38.14 -22.19,-38.15 -22.14,-38.16 -22.09,-38.18 -22.05,-38.19 -22,-38.21 -21.95,-38.22 -21.91,-38.23 -21.86,-38.24 -21.81,-38.26 -21.77,-38.27 -21.72,-38.28 -21.67,-38.29 -21.63,-38.3 -21.58,-38.31 -21.53,-38.33 -21.49,-38.34 -21.44,-38.35 -21.39,-38.36 -21.35,-38.37 -21.3,-38.38 -21.25,-38.39 -21.21,-38.39 -21.16,-38.4 -21.11,-38.41 -21.07,-38.42 -21.02,-38.43 -20.97,-38.44 -20.93,-38.44 -20.88,-38.45 -20.83,-38.46 -20.79,-38.47 -20.74,-38.47 -20.69,-38.48 -20.65,-38.49 -20.6,-38.49 -20.55,-38.5 -20.51,-38.5 -20.46,-38.51 -20.41,-38.51 -20.37,-38.52 -20.32,-38.52 -20.27,-38.53 -20.23,-38.53 -20.18,-38.54 -20.13,-38.54 -20.09,-38.54 -20.04,-38.55 -19.99,-38.55 -19.95,-38.55 -19.9,-38.55 -19.85,-38.56 -19.81,-38.56 -19.76,-38.56 -19.71,-38.56 -19.67,-38.56 -19.62,-38.56 -19.57,-38.56 -19.53,-38.56 -19.48,-38.56 -19.43,-38.56 -19.39,-38.56 -19.34,-38.56 -19.29,-38.56 -19.25,-38.56 -19.2,-38.56 -19.15,-38.56 -19.11,-38.56 -19.06,-38.56 -19.01,-38.55 -18.97,-38.55 -18.92,-38.55 -18.87,-38.55 -18.83,-38.54 -18.78,-38.54 -18.73,-38.54 -18.69,-38.53 -18.64,-38.53 -18.59,-38.52 -18.55,-38.52 -18.5,-38.51 -18.45,-38.51 -18.41,-38.5 -18.36,-38.5 -18.31,-38.49 -18.27,-38.49 -18.22,-38.48 -18.17,-38.48 -18.13,-38.47 -18.08,-38.46 -18.03,-38.45 -17.99,-38.45 -17.94,-38.44 -17.89,-38.43 -17.85,-38.42 -17.8,-38.42 -17.75,-38.41 -17.71,-38.4 -17.66,-38.39 -17.61,-38.38 -17.57,-38.37 -17.52,-38.36 -17.47,-38.35 -17.43,-38.34 -17.38,-38.33 -17.33,-38.32 -17.29,-38.31 -17.24,-38.3 -17.19,-38.29 -17.15,-38.28 -17.1,-38.26 -17.05,-38.25 -17.01,-38.24 -16.96,-38.23 -16.91,-38.22 -16.87,-38.2 -16.82,-38.19 -16.77,-38.18 -16.73,-38.16 -16.68,-38.15 -16.63,-38.14 -16.59,-38.12 -16.54,-38.11 -16.49,-38.09 -16.45,-38.08 -16.4,-38.06 -16.35,-38.05 -16.31,-38.03 -16.26,-38.02 -16.21,-38 -16.17,-37.98 -16.12,-37.97 -16.07,-37.95 -16.03,-37.93 -15.98,-37.92 -15.93,-37.9 -15.89,-37.88 -15.84,-37.86 -15.79,-37.85 -15.75,-37.83 -15.7,-37.81 -15.65,-37.79 -15.61,-37.77 -15.56,-37.75 -15.51,-37.73 -15.47,-37.71 -15.42,-37.69 -15.37,-37.67 -15.33,-37.65 -15.28,-37.63 -15.23,-37.61 -15.19,-37.59 -15.14,-37.57 -15.09,-37.55 -15.05,-37.53 -15,-37.51 -14.95,-37.49 -14.91,-37.46 -14.86,-37.44 -14.81,-37.42 -14.77,-37.4 -14.72,-37.37 -14.67,-37.35 -14.63,-37.33 -14.58,-37.3 -14.53,-37.28 -14.49,-37.25 -14.44,-37.23 -14.39,-37.21 -14.35,-37.18 -14.3,-37.16 -14.25,-37.13 -14.21,-37.11 -14.16,-37.08 -14.11,-37.05 -14.07,-37.03 -14.02,-37 -13.97,-36.98 -13.93,-36.95 -13.88,-36.92 -13.83,-36.9 -13.79,-36.87 -13.74,-36.84 -13.69,-36.81 -13.65,-36.79 -13.6,-36.76 -13.55,-36.73 -13.51,-36.7 -13.46,-36.67 -13.41,-36.64 -13.37,-36.61 -13.32,-36.59 -13.27,-36.56 -13.23,-36.53 -13.18,-36.5 -13.13,-36.47 -13.09,-36.44 -13.04,-36.41 -12.99,-36.37 -12.95,-36.34 -12.9,-36.31 -12.85,-36.28 -12.81,-36.25 -12.76,-36.22 -12.71,-36.19 -12.67,-36.15 -12.62,-36.12 -12.57,-36.09 -12.53,-36.06 -12.48,-36.02 -12.43,-35.99 -12.39,-35.96 -12.34,-35.92 -12.29,-35.89 -12.25,-35.86 -12.2,-35.82 -12.15,-35.79 -12.11,-35.75 -12.06,-35.72 -12.01,-35.68 -11.97,-35.65 -11.92,-35.61 -11.87,-35.58 -11.83,-35.54 -11.78,-35.51 -11.73,-35.47 -11.69,-35.43 -11.64,-35.4 -11.59,-35.36 -11.55,-35.32 -11.5,-35.29 -11.45,-35.25 -11.41,-35.21 -11.36,-35.17 -11.31,-35.14 -11.27,-35.1 -11.22,-35.06 -11.17,-35.02 -11.13,-34.98 -11.08,-34.94 -11.03,-34.91 -10.99,-34.87 -10.94,-34.83 -10.89,-34.79 -10.85,-34.75 -10.8,-34.71 -10.75,-34.67 -10.71,-34.63 -10.66,-34.59 -10.61,-34.55 -10.57,-34.51 -10.52,-34.47 -10.47,-34.42 -10.43,-34.38 -10.38,-34.34 -10.33,-34.3 -10.29,-34.26 -10.24,-34.22 -10.19,-34.17 -10.15,-34.13 -10.1,-34.09 -10.05,-34.05 -10.01,-34 -9.96,-33.96 -9.91,-33.92 -9.87,-33.87 -9.82,-33.83 -9.77,-33.79 -9.73,-33.74 -9.68,-33.7 -9.63,-33.65 -9.59,-33.61 -9.54,-33.56 -9.5,-33.52 -9.45,-33.47 -9.4,-33.43 -9.36,-33.38 -9.31,-33.34 -9.26,-33.29 -9.22,-33.24 -9.17,-33.2 -9.12,-33.15 -9.08,-33.11 -9.03,-33.06 -8.98,-33.01 -8.94,-32.97 -8.89,-32.92 -8.84,-32.87 -8.8,-32.82 -8.75,-32.78 -8.7,-32.73 -8.66,-32.68 -8.61,-32.63 -8.56,-32.58 -8.52,-32.53 -8.47,-32.49 -8.42,-32.44 -8.38,-32.39 -8.33,-32.34 -8.28,-32.29 -8.24,-32.24 -8.19,-32.19 -8.14,-32.14 -8.1,-32.09 -8.05,-32.04 -8,-31.99 -7.96,-31.94 -7.91,-31.89 -7.86,-31.84 -7.82,-31.79 -7.77,-31.73 -7.72,-31.68 -7.68,-31.63 -7.63,-31.58 -7.58,-31.53 -7.54,-31.48 -7.49,-31.42 -7.44,-31.37 -7.4,-31.32 -7.35,-31.27 -7.3,-31.21 -7.26,-31.16 -7.21,-31.11 -7.16,-31.05 -7.12,-31 -7.07,-30.95 -7.02,-30.89 -6.98,-30.84 -6.93,-30.79 -6.88,-30.73 -6.84,-30.68 -6.79,-30.62 -6.74,-30.57 -6.7,-30.51 -6.65,-30.46 -6.6,-30.4 -6.56,-30.35 -6.51,-30.29 -6.46,-30.24 -6.42,-30.18 -6.37,-30.13 -6.32,-30.07 -6.28,-30.01 -6.23,-29.96 -6.18,-29.9 -6.14,-29.84 -6.09,-29.79 -6.04,-29.73 -6,-29.67 -5.95,-29.62 -5.9,-29.56 -5.86,-29.5 -5.81,-29.44 -5.76,-29.39 -5.72,-29.33 -5.67,-29.27 -5.62,-29.21 -5.58,-29.15 -5.53,-29.1 -5.48,-29.04 -5.44,-28.98 -5.39,-28.92 -5.34,-28.86 -5.3,-28.8 -5.25,-28.74 -5.2,-28.68 -5.16,-28.62 -5.11,-28.56 -5.06,-28.5 -5.02,-28.44 -4.97,-28.38 -4.92,-28.32 -4.88,-28.26 -4.83,-28.2 -4.78,-28.14 -4.74,-28.08 -4.69,-28.02 -4.64,-27.96 -4.6,-27.9 -4.55,-27.84 -4.5,-27.77 -4.46,-27.71 -4.41,-27.65 -4.36,-27.59 -4.32,-27.53 -4.27,-27.47 -4.22,-27.4 -4.18,-27.34 -4.13,-27.28 -4.08,-27.22 -4.04,-27.15 -3.99,-27.09 -3.94,-27.03 -3.9,-26.96 -3.85,-26.9 -3.8,-26.84 -3.76,-26.77 -3.71,-26.71 -3.66,-26.65 -3.62,-26.58 -3.57,-26.52 -3.52,-26.45 -3.48,-26.39 -3.43,-26.33 -3.38,-26.26 -3.34,-26.2 -3.29,-26.13 -3.24,-26.07 -3.2,-26 -3.15,-25.94 -3.1,-25.87 -3.06,-25.81 -3.01,-25.74 -2.96,-25.68 -2.92,-25.61 -2.87,-25.54 -2.82,-25.48 -2.78,-25.41 -2.73,-25.35 -2.68,-25.28 -2.64,-25.21 -2.59,-25.15 -2.54,-25.08 -2.5,-25.01 -2.45,-24.95 -2.4,-24.88 -2.36,-24.81 -2.31,-24.75 -2.26,-24.68 -2.22,-24.61 -2.17,-24.54 -2.12,-24.48 -2.08,-24.41 -2.03,-24.34 -1.98,-24.27 -1.94,-24.2 -1.89,-24.14 -1.84,-24.07 -1.8,-24 -1.75,-23.93 -1.7,-23.86 -1.66,-23.79 -1.61,-23.72 -1.56,-23.66 -1.52,-23.59 -1.47,-23.52 -1.42,-23.45 -1.38,-23.38 -1.33,-23.31 -1.28,-23.24 -1.24,-23.17 -1.19,-23.1 -1.14,-23.03 -1.1,-22.96 -1.05,-22.89 -1,-22.82 -0.96,-22.75 -0.91,-22.68 -0.86,-22.61 -0.82,-22.54 -0.77,-22.47 -0.72,-22.4 -0.68,-22.33 -0.63,-22.26 -0.58,-22.18 -0.54,-22.11 -0.49,-22.04 -0.44,-21.97 -0.4,-21.9 -0.35,-21.83 -0.3,-21.76 -0.26,-21.69 -0.21,-21.61 -0.16,-21.54 -0.12,-21.47 -0.07,-21.4 -0.02,-21.33 0.02,-21.25 0.07,-21.18 0.12,-21.11 0.16,-21.04 0.21,-20.96 0.26,-20.89 0.3,-20.82 0.35,-20.75 0.4,-20.67 0.44,-20.6 0.49,-20.53 0.54,-20.45 0.58,-20.38 0.63,-20.31 0.68,-20.23 0.72,-20.16 0.77,-20.09 0.82,-20.01 0.86,-19.94 0.91,-19.87 0.96,-19.79 1,-19.72 1.05,-19.64 1.1,-19.57 1.14,-19.49 1.19,-19.42 1.24,-19.35 1.28,-19.27 1.33,-19.2 1.38,-19.12 1.42,-19.05 1.47,-18.97 1.52,-18.9 1.56,-18.82 1.61,-18.75 1.66,-18.67 1.7,-18.6 1.75,-18.52 1.8,-18.45 1.84,-18.37 1.89,-18.3 1.94,-18.22 1.98,-18.15 2.03,-18.07 2.08,-17.99 2.12,-17.92 2.17,-17.84 2.22,-17.77 2.26,-17.69 2.31,-17.62 2.36,-17.54 2.4,-17.46 2.45,-17.39 2.5,-17.31 2.54,-17.23 2.59,-17.16 2.64,-17.08 2.68,-17 2.73,-16.93 2.78,-16.85 2.82,-16.77 2.87,-16.7 2.92,-16.62 2.96,-16.54 3.01,-16.47 3.06,-16.39 3.1,-16.31 3.15,-16.24 3.2,-16.16 3.24,-16.08 3.29,-16 3.34,-15.93 3.38,-15.85 3.43,-15.77 3.48,-15.69 3.52,-15.62 3.57,-15.54 3.62,-15.46 3.66,-15.38 3.71,-15.3 3.76,-15.23 3.8,-15.15 3.85,-15.07 3.9,-14.99 3.94,-14.91 3.99,-14.84 4.04,-14.76 4.08,-14.68 4.13,-14.6 4.18,-14.52 4.22,-14.44 4.27,-14.37 4.32,-14.29 4.36,-14.21 4.41,-14.13 4.46,-14.05 4.5,-13.97 4.55,-13.89 4.6,-13.81 4.64,-13.74 4.69,-13.66 4.74,-13.58 4.78,-13.5 4.83,-13.42 4.88,-13.34 4.92,-13.26 4.97,-13.18 5.02,-13.1 5.06,-13.02 5.11,-12.94 5.16,-12.87 5.2,-12.79 5.25,-12.71 5.3,-12.63 5.34,-12.55 5.39,-12.47 5.44,-12.39 5.48,-12.31 5.53,-12.23 5.58,-12.15 5.62,-12.07 5.67,-11.99 5.72,-11.91 5.76,-11.83 5.81,-11.75 5.86,-11.67 5.9,-11.59 5.95,-11.51 6,-11.43 6.04,-11.35 6.09,-11.27 6.14,-11.19 6.18,-11.11 6.23,-11.03 6.28,-10.95 6.32,-10.87 6.37,-10.79 6.42,-10.71 6.46,-10.63 6.51,-10.55 6.56,-10.47 6.6,-10.39 6.65,-10.31 6.7,-10.23 6.74,-10.15 6.79,-10.06 6.84,-9.98 6.88,-9.9 6.93,-9.82 6.98,-9.74 7.02,-9.66 7.07,-9.58 7.12,-9.5 7.16,-9.42 7.21,-9.34 7.26,-9.26 7.3,-9.18 7.35,-9.1 7.4,-9.02 7.44,-8.93 7.49,-8.85 7.54,-8.77 7.58,-8.69 7.63,-8.61 7.68,-8.53 7.72,-8.45 7.77,-8.37 7.82,-8.29 7.86,-8.21 7.91,-8.12 7.96,-8.04 8,-7.96 8.05,-7.88 8.1,-7.8 8.14,-7.72 8.19,-7.64 8.24,-7.56 8.28,-7.48 8.33,-7.39 8.38,-7.31 8.42,-7.23 8.47,-7.15 8.52,-7.07 8.56,-6.99 8.61,-6.91 8.66,-6.83 8.7,-6.74 8.75,-6.66 8.8,-6.58 8.84,-6.5 8.89,-6.42 8.94,-6.34 8.98,-6.26 9.03,-6.17 9.08,-6.09 9.12,-6.01 9.17,-5.93 9.22,-5.85 9.26,-5.77 9.31,-5.69 9.36,-5.6 9.4,-5.52 9.45,-5.44 9.5,-5.36 9.54,-5.28 9.59,-5.2 9.63,-5.12 9.68,-5.03 9.73,-4.95 9.77,-4.87 9.82,-4.79 9.87,-4.71 9.91,-4.63 9.96,-4.55 10.01,-4.46 10.05,-4.38 10.1,-4.3 10.15,-4.22 10.19,-4.14 10.24,-4.06 10.29,-3.98 10.33,-3.89 10.38,-3.81 10.43,-3.73 10.47,-3.65 10.52,-3.57 10.57,-3.49 10.61,-3.41 10.66,-3.32 10.71,-3.24 10.75,-3.16 10.8,-3.08 10.85,-3 10.89,-2.92 10.94,-2.84 10.99,-2.75 11.03,-2.67 11.08,-2.59 11.13,-2.51 11.17,-2.43 11.22,-2.35 11.27,-2.27 11.31,-2.19 11.36,-2.1 11.41,-2.02 11.45,-1.94 11.5,-1.86 11.55,-1.78 11.59,-1.7 11.64,-1.62 11.69,-1.54 11.73,-1.45 11.78,-1.37 11.83,-1.29 11.87,-1.21 11.92,-1.13 11.97,-1.05 12.01,-0.97 12.06,-0.89 12.11,-0.81 12.15,-0.72 12.2,-0.64 12.25,-0.56 12.29,-0.48 12.34,-0.4 12.39,-0.32 12.43,-0.24 12.48,-0.16 12.53,-0.08 12.57,0 12.62,0.08 12.67,0.17 12.71,0.25 12.76,0.33 12.81,0.41 12.85,0.49 12.9,0.57 12.95,0.65 12.99,0.73 13.04,0.81 13.09,0.89 13.13,0.97 13.18,1.05 13.23,1.13 13.27,1.21 13.32,1.29 13.37,1.37 13.41,1.46 13.46,1.54 13.51,1.62 13.55,1.7 13.6,1.78 13.65,1.86 13.69,1.94 13.74,2.02 13.79,2.1 13.83,2.18 13.88,2.26 13.93,2.34 13.97,2.42 14.02,2.5 14.07,2.58 14.11,2.66 14.16,2.74 14.21,2.82 14.25,2.9 14.3,2.98 14.35,3.06 14.39,3.14 14.44,3.22 14.49,3.3 14.53,3.38 14.58,3.46 14.63,3.54 14.67,3.62 14.72,3.7 14.77,3.77 14.81,3.85 14.86,3.93 14.91,4.01 14.95,4.09 15,4.17 15.05,4.25 15.09,4.33 15.14,4.41 15.19,4.49 15.23,4.57 15.28,4.65 15.33,4.73 15.37,4.8 15.42,4.88 15.47,4.96 15.51,5.04 15.56,5.12 15.61,5.2 15.65,5.28 15.7,5.36 15.75,5.44 15.79,5.51 15.84,5.59 15.89,5.67 15.93,5.75 15.98,5.83 16.03,5.91 16.07,5.99 16.12,6.06 16.17,6.14 16.21,6.22 16.26,6.3 16.31,6.38 16.35,6.45 16.4,6.53 16.45,6.61 16.49,6.69 16.54,6.77 16.59,6.84 16.63,6.92 16.68,7 16.73,7.08 16.77,7.16 16.82,7.23 16.87,7.31 16.91,7.39 16.96,7.47 17.01,7.54 17.05,7.62 17.1,7.7 17.15,7.77 17.19,7.85 17.24,7.93 17.29,8.01 17.33,8.08 17.38,8.16 17.43,8.24 17.47,8.31 17.52,8.39 17.57,8.47 17.61,8.54 17.66,8.62 17.71,8.7 17.75,8.77 17.8,8.85 17.85,8.93 17.89,9 17.94,9.08 17.99,9.16 18.03,9.23 18.08,9.31 18.13,9.39 18.17,9.46 18.22,9.54 18.27,9.61 18.31,9.69 18.36,9.77 18.41,9.84 18.45,9.92 18.5,9.99 18.55,10.07 18.59,10.14 18.64,10.22 18.69,10.29 18.73,10.37 18.78,10.45 18.83,10.52 18.87,10.6 18.92,10.67 18.97,10.75 19.01,10.82 19.06,10.9 19.11,10.97 19.15,11.05 19.2,11.12 19.25,11.19 19.29,11.27 19.34,11.34 19.39,11.42 19.43,11.49 19.48,11.57 19.53,11.64 19.57,11.72 19.62,11.79 19.67,11.86 19.71,11.94 19.76,12.01 19.81,12.09 19.85,12.16 19.9,12.23 19.95,12.31 19.99,12.38 20.04,12.45 20.09,12.53 20.13,12.6 20.18,12.67 20.23,12.75 20.27,12.82 20.32,12.89 20.37,12.97 20.41,13.04 20.46,13.11 20.51,13.19 20.55,13.26 20.6,13.33 20.65,13.4 20.69,13.48 20.74,13.55 20.79,13.62 20.83,13.69 20.88,13.77 20.93,13.84 20.97,13.91 21.02,13.98 21.07,14.06 21.11,14.13 21.16,14.2 21.21,14.27 21.25,14.34 21.3,14.41 21.35,14.49 21.39,14.56 21.44,14.63 21.49,14.7 21.53,14.77 21.58,14.84 21.63,14.91 21.67,14.99 21.72,15.06 21.77,15.13 21.81,15.2 21.86,15.27 21.91,15.34 21.95,15.41 22,15.48 22.05,15.55 22.09,15.62 22.14,15.69 22.19,15.76 22.23,15.83 22.28,15.9 22.33,15.97 22.37,16.04 22.42,16.11 22.47,16.18 22.51,16.25 22.56,16.32 22.61,16.39 22.65,16.46 22.7,16.53 22.75,16.6 22.79,16.67 22.84,16.74 22.89,16.81 22.93,16.87 22.98,16.94 23.03,17.01 23.07,17.08 23.12,17.15 23.17,17.22 23.21,17.29 23.26,17.36 23.31,17.42 23.35,17.49 23.4,17.56 23.45,17.63 23.49,17.7 23.54,17.76 23.59,17.83 23.63,17.9 23.68,17.97 23.73,18.03 23.77,18.1 23.82,18.17 23.87,18.24 23.91,18.3 23.96,18.37 24.01,18.44 24.05,18.51 24.1,18.57 24.15,18.64 24.19,18.71 24.24,18.77 24.29,18.84 24.33,18.91 24.38,18.97 24.43,19.04 24.47,19.1 24.52,19.17 24.57,19.24 24.61,19.3 24.66,19.37 24.71,19.43 24.75,19.5 24.8,19.57 24.85,19.63 24.89,19.7 24.94,19.76 24.99,19.83 25.03,19.89 25.08,19.96 25.13,20.02 25.17,20.09 25.22,20.15 25.27,20.22 25.31,20.28 25.36,20.35 25.41,20.41 25.45,20.47 25.5,20.54 25.55,20.6 25.59,20.67 25.64,20.73 25.69,20.79 25.73,20.86 25.78,20.92 25.83,20.99 25.87,21.05 25.92,21.11 25.97,21.18 26.01,21.24 26.06,21.3 26.11,21.37 26.15,21.43 26.2,21.49 26.25,21.55 26.29,21.62 26.34,21.68 26.39,21.74 26.43,21.81 26.48,21.87 26.53,21.93 26.57,21.99 26.62,22.05 26.67,22.12 26.71,22.18 26.76,22.24 26.81,22.3 26.85,22.36 26.9,22.42 26.95,22.49 26.99,22.55 27.04,22.61 27.09,22.67 27.13,22.73 27.18,22.79 27.23,22.85 27.27,22.91 27.32,22.97 27.37,23.03 27.41,23.09 27.46,23.16 27.51,23.22 27.55,23.28 27.6,23.34 27.65,23.4 27.69,23.46 27.74,23.52 27.79,23.58 27.83,23.64 27.88,23.69 27.93,23.75 27.97,23.81 28.02,23.87 28.07,23.93 28.11,23.99 28.16,24.05 28.21,24.11 28.25,24.17 28.3,24.23 28.35,24.28 28.39,24.34 28.44,24.4 28.49,24.46 28.53,24.52 28.58,24.58 28.62,24.63 28.67,24.69 28.72,24.75 28.76,24.81 28.81,24.86 28.86,24.92 28.9,24.98 28.95,25.04 29,25.09 29.04,25.15 29.09,25.21 29.14,25.27 29.18,25.32 29.23,25.38 29.28,25.44 29.32,25.49 29.37,25.55 29.42,25.6 29.46,25.66 29.51,25.72 29.56,25.77 29.6,25.83 29.65,25.88 29.7,25.94 29.74,26 29.79,26.05 29.84,26.11 29.88,26.16 29.93,26.22 29.98,26.27 30.02,26.33 30.07,26.38 30.12,26.44 30.16,26.49 30.21,26.55 30.26,26.6 30.3,26.66 30.35,26.71 30.4,26.76 30.44,26.82 30.49,26.87 30.54,26.93 30.58,26.98 30.63,27.03 30.68,27.09 30.72,27.14 30.77,27.19 30.82,27.25 30.86,27.3 30.91,27.35 30.96,27.41 31,27.46 31.05,27.51 31.1,27.57 31.14,27.62 31.19,27.67 31.24,27.72 31.28,27.78 31.33,27.83 31.38,27.88 31.42,27.93 31.47,27.98 31.52,28.04 31.56,28.09 31.61,28.14 31.66,28.19 31.7,28.24 31.75,28.29 31.8,28.34 31.84,28.39 31.89,28.45 31.94,28.5 31.98,28.55 32.03,28.6 32.08,28.65 32.12,28.7 32.17,28.75 32.22,28.8 32.26,28.85 32.31,28.9 32.36,28.95 32.4,29 32.45,29.05 32.5,29.1 32.54,29.15 32.59,29.2 32.64,29.25 32.68,29.3 32.73,29.35 32.78,29.4 32.82,29.44 32.87,29.49 32.92,29.54 32.96,29.59 33.01,29.64 33.06,29.69 33.1,29.74 33.15,29.78 33.2,29.83 33.24,29.88 33.29,29.93 33.34,29.98 33.38,30.02 33.43,30.07 33.48,30.12 33.52,30.17 33.57,30.21 33.62,30.26 33.66,30.31 33.71,30.35 33.76,30.4 33.8,30.45 33.85,30.49 33.9,30.54 33.94,30.59 33.99,30.63 34.04,30.68 34.08,30.73 34.13,30.77 34.18,30.82 34.22,30.86 34.27,30.91 34.32,30.96 34.36,31 34.41,31.05 34.46,31.09 34.5,31.14 34.55,31.18 34.6,31.23 34.64,31.27 34.69,31.32 34.74,31.36 34.78,31.41 34.83,31.45 34.88,31.5 34.92,31.54 34.97,31.58 35.02,31.63 35.06,31.67 35.11,31.72 35.16,31.76 35.2,31.8 35.25,31.85 35.3,31.89 35.34,31.93 35.39,31.98 35.44,32.02 35.48,32.06 35.53,32.11 35.58,32.15 35.62,32.19 35.67,32.23 35.72,32.28 35.76,32.32 35.81,32.36 35.86,32.4 35.9,32.45 35.95,32.49 36,32.53 36.04,32.57 36.09,32.61 36.14,32.66 36.18,32.7 36.23,32.74 36.28,32.78 36.32,32.82 36.37,32.86 36.42,32.9 36.46,32.94 36.51,32.98 36.56,33.03 36.6,33.07 36.65,33.11 36.7,33.15 36.74,33.19 36.79,33.23 36.84,33.27 36.88,33.31 36.93,33.35 36.98,33.39 37.02,33.43 37.07,33.47 37.12,33.51 37.16,33.55 37.21,33.58 37.26,33.62 37.3,33.66 37.35,33.7 37.4,33.74 37.44,33.78 37.49,33.82 37.54,33.86 37.58,33.9 37.63,33.93 37.68,33.97 37.72,34.01 37.77,34.05 37.82,34.09 37.86,34.12 37.91,34.16 37.96,34.2 38,34.24 38.05,34.27 38.1,34.31 38.14,34.35 38.19,34.39 38.24,34.42 38.28,34.46 38.33,34.5 38.38,34.53 38.42,34.57 38.47,34.61 38.52,34.64 38.56,34.68 38.61,34.72 38.66,34.75 38.7,34.79 38.75,34.82 38.8,34.86 38.84,34.9 38.89,34.93 38.94,34.97 38.98,35 39.03,35.04 39.08,35.07 39.12,35.11 39.17,35.14 39.22,35.18 39.26,35.21 39.31,35.25 39.36,35.28 39.4,35.32 39.45,35.35 39.5,35.39 39.54,35.42 39.59,35.45 39.64,35.49 39.68,35.52 39.73,35.56 39.78,35.59 39.82,35.62 39.87,35.66 39.92,35.69 39.96,35.72 40.01,35.76 40.06,35.79 40.1,35.82 40.15,35.86 40.2,35.89 40.24,35.92 40.29,35.96 40.34,35.99 40.38,36.02 40.43,36.05 40.48,36.08 40.52,36.12 40.57,36.15 40.62,36.18 40.66,36.21 40.71,36.24 40.76,36.28 40.8,36.31 40.85,36.34 40.9,36.37 40.94,36.4 40.99,36.43 41.04,36.46 41.08,36.5 41.13,36.53 41.18,36.56 41.22,36.59 41.27,36.62 41.32,36.65 41.36,36.68 41.41,36.71 41.46,36.74 41.5,36.77 41.55,36.8 41.6,36.83 41.64,36.86 41.69,36.89 41.74,36.92 41.78,36.95 41.83,36.98 41.88,37.01 41.92,37.04 41.97,37.07 42.02,37.1 42.06,37.13 42.11,37.15 42.16,37.18 42.2,37.21 42.25,37.24 42.3,37.27 42.34,37.3 42.39,37.33 42.44,37.35 42.48,37.38 42.53,37.41 42.58,37.44 42.62,37.47 42.67,37.49 42.72,37.52 42.76,37.55 42.81,37.58 42.86,37.6 42.9,37.63 42.95,37.66 43,37.69 43.04,37.71 43.09,37.74 43.14,37.77 43.18,37.79 43.23,37.82 43.28,37.85 43.32,37.87 43.37,37.9 43.42,37.93 43.46,37.95 43.51,37.98 43.56,38 43.6,38.03 43.65,38.06 43.7,38.08 43.74,38.11 43.79,38.13 43.84,38.16 43.88,38.18 43.93,38.21 43.98,38.24 44.02,38.26 44.07,38.29 44.12,38.31 44.16,38.34 44.21,38.36 44.26,38.38 44.3,38.41 44.35,38.43 44.4,38.46 44.44,38.48 44.49,38.51 44.54,38.53 44.58,38.56 44.63,38.58 44.68,38.6 44.72,38.63 44.77,38.65 44.82,38.67 44.86,38.7 44.91,38.72 44.96,38.74 45,38.77 45.05,38.79 45.1,38.81 45.14,38.84 45.19,38.86 45.24,38.88 45.28,38.91 45.33,38.93 45.38,38.95 45.42,38.97 45.47,39 45.52,39.02 45.56,39.04 45.61,39.06 45.66,39.08 45.7,39.11 45.75,39.13 45.8,39.15 45.84,39.17 45.89,39.19 45.94,39.22 45.98,39.24 46.03,39.26 46.08,39.28 46.12,39.3 46.17,39.32 46.22,39.34 46.26,39.36 46.31,39.39 46.36,39.41 46.4,39.43 46.45,39.45 46.5,39.47 46.54,39.49 46.59,39.51 46.64,39.53 46.68,39.55 46.73,39.57 46.78,39.59 46.82,39.61 46.87,39.63 46.92,39.65 46.96,39.67 47.01,39.69 47.06,39.71 47.1,39.73 47.15,39.75 47.2,39.77 47.24,39.79 47.29,39.8 47.34,39.82 47.38,39.84 47.43,39.86 47.48,39.88 47.52,39.9 47.57,39.92 47.61,39.94 47.66,39.95 47.71,39.97 47.75,39.99 47.8,40.01 47.85,40.03 47.89,40.05 47.94,40.06 47.99,40.08 48.03,40.1 48.08,40.12 48.13,40.14 48.17,40.15 48.22,40.17 48.27,40.19 48.31,40.21 48.36,40.22 48.41,40.24 48.45,40.26 48.5,40.27 48.55,40.29 48.59,40.31 48.64,40.33 48.69,40.34 48.73,40.36 48.78,40.38 48.83,40.39 48.87,40.41 48.92,40.43 48.97,40.44 49.01,40.46 49.06,40.47 49.11,40.49 49.15,40.51 49.2,40.52 49.25,40.54 49.29,40.55 49.34,40.57 49.39,40.59 49.43,40.6 49.48,40.62 49.53,40.63 49.57,40.65 49.62,40.66 49.67,40.68 49.71,40.69 49.76,40.71 49.81,40.72 49.85,40.74 49.9,40.75 49.95,40.77 49.99,40.78 50.04,40.8 50.09,40.81 50.13,40.83 50.18,40.84 50.23,40.85 50.27,40.87 50.32,40.88 50.37,40.9 50.41,40.91 50.46,40.93 50.51,40.94 50.55,40.95 50.6,40.97 50.65,40.98 50.69,40.99 50.74,41.01 50.79,41.02 50.83,41.04 50.88,41.05 50.93,41.06 50.97,41.08 51.02,41.09 51.07,41.1 51.11,41.11 51.16,41.13 51.21,41.14 51.25,41.15 51.3,41.17 51.35,41.18 51.39,41.19 51.44,41.2 51.49,41.22 51.53,41.23 51.58,41.24 51.63,41.25 51.67,41.27 51.72,41.28 51.77,41.29 51.81,41.3 51.86,41.31 51.91,41.33 51.95,41.34 52,41.35 52.05,41.36 52.09,41.37 52.14,41.38 52.19,41.4 52.23,41.41 52.28,41.42 52.33,41.43 52.37,41.44 52.42,41.45 52.47,41.46 52.51,41.47 52.56,41.49 52.61,41.5 52.65,41.51 52.7,41.52 52.75,41.53 52.79,41.54 52.84,41.55 52.89,41.56 52.93,41.57 52.98,41.58 53.03,41.59 53.07,41.6 53.12,41.61 53.17,41.62 53.21,41.63 53.26,41.64 53.31,41.65 53.35,41.66 53.4,41.67 53.45,41.68 53.49,41.69 53.54,41.7 53.59,41.71 53.63,41.72 53.68,41.73 53.73,41.74 53.77,41.75 53.82,41.76 53.87,41.77 53.91,41.78 53.96,41.79 54.01,41.8 54.05,41.8 54.1,41.81 54.15,41.82 54.19,41.83 54.24,41.84 54.29,41.85 54.33,41.86 54.38,41.87 54.43,41.88 54.47,41.88 54.52,41.89 54.57,41.9 54.61,41.91 54.66,41.92 54.71,41.93 54.75,41.93 54.8,41.94 54.85,41.95 54.89,41.96 54.94,41.97 54.99,41.97 55.03,41.98 55.08,41.99 55.13,42 55.17,42.01 55.22,42.01 55.27,42.02 55.31,42.03 55.36,42.04 55.41,42.04 55.45,42.05 55.5,42.06 55.55,42.07 55.59,42.07 55.64,42.08 55.69,42.09 55.73,42.09 55.78,42.1 55.83,42.11 55.87,42.12 55.92,42.12 55.97,42.13 56.01,42.14 56.06,42.14 56.11,42.15 56.15,42.16 56.2,42.16 56.25,42.17 56.29,42.18 56.34,42.18 56.39,42.19 56.43,42.19 56.48,42.2 56.53,42.21 56.57,42.21 56.62,42.22 56.67,42.23 56.71,42.23 56.76,42.24 56.81,42.24 56.85,42.25 56.9,42.26 56.95,42.26 56.99,42.27 57.04,42.27 57.09,42.28 57.13,42.28 57.18,42.29 57.23,42.29 57.27,42.3 57.32,42.31 57.37,42.31 57.41,42.32 57.46,42.32 57.51,42.33 57.55,42.33 57.6,42.34 57.65,42.34 57.69,42.35 57.74,42.35 57.79,42.36 57.83,42.36 57.88,42.37 57.93,42.37 57.97,42.38 58.02,42.38 58.07,42.39 58.11,42.39 58.16,42.4 58.21,42.4 58.25,42.41 58.3,42.41 " class="primitive"/>
            </g>
          </g>
        </g>
      </g>
    </g>
  </g>
  <g class="guide ylabels" font-size="2.82" font-family="'PT Sans Caption','Helvetica Neue','Helvetica',sans-serif" fill="#6C606B" id="img-e080973a-22">
    <g transform="translate(10.02,108.33)" id="img-e080973a-23">
      <g class="primitive">
        <text text-anchor="end" dy="0.35em">0.0</text>
      </g>
    </g>
    <g transform="translate(10.02,82.99)" id="img-e080973a-24">
      <g class="primitive">
        <text text-anchor="end" dy="0.35em">0.5</text>
      </g>
    </g>
    <g transform="translate(10.02,57.66)" id="img-e080973a-25">
      <g class="primitive">
        <text text-anchor="end" dy="0.35em">1.0</text>
      </g>
    </g>
    <g transform="translate(10.02,32.33)" id="img-e080973a-26">
      <g class="primitive">
        <text text-anchor="end" dy="0.35em">1.5</text>
      </g>
    </g>
    <g transform="translate(10.02,7)" id="img-e080973a-27">
      <g class="primitive">
        <text text-anchor="end" dy="0.35em">2.0</text>
      </g>
    </g>
  </g>
</g>
<defs>
  <clipPath id="img-e080973a-3">
    <path d="M11.02,5 L155,5 155,110.33 11.02,110.33 " />
  </clipPath>
</defs>
</svg>
