<?xml version="1.0" encoding="UTF-8"?>
<svg xmlns="http://www.w3.org/2000/svg"
     xmlns:xlink="http://www.w3.org/1999/xlink"
     xmlns:gadfly="http://www.gadflyjl.org/ns"
     version="1.2"
     width="160mm" height="120mm" viewBox="0 0 160 120"
     stroke="none"
     fill="#000000"
     stroke-width="0.3"
     font-size="3.88"
>
<defs>
  <marker id="arrow" markerWidth="15" markerHeight="7" refX="5" refY="3.5" orient="auto" markerUnits="strokeWidth">
    <path d="M0,0 L15,3.5 L0,7 z" stroke="context-stroke" fill="context-stroke"/>
  </marker>
</defs>
<g class="plotroot xscalable yscalable" id="img-546b3538-1">
  <g class="guide xlabels" font-size="2.82" font-family="'PT Sans Caption','Helvetica Neue','Helvetica',sans-serif" fill="#6C606B" id="img-546b3538-2">
    <g transform="translate(10.67,111.33)">
      <g class="primitive">
        <text text-anchor="middle" dy="0.6em">-0.5</text>
      </g>
    </g>
    <g transform="translate(58.12,111.33)">
      <g class="primitive">
        <text text-anchor="middle" dy="0.6em">0.0</text>
      </g>
    </g>
    <g transform="translate(105.56,111.33)">
      <g class="primitive">
        <text text-anchor="middle" dy="0.6em">0.5</text>
      </g>
    </g>
    <g transform="translate(153,111.33)">
      <g class="primitive">
        <text text-anchor="middle" dy="0.6em">1.0</text>
      </g>
    </g>
  </g>
  <g clip-path="url(#img-546b3538-3)">
    <g id="img-546b3538-4">
      <g pointer-events="visible" stroke-width="0.3" fill="#000000" fill-opacity="0.000" stroke="#000000" stroke-opacity="0.000" class="guide background" id="img-546b3538-5">
        <g transform="translate(81.84,57.66)" id="img-546b3538-6">
          <path d="M-73.16,-52.66 L73.16,-52.66 73.16,52.66 -73.16,52.66  z" class="primitive"/>
        </g>
      </g>
      <g class="guide ygridlines xfixed" stroke-dasharray="0.5,0.5" stroke-width="0.2" stroke="#D0D0E0" id="img-546b3538-7">
        <g transform="translate(81.84,108.33)" id="img-546b3538-8">
          <path fill="none" d="M-73.16,0 L73.16,0 " class="primitive"/>
        </g>
        <g transform="translate(81.84,82.99)" id="img-546b3538-9">
          <path fill="none" d="M-73.16,0 L73.16,0 " class="primitive"/>
        </g>
        <g transform="translate(81.84,57.66)" id="img-546b3538-10">
          <path fill="none" d="M-73.16,0 L73.16,0 " class="primitive"/>
        </g>
        <g transform="translate(81.84,32.33)" id="img-546b3538-11">
          <path fill="none" d="M-73.16,0 L73.16,0 " class="primitive"/>
        </g>
        <g transform="translate(81.84,7)" id="img-546b3538-12">
          <path fill="none" d="M-73.16,0 L73.16,0 " class="primitive"/>
        </g>
      </g>
      <g class="guide xgridlines yfixed" stroke-dasharray="0.5,0.5" stroke-width="0.2" stroke="#D0D0E0" id="img-546b3538-13">
        <g transform="translate(10.67,57.66)" id="img-546b3538-14">
          <path fill="none" d="M0,-52.66 L0,52.66 " class="primitive"/>
        </g>
        <g transform="translate(58.12,57.66)" id="img-546b3538-15">
          <path fill="none" d="M0,-52.66 L0,52.66 " class="primitive"/>
        </g>
        <g transform="translate(105.56,57.66)" id="img-546b3538-16">
          <path fill="none" d="M0,-52.66 L0,52.66 " class="primitive"/>
        </g>
        <g transform="translate(153,57.66)" id="img-546b3538-17">
          <path fill="none" d="M0,-52.66 L0,52.66 " class="primitive"/>
        </g>
      </g>
      <g class="plotpanel" id="img-546b3538-18">
        <metadata>
          <boundingbox value="8.673333333333346mm 5.0mm 146.32666666666665mm 105.32666666666668mm"/>
          <unitbox value="-0.5210782706449951 4.078952562668596 1.54215654128999 -4.1579051253371935"/>
        </metadata>
        <g stroke-width="0.3" fill="#000000" fill-opacity="0.000" class="geometry" id="img-546b3538-19">
          <g class="color_LCHab{Float32}(70.0f0,60.0f0,240.0f0)" stroke-dasharray="none" stroke="#00BFFF" id="img-546b3538-20">
            <g transform="translate(89.54,72.77)" id="img-546b3538-21">
              <path fill="none" d="M-62.32,35.04 L-62.27,35.04 -62.22,35.04 -62.17,35.03 -62.12,35.03 -62.07,35.02 -62.02,35.02 -61.97,35.02 -61.92,35.01 -61.87,35.01 -61.82,35.01 -61.77,35 -61.72,35 -61.67,35 -61.62,34.99 -61.57,34.99 -61.52,34.98 -61.47,34.98 -61.42,34.98 -61.37,34.97 -61.32,34.97 -61.27,34.97 -61.22,34.96 -61.17,34.96 -61.12,34.95 -61.07,34.95 -61.02,34.95 -60.97,34.94 -60.92,34.94 -60.87,34.93 -60.82,34.93 -60.77,34.93 -60.72,34.92 -60.67,34.92 -60.62,34.91 -60.57,34.91 -60.52,34.91 -60.47,34.9 -60.42,34.9 -60.37,34.89 -60.32,34.89 -60.27,34.89 -60.22,34.88 -60.17,34.88 -60.12,34.87 -60.07,34.87 -60.02,34.86 -59.97,34.86 -59.92,34.85 -59.87,34.85 -59.82,34.85 -59.77,34.84 -59.72,34.84 -59.67,34.83 -59.62,34.83 -59.57,34.82 -59.53,34.82 -59.48,34.81 -59.43,34.81 -59.38,34.81 -59.33,34.8 -59.28,34.8 -59.23,34.79 -59.18,34.79 -59.13,34.78 -59.08,34.78 -59.03,34.77 -58.98,34.77 -58.93,34.76 -58.88,34.76 -58.83,34.75 -58.78,34.75 -58.73,34.74 -58.68,34.74 -58.63,34.73 -58.58,34.73 -58.53,34.72 -58.48,34.72 -58.43,34.71 -58.38,34.71 -58.33,34.7 -58.28,34.7 -58.23,34.69 -58.18,34.69 -58.13,34.68 -58.08,34.68 -58.03,34.67 -57.98,34.67 -57.93,34.66 -57.88,34.66 -57.83,34.65 -57.78,34.64 -57.73,34.64 -57.68,34.63 -57.63,34.63 -57.58,34.62 -57.53,34.62 -57.48,34.61 -57.43,34.61 -57.38,34.6 -57.33,34.59 -57.28,34.59 -57.23,34.58 -57.18,34.58 -57.13,34.57 -57.08,34.57 -57.03,34.56 -56.98,34.55 -56.93,34.55 -56.88,34.54 -56.83,34.54 -56.78,34.53 -56.73,34.52 -56.68,34.52 -56.63,34.51 -56.58,34.51 -56.53,34.5 -56.48,34.49 -56.43,34.49 -56.38,34.48 -56.33,34.48 -56.28,34.47 -56.23,34.46 -56.18,34.46 -56.13,34.45 -56.08,34.45 -56.03,34.44 -55.98,34.43 -55.93,34.43 -55.88,34.42 -55.83,34.41 -55.78,34.41 -55.73,34.4 -55.68,34.39 -55.63,34.39 -55.58,34.38 -55.54,34.37 -55.49,34.37 -55.44,34.36 -55.39,34.35 -55.34,34.35 -55.29,34.34 -55.24,34.33 -55.19,34.33 -55.14,34.32 -55.09,34.31 -55.04,34.31 -54.99,34.3 -54.94,34.29 -54.89,34.28 -54.84,34.28 -54.79,34.27 -54.74,34.26 -54.69,34.26 -54.64,34.25 -54.59,34.24 -54.54,34.23 -54.49,34.23 -54.44,34.22 -54.39,34.21 -54.34,34.21 -54.29,34.2 -54.24,34.19 -54.19,34.18 -54.14,34.18 -54.09,34.17 -54.04,34.16 -53.99,34.15 -53.94,34.15 -53.89,34.14 -53.84,34.13 -53.79,34.12 -53.74,34.11 -53.69,34.11 -53.64,34.1 -53.59,34.09 -53.54,34.08 -53.49,34.08 -53.44,34.07 -53.39,34.06 -53.34,34.05 -53.29,34.04 -53.24,34.04 -53.19,34.03 -53.14,34.02 -53.09,34.01 -53.04,34 -52.99,33.99 -52.94,33.99 -52.89,33.98 -52.84,33.97 -52.79,33.96 -52.74,33.95 -52.69,33.94 -52.64,33.94 -52.59,33.93 -52.54,33.92 -52.49,33.91 -52.44,33.9 -52.39,33.89 -52.34,33.88 -52.29,33.88 -52.24,33.87 -52.19,33.86 -52.14,33.85 -52.09,33.84 -52.04,33.83 -51.99,33.82 -51.94,33.81 -51.89,33.8 -51.84,33.8 -51.79,33.79 -51.74,33.78 -51.69,33.77 -51.64,33.76 -51.6,33.75 -51.55,33.74 -51.5,33.73 -51.45,33.72 -51.4,33.71 -51.35,33.7 -51.3,33.69 -51.25,33.68 -51.2,33.67 -51.15,33.66 -51.1,33.65 -51.05,33.65 -51,33.64 -50.95,33.63 -50.9,33.62 -50.85,33.61 -50.8,33.6 -50.75,33.59 -50.7,33.58 -50.65,33.57 -50.6,33.56 -50.55,33.55 -50.5,33.54 -50.45,33.53 -50.4,33.52 -50.35,33.51 -50.3,33.5 -50.25,33.49 -50.2,33.47 -50.15,33.46 -50.1,33.45 -50.05,33.44 -50,33.43 -49.95,33.42 -49.9,33.41 -49.85,33.4 -49.8,33.39 -49.75,33.38 -49.7,33.37 -49.65,33.36 -49.6,33.35 -49.55,33.34 -49.5,33.33 -49.45,33.32 -49.4,33.3 -49.35,33.29 -49.3,33.28 -49.25,33.27 -49.2,33.26 -49.15,33.25 -49.1,33.24 -49.05,33.23 -49,33.21 -48.95,33.2 -48.9,33.19 -48.85,33.18 -48.8,33.17 -48.75,33.16 -48.7,33.15 -48.65,33.13 -48.6,33.12 -48.55,33.11 -48.5,33.1 -48.45,33.09 -48.4,33.08 -48.35,33.06 -48.3,33.05 -48.25,33.04 -48.2,33.03 -48.15,33.02 -48.1,33 -48.05,32.99 -48,32.98 -47.95,32.97 -47.9,32.96 -47.85,32.94 -47.8,32.93 -47.75,32.92 -47.7,32.91 -47.65,32.89 -47.61,32.88 -47.56,32.87 -47.51,32.86 -47.46,32.84 -47.41,32.83 -47.36,32.82 -47.31,32.8 -47.26,32.79 -47.21,32.78 -47.16,32.77 -47.11,32.75 -47.06,32.74 -47.01,32.73 -46.96,32.71 -46.91,32.7 -46.86,32.69 -46.81,32.67 -46.76,32.66 -46.71,32.65 -46.66,32.63 -46.61,32.62 -46.56,32.61 -46.51,32.59 -46.46,32.58 -46.41,32.57 -46.36,32.55 -46.31,32.54 -46.26,32.52 -46.21,32.51 -46.16,32.5 -46.11,32.48 -46.06,32.47 -46.01,32.45 -45.96,32.44 -45.91,32.43 -45.86,32.41 -45.81,32.4 -45.76,32.38 -45.71,32.37 -45.66,32.35 -45.61,32.34 -45.56,32.33 -45.51,32.31 -45.46,32.3 -45.41,32.28 -45.36,32.27 -45.31,32.25 -45.26,32.24 -45.21,32.22 -45.16,32.21 -45.11,32.19 -45.06,32.18 -45.01,32.16 -44.96,32.15 -44.91,32.13 -44.86,32.12 -44.81,32.1 -44.76,32.09 -44.71,32.07 -44.66,32.06 -44.61,32.04 -44.56,32.03 -44.51,32.01 -44.46,31.99 -44.41,31.98 -44.36,31.96 -44.31,31.95 -44.26,31.93 -44.21,31.92 -44.16,31.9 -44.11,31.88 -44.06,31.87 -44.01,31.85 -43.96,31.84 -43.91,31.82 -43.86,31.8 -43.81,31.79 -43.76,31.77 -43.71,31.75 -43.66,31.74 -43.62,31.72 -43.57,31.7 -43.52,31.69 -43.47,31.67 -43.42,31.65 -43.37,31.64 -43.32,31.62 -43.27,31.6 -43.22,31.59 -43.17,31.57 -43.12,31.55 -43.07,31.54 -43.02,31.52 -42.97,31.5 -42.92,31.48 -42.87,31.47 -42.82,31.45 -42.77,31.43 -42.72,31.41 -42.67,31.4 -42.62,31.38 -42.57,31.36 -42.52,31.34 -42.47,31.33 -42.42,31.31 -42.37,31.29 -42.32,31.27 -42.27,31.25 -42.22,31.24 -42.17,31.22 -42.12,31.2 -42.07,31.18 -42.02,31.16 -41.97,31.14 -41.92,31.13 -41.87,31.11 -41.82,31.09 -41.77,31.07 -41.72,31.05 -41.67,31.03 -41.62,31.01 -41.57,31 -41.52,30.98 -41.47,30.96 -41.42,30.94 -41.37,30.92 -41.32,30.9 -41.27,30.88 -41.22,30.86 -41.17,30.84 -41.12,30.82 -41.07,30.8 -41.02,30.78 -40.97,30.76 -40.92,30.75 -40.87,30.73 -40.82,30.71 -40.77,30.69 -40.72,30.67 -40.67,30.65 -40.62,30.63 -40.57,30.61 -40.52,30.59 -40.47,30.57 -40.42,30.55 -40.37,30.53 -40.32,30.5 -40.27,30.48 -40.22,30.46 -40.17,30.44 -40.12,30.42 -40.07,30.4 -40.02,30.38 -39.97,30.36 -39.92,30.34 -39.87,30.32 -39.82,30.3 -39.77,30.28 -39.72,30.26 -39.68,30.23 -39.63,30.21 -39.58,30.19 -39.53,30.17 -39.48,30.15 -39.43,30.13 -39.38,30.11 -39.33,30.09 -39.28,30.06 -39.23,30.04 -39.18,30.02 -39.13,30 -39.08,29.98 -39.03,29.95 -38.98,29.93 -38.93,29.91 -38.88,29.89 -38.83,29.87 -38.78,29.84 -38.73,29.82 -38.68,29.8 -38.63,29.78 -38.58,29.75 -38.53,29.73 -38.48,29.71 -38.43,29.69 -38.38,29.66 -38.33,29.64 -38.28,29.62 -38.23,29.59 -38.18,29.57 -38.13,29.55 -38.08,29.52 -38.03,29.5 -37.98,29.48 -37.93,29.45 -37.88,29.43 -37.83,29.41 -37.78,29.38 -37.73,29.36 -37.68,29.34 -37.63,29.31 -37.58,29.29 -37.53,29.26 -37.48,29.24 -37.43,29.22 -37.38,29.19 -37.33,29.17 -37.28,29.14 -37.23,29.12 -37.18,29.1 -37.13,29.07 -37.08,29.05 -37.03,29.02 -36.98,29 -36.93,28.97 -36.88,28.95 -36.83,28.92 -36.78,28.9 -36.73,28.87 -36.68,28.85 -36.63,28.82 -36.58,28.8 -36.53,28.77 -36.48,28.75 -36.43,28.72 -36.38,28.7 -36.33,28.67 -36.28,28.64 -36.23,28.62 -36.18,28.59 -36.13,28.57 -36.08,28.54 -36.03,28.51 -35.98,28.49 -35.93,28.46 -35.88,28.44 -35.83,28.41 -35.78,28.38 -35.73,28.36 -35.69,28.33 -35.64,28.3 -35.59,28.28 -35.54,28.25 -35.49,28.22 -35.44,28.2 -35.39,28.17 -35.34,28.14 -35.29,28.12 -35.24,28.09 -35.19,28.06 -35.14,28.03 -35.09,28.01 -35.04,27.98 -34.99,27.95 -34.94,27.92 -34.89,27.9 -34.84,27.87 -34.79,27.84 -34.74,27.81 -34.69,27.79 -34.64,27.76 -34.59,27.73 -34.54,27.7 -34.49,27.67 -34.44,27.64 -34.39,27.62 -34.34,27.59 -34.29,27.56 -34.24,27.53 -34.19,27.5 -34.14,27.47 -34.09,27.44 -34.04,27.42 -33.99,27.39 -33.94,27.36 -33.89,27.33 -33.84,27.3 -33.79,27.27 -33.74,27.24 -33.69,27.21 -33.64,27.18 -33.59,27.15 -33.54,27.12 -33.49,27.09 -33.44,27.06 -33.39,27.03 -33.34,27 -33.29,26.97 -33.24,26.94 -33.19,26.91 -33.14,26.88 -33.09,26.85 -33.04,26.82 -32.99,26.79 -32.94,26.76 -32.89,26.73 -32.84,26.7 -32.79,26.67 -32.74,26.64 -32.69,26.61 -32.64,26.58 -32.59,26.54 -32.54,26.51 -32.49,26.48 -32.44,26.45 -32.39,26.42 -32.34,26.39 -32.29,26.36 -32.24,26.32 -32.19,26.29 -32.14,26.26 -32.09,26.23 -32.04,26.2 -31.99,26.17 -31.94,26.13 -31.89,26.1 -31.84,26.07 -31.79,26.04 -31.75,26 -31.7,25.97 -31.65,25.94 -31.6,25.91 -31.55,25.87 -31.5,25.84 -31.45,25.81 -31.4,25.78 -31.35,25.74 -31.3,25.71 -31.25,25.68 -31.2,25.64 -31.15,25.61 -31.1,25.58 -31.05,25.54 -31,25.51 -30.95,25.47 -30.9,25.44 -30.85,25.41 -30.8,25.37 -30.75,25.34 -30.7,25.31 -30.65,25.27 -30.6,25.24 -30.55,25.2 -30.5,25.17 -30.45,25.13 -30.4,25.1 -30.35,25.06 -30.3,25.03 -30.25,25 -30.2,24.96 -30.15,24.93 -30.1,24.89 -30.05,24.86 -30,24.82 -29.95,24.78 -29.9,24.75 -29.85,24.71 -29.8,24.68 -29.75,24.64 -29.7,24.61 -29.65,24.57 -29.6,24.54 -29.55,24.5 -29.5,24.46 -29.45,24.43 -29.4,24.39 -29.35,24.36 -29.3,24.32 -29.25,24.28 -29.2,24.25 -29.15,24.21 -29.1,24.17 -29.05,24.14 -29,24.1 -28.95,24.06 -28.9,24.03 -28.85,23.99 -28.8,23.95 -28.75,23.91 -28.7,23.88 -28.65,23.84 -28.6,23.8 -28.55,23.76 -28.5,23.73 -28.45,23.69 -28.4,23.65 -28.35,23.61 -28.3,23.58 -28.25,23.54 -28.2,23.5 -28.15,23.46 -28.1,23.42 -28.05,23.38 -28,23.35 -27.95,23.31 -27.9,23.27 -27.85,23.23 -27.8,23.19 -27.76,23.15 -27.71,23.11 -27.66,23.07 -27.61,23.04 -27.56,23 -27.51,22.96 -27.46,22.92 -27.41,22.88 -27.36,22.84 -27.31,22.8 -27.26,22.76 -27.21,22.72 -27.16,22.68 -27.11,22.64 -27.06,22.6 -27.01,22.56 -26.96,22.52 -26.91,22.48 -26.86,22.44 -26.81,22.4 -26.76,22.36 -26.71,22.32 -26.66,22.28 -26.61,22.23 -26.56,22.19 -26.51,22.15 -26.46,22.11 -26.41,22.07 -26.36,22.03 -26.31,21.99 -26.26,21.95 -26.21,21.91 -26.16,21.86 -26.11,21.82 -26.06,21.78 -26.01,21.74 -25.96,21.7 -25.91,21.65 -25.86,21.61 -25.81,21.57 -25.76,21.53 -25.71,21.49 -25.66,21.44 -25.61,21.4 -25.56,21.36 -25.51,21.32 -25.46,21.27 -25.41,21.23 -25.36,21.19 -25.31,21.14 -25.26,21.1 -25.21,21.06 -25.16,21.01 -25.11,20.97 -25.06,20.93 -25.01,20.88 -24.96,20.84 -24.91,20.8 -24.86,20.75 -24.81,20.71 -24.76,20.66 -24.71,20.62 -24.66,20.58 -24.61,20.53 -24.56,20.49 -24.51,20.44 -24.46,20.4 -24.41,20.35 -24.36,20.31 -24.31,20.27 -24.26,20.22 -24.21,20.18 -24.16,20.13 -24.11,20.09 -24.06,20.04 -24.01,19.99 -23.96,19.95 -23.91,19.9 -23.86,19.86 -23.82,19.81 -23.77,19.77 -23.72,19.72 -23.67,19.68 -23.62,19.63 -23.57,19.58 -23.52,19.54 -23.47,19.49 -23.42,19.44 -23.37,19.4 -23.32,19.35 -23.27,19.31 -23.22,19.26 -23.17,19.21 -23.12,19.17 -23.07,19.12 -23.02,19.07 -22.97,19.02 -22.92,18.98 -22.87,18.93 -22.82,18.88 -22.77,18.84 -22.72,18.79 -22.67,18.74 -22.62,18.69 -22.57,18.64 -22.52,18.6 -22.47,18.55 -22.42,18.5 -22.37,18.45 -22.32,18.4 -22.27,18.36 -22.22,18.31 -22.17,18.26 -22.12,18.21 -22.07,18.16 -22.02,18.11 -21.97,18.06 -21.92,18.02 -21.87,17.97 -21.82,17.92 -21.77,17.87 -21.72,17.82 -21.67,17.77 -21.62,17.72 -21.57,17.67 -21.52,17.62 -21.47,17.57 -21.42,17.52 -21.37,17.47 -21.32,17.42 -21.27,17.37 -21.22,17.32 -21.17,17.27 -21.12,17.22 -21.07,17.17 -21.02,17.12 -20.97,17.07 -20.92,17.02 -20.87,16.97 -20.82,16.92 -20.77,16.87 -20.72,16.82 -20.67,16.76 -20.62,16.71 -20.57,16.66 -20.52,16.61 -20.47,16.56 -20.42,16.51 -20.37,16.46 -20.32,16.41 -20.27,16.35 -20.22,16.3 -20.17,16.25 -20.12,16.2 -20.07,16.15 -20.02,16.09 -19.97,16.04 -19.92,15.99 -19.87,15.94 -19.83,15.88 -19.78,15.83 -19.73,15.78 -19.68,15.73 -19.63,15.67 -19.58,15.62 -19.53,15.57 -19.48,15.51 -19.43,15.46 -19.38,15.41 -19.33,15.35 -19.28,15.3 -19.23,15.25 -19.18,15.19 -19.13,15.14 -19.08,15.09 -19.03,15.03 -18.98,14.98 -18.93,14.92 -18.88,14.87 -18.83,14.81 -18.78,14.76 -18.73,14.71 -18.68,14.65 -18.63,14.6 -18.58,14.54 -18.53,14.49 -18.48,14.43 -18.43,14.38 -18.38,14.32 -18.33,14.27 -18.28,14.21 -18.23,14.16 -18.18,14.1 -18.13,14.05 -18.08,13.99 -18.03,13.94 -17.98,13.88 -17.93,13.82 -17.88,13.77 -17.83,13.71 -17.78,13.66 -17.73,13.6 -17.68,13.54 -17.63,13.49 -17.58,13.43 -17.53,13.37 -17.48,13.32 -17.43,13.26 -17.38,13.2 -17.33,13.15 -17.28,13.09 -17.23,13.03 -17.18,12.98 -17.13,12.92 -17.08,12.86 -17.03,12.81 -16.98,12.75 -16.93,12.69 -16.88,12.63 -16.83,12.58 -16.78,12.52 -16.73,12.46 -16.68,12.4 -16.63,12.34 -16.58,12.29 -16.53,12.23 -16.48,12.17 -16.43,12.11 -16.38,12.05 -16.33,11.99 -16.28,11.94 -16.23,11.88 -16.18,11.82 -16.13,11.76 -16.08,11.7 -16.03,11.64 -15.98,11.58 -15.93,11.52 -15.88,11.46 -15.84,11.41 -15.79,11.35 -15.74,11.29 -15.69,11.23 -15.64,11.17 -15.59,11.11 -15.54,11.05 -15.49,10.99 -15.44,10.93 -15.39,10.87 -15.34,10.81 -15.29,10.75 -15.24,10.69 -15.19,10.63 -15.14,10.57 -15.09,10.51 -15.04,10.45 -14.99,10.39 -14.94,10.32 -14.89,10.26 -14.84,10.2 -14.79,10.14 -14.74,10.08 -14.69,10.02 -14.64,9.96 -14.59,9.9 -14.54,9.84 -14.49,9.77 -14.44,9.71 -14.39,9.65 -14.34,9.59 -14.29,9.53 -14.24,9.47 -14.19,9.4 -14.14,9.34 -14.09,9.28 -14.04,9.22 -13.99,9.16 -13.94,9.09 -13.89,9.03 -13.84,8.97 -13.79,8.91 -13.74,8.84 -13.69,8.78 -13.64,8.72 -13.59,8.65 -13.54,8.59 -13.49,8.53 -13.44,8.47 -13.39,8.4 -13.34,8.34 -13.29,8.28 -13.24,8.21 -13.19,8.15 -13.14,8.09 -13.09,8.02 -13.04,7.96 -12.99,7.89 -12.94,7.83 -12.89,7.77 -12.84,7.7 -12.79,7.64 -12.74,7.57 -12.69,7.51 -12.64,7.45 -12.59,7.38 -12.54,7.32 -12.49,7.25 -12.44,7.19 -12.39,7.12 -12.34,7.06 -12.29,6.99 -12.24,6.93 -12.19,6.86 -12.14,6.8 -12.09,6.73 -12.04,6.67 -11.99,6.6 -11.94,6.54 -11.9,6.47 -11.85,6.41 -11.8,6.34 -11.75,6.28 -11.7,6.21 -11.65,6.14 -11.6,6.08 -11.55,6.01 -11.5,5.95 -11.45,5.88 -11.4,5.81 -11.35,5.75 -11.3,5.68 -11.25,5.62 -11.2,5.55 -11.15,5.48 -11.1,5.42 -11.05,5.35 -11,5.28 -10.95,5.22 -10.9,5.15 -10.85,5.08 -10.8,5.01 -10.75,4.95 -10.7,4.88 -10.65,4.81 -10.6,4.75 -10.55,4.68 -10.5,4.61 -10.45,4.54 -10.4,4.48 -10.35,4.41 -10.3,4.34 -10.25,4.27 -10.2,4.21 -10.15,4.14 -10.1,4.07 -10.05,4 -10,3.93 -9.95,3.87 -9.9,3.8 -9.85,3.73 -9.8,3.66 -9.75,3.59 -9.7,3.52 -9.65,3.46 -9.6,3.39 -9.55,3.32 -9.5,3.25 -9.45,3.18 -9.4,3.11 -9.35,3.04 -9.3,2.97 -9.25,2.9 -9.2,2.84 -9.15,2.77 -9.1,2.7 -9.05,2.63 -9,2.56 -8.95,2.49 -8.9,2.42 -8.85,2.35 -8.8,2.28 -8.75,2.21 -8.7,2.14 -8.65,2.07 -8.6,2 -8.55,1.93 -8.5,1.86 -8.45,1.79 -8.4,1.72 -8.35,1.65 -8.3,1.58 -8.25,1.51 -8.2,1.44 -8.15,1.37 -8.1,1.3 -8.05,1.23 -8,1.16 -7.95,1.09 -7.91,1.02 -7.86,0.95 -7.81,0.87 -7.76,0.8 -7.71,0.73 -7.66,0.66 -7.61,0.59 -7.56,0.52 -7.51,0.45 -7.46,0.38 -7.41,0.31 -7.36,0.23 -7.31,0.16 -7.26,0.09 -7.21,0.02 -7.16,-0.05 -7.11,-0.12 -7.06,-0.19 -7.01,-0.27 -6.96,-0.34 -6.91,-0.41 -6.86,-0.48 -6.81,-0.55 -6.76,-0.63 -6.71,-0.7 -6.66,-0.77 -6.61,-0.84 -6.56,-0.91 -6.51,-0.99 -6.46,-1.06 -6.41,-1.13 -6.36,-1.2 -6.31,-1.28 -6.26,-1.35 -6.21,-1.42 -6.16,-1.49 -6.11,-1.57 -6.06,-1.64 -6.01,-1.71 -5.96,-1.79 -5.91,-1.86 -5.86,-1.93 -5.81,-2 -5.76,-2.08 -5.71,-2.15 -5.66,-2.22 -5.61,-2.3 -5.56,-2.37 -5.51,-2.44 -5.46,-2.52 -5.41,-2.59 -5.36,-2.66 -5.31,-2.74 -5.26,-2.81 -5.21,-2.88 -5.16,-2.96 -5.11,-3.03 -5.06,-3.1 -5.01,-3.18 -4.96,-3.25 -4.91,-3.33 -4.86,-3.4 -4.81,-3.47 -4.76,-3.55 -4.71,-3.62 -4.66,-3.7 -4.61,-3.77 -4.56,-3.84 -4.51,-3.92 -4.46,-3.99 -4.41,-4.07 -4.36,-4.14 -4.31,-4.21 -4.26,-4.29 -4.21,-4.36 -4.16,-4.44 -4.11,-4.51 -4.06,-4.59 -4.01,-4.66 -3.97,-4.74 -3.92,-4.81 -3.87,-4.89 -3.82,-4.96 -3.77,-5.03 -3.72,-5.11 -3.67,-5.18 -3.62,-5.26 -3.57,-5.33 -3.52,-5.41 -3.47,-5.48 -3.42,-5.56 -3.37,-5.63 -3.32,-5.71 -3.27,-5.78 -3.22,-5.86 -3.17,-5.93 -3.12,-6.01 -3.07,-6.09 -3.02,-6.16 -2.97,-6.24 -2.92,-6.31 -2.87,-6.39 -2.82,-6.46 -2.77,-6.54 -2.72,-6.61 -2.67,-6.69 -2.62,-6.76 -2.57,-6.84 -2.52,-6.91 -2.47,-6.99 -2.42,-7.07 -2.37,-7.14 -2.32,-7.22 -2.27,-7.29 -2.22,-7.37 -2.17,-7.44 -2.12,-7.52 -2.07,-7.6 -2.02,-7.67 -1.97,-7.75 -1.92,-7.82 -1.87,-7.9 -1.82,-7.98 -1.77,-8.05 -1.72,-8.13 -1.67,-8.2 -1.62,-8.28 -1.57,-8.36 -1.52,-8.43 -1.47,-8.51 -1.42,-8.58 -1.37,-8.66 -1.32,-8.74 -1.27,-8.81 -1.22,-8.89 -1.17,-8.97 -1.12,-9.04 -1.07,-9.12 -1.02,-9.19 -0.97,-9.27 -0.92,-9.35 -0.87,-9.42 -0.82,-9.5 -0.77,-9.58 -0.72,-9.65 -0.67,-9.73 -0.62,-9.81 -0.57,-9.88 -0.52,-9.96 -0.47,-10.04 -0.42,-10.11 -0.37,-10.19 -0.32,-10.26 -0.27,-10.34 -0.22,-10.42 -0.17,-10.49 -0.12,-10.57 -0.07,-10.65 -0.02,-10.72 0.02,-10.8 0.07,-10.88 0.12,-10.95 0.17,-11.03 0.22,-11.11 0.27,-11.18 0.32,-11.26 0.37,-11.34 0.42,-11.41 0.47,-11.49 0.52,-11.57 0.57,-11.65 0.62,-11.72 0.67,-11.8 0.72,-11.88 0.77,-11.95 0.82,-12.03 0.87,-12.11 0.92,-12.18 0.97,-12.26 1.02,-12.34 1.07,-12.41 1.12,-12.49 1.17,-12.57 1.22,-12.64 1.27,-12.72 1.32,-12.8 1.37,-12.87 1.42,-12.95 1.47,-13.03 1.52,-13.1 1.57,-13.18 1.62,-13.26 1.67,-13.34 1.72,-13.41 1.77,-13.49 1.82,-13.57 1.87,-13.64 1.92,-13.72 1.97,-13.8 2.02,-13.87 2.07,-13.95 2.12,-14.03 2.17,-14.1 2.22,-14.18 2.27,-14.26 2.32,-14.33 2.37,-14.41 2.42,-14.49 2.47,-14.56 2.52,-14.64 2.57,-14.72 2.62,-14.79 2.67,-14.87 2.72,-14.95 2.77,-15.02 2.82,-15.1 2.87,-15.18 2.92,-15.25 2.97,-15.33 3.02,-15.41 3.07,-15.48 3.12,-15.56 3.17,-15.64 3.22,-15.71 3.27,-15.79 3.32,-15.87 3.37,-15.94 3.42,-16.02 3.47,-16.1 3.52,-16.17 3.57,-16.25 3.62,-16.33 3.67,-16.4 3.72,-16.48 3.77,-16.56 3.82,-16.63 3.87,-16.71 3.92,-16.78 3.97,-16.86 4.01,-16.94 4.06,-17.01 4.11,-17.09 4.16,-17.17 4.21,-17.24 4.26,-17.32 4.31,-17.4 4.36,-17.47 4.41,-17.55 4.46,-17.62 4.51,-17.7 4.56,-17.78 4.61,-17.85 4.66,-17.93 4.71,-18 4.76,-18.08 4.81,-18.16 4.86,-18.23 4.91,-18.31 4.96,-18.38 5.01,-18.46 5.06,-18.53 5.11,-18.61 5.16,-18.69 5.21,-18.76 5.26,-18.84 5.31,-18.91 5.36,-18.99 5.41,-19.06 5.46,-19.14 5.51,-19.22 5.56,-19.29 5.61,-19.37 5.66,-19.44 5.71,-19.52 5.76,-19.59 5.81,-19.67 5.86,-19.74 5.91,-19.82 5.96,-19.89 6.01,-19.97 6.06,-20.04 6.11,-20.12 6.16,-20.19 6.21,-20.27 6.26,-20.34 6.31,-20.42 6.36,-20.49 6.41,-20.57 6.46,-20.64 6.51,-20.72 6.56,-20.79 6.61,-20.87 6.66,-20.94 6.71,-21.01 6.76,-21.09 6.81,-21.16 6.86,-21.24 6.91,-21.31 6.96,-21.39 7.01,-21.46 7.06,-21.53 7.11,-21.61 7.16,-21.68 7.21,-21.76 7.26,-21.83 7.31,-21.9 7.36,-21.98 7.41,-22.05 7.46,-22.13 7.51,-22.2 7.56,-22.27 7.61,-22.35 7.66,-22.42 7.71,-22.49 7.76,-22.57 7.81,-22.64 7.86,-22.71 7.91,-22.79 7.95,-22.86 8,-22.93 8.05,-23.01 8.1,-23.08 8.15,-23.15 8.2,-23.22 8.25,-23.3 8.3,-23.37 8.35,-23.44 8.4,-23.52 8.45,-23.59 8.5,-23.66 8.55,-23.73 8.6,-23.8 8.65,-23.88 8.7,-23.95 8.75,-24.02 8.8,-24.09 8.85,-24.17 8.9,-24.24 8.95,-24.31 9,-24.38 9.05,-24.45 9.1,-24.52 9.15,-24.6 9.2,-24.67 9.25,-24.74 9.3,-24.81 9.35,-24.88 9.4,-24.95 9.45,-25.02 9.5,-25.09 9.55,-25.17 9.6,-25.24 9.65,-25.31 9.7,-25.38 9.75,-25.45 9.8,-25.52 9.85,-25.59 9.9,-25.66 9.95,-25.73 10,-25.8 10.05,-25.87 10.1,-25.94 10.15,-26.01 10.2,-26.08 10.25,-26.15 10.3,-26.22 10.35,-26.29 10.4,-26.36 10.45,-26.43 10.5,-26.5 10.55,-26.57 10.6,-26.64 10.65,-26.71 10.7,-26.77 10.75,-26.84 10.8,-26.91 10.85,-26.98 10.9,-27.05 10.95,-27.12 11,-27.19 11.05,-27.25 11.1,-27.32 11.15,-27.39 11.2,-27.46 11.25,-27.53 11.3,-27.6 11.35,-27.66 11.4,-27.73 11.45,-27.8 11.5,-27.87 11.55,-27.93 11.6,-28 11.65,-28.07 11.7,-28.13 11.75,-28.2 11.8,-28.27 11.85,-28.34 11.9,-28.4 11.94,-28.47 11.99,-28.53 12.04,-28.6 12.09,-28.67 12.14,-28.73 12.19,-28.8 12.24,-28.87 12.29,-28.93 12.34,-29 12.39,-29.06 12.44,-29.13 12.49,-29.19 12.54,-29.26 12.59,-29.32 12.64,-29.39 12.69,-29.45 12.74,-29.52 12.79,-29.58 12.84,-29.65 12.89,-29.71 12.94,-29.78 12.99,-29.84 13.04,-29.91 13.09,-29.97 13.14,-30.03 13.19,-30.1 13.24,-30.16 13.29,-30.22 13.34,-30.29 13.39,-30.35 13.44,-30.41 13.49,-30.48 13.54,-30.54 13.59,-30.6 13.64,-30.66 13.69,-30.73 13.74,-30.79 13.79,-30.85 13.84,-30.91 13.89,-30.98 13.94,-31.04 13.99,-31.1 14.04,-31.16 14.09,-31.22 14.14,-31.28 14.19,-31.35 14.24,-31.41 14.29,-31.47 14.34,-31.53 14.39,-31.59 14.44,-31.65 14.49,-31.71 14.54,-31.77 14.59,-31.83 14.64,-31.89 14.69,-31.95 14.74,-32.01 14.79,-32.07 14.84,-32.13 14.89,-32.19 14.94,-32.25 14.99,-32.31 15.04,-32.37 15.09,-32.42 15.14,-32.48 15.19,-32.54 15.24,-32.6 15.29,-32.66 15.34,-32.72 15.39,-32.77 15.44,-32.83 15.49,-32.89 15.54,-32.95 15.59,-33 15.64,-33.06 15.69,-33.12 15.74,-33.17 15.79,-33.23 15.84,-33.29 15.88,-33.34 15.93,-33.4 15.98,-33.46 16.03,-33.51 16.08,-33.57 16.13,-33.62 16.18,-33.68 16.23,-33.73 16.28,-33.79 16.33,-33.84 16.38,-33.9 16.43,-33.95 16.48,-34.01 16.53,-34.06 16.58,-34.12 16.63,-34.17 16.68,-34.22 16.73,-34.28 16.78,-34.33 16.83,-34.38 16.88,-34.44 16.93,-34.49 16.98,-34.54 17.03,-34.6 17.08,-34.65 17.13,-34.7 17.18,-34.75 17.23,-34.8 17.28,-34.86 17.33,-34.91 17.38,-34.96 17.43,-35.01 17.48,-35.06 17.53,-35.11 17.58,-35.16 17.63,-35.21 17.68,-35.26 17.73,-35.31 17.78,-35.36 17.83,-35.41 17.88,-35.46 17.93,-35.51 17.98,-35.56 18.03,-35.61 18.08,-35.66 18.13,-35.71 18.18,-35.76 18.23,-35.81 18.28,-35.86 18.33,-35.9 18.38,-35.95 18.43,-36 18.48,-36.05 18.53,-36.09 18.58,-36.14 18.63,-36.19 18.68,-36.23 18.73,-36.28 18.78,-36.33 18.83,-36.37 18.88,-36.42 18.93,-36.46 18.98,-36.51 19.03,-36.56 19.08,-36.6 19.13,-36.65 19.18,-36.69 19.23,-36.74 19.28,-36.78 19.33,-36.82 19.38,-36.87 19.43,-36.91 19.48,-36.96 19.53,-37 19.58,-37.04 19.63,-37.08 19.68,-37.13 19.73,-37.17 19.78,-37.21 19.83,-37.25 19.87,-37.3 19.92,-37.34 19.97,-37.38 20.02,-37.42 20.07,-37.46 20.12,-37.5 20.17,-37.54 20.22,-37.58 20.27,-37.62 20.32,-37.66 20.37,-37.7 20.42,-37.74 20.47,-37.78 20.52,-37.82 20.57,-37.86 20.62,-37.9 20.67,-37.94 20.72,-37.98 20.77,-38.02 20.82,-38.05 20.87,-38.09 20.92,-38.13 20.97,-38.17 21.02,-38.2 21.07,-38.24 21.12,-38.28 21.17,-38.31 21.22,-38.35 21.27,-38.39 21.32,-38.42 21.37,-38.46 21.42,-38.49 21.47,-38.53 21.52,-38.56 21.57,-38.6 21.62,-38.63 21.67,-38.66 21.72,-38.7 21.77,-38.73 21.82,-38.77 21.87,-38.8 21.92,-38.83 21.97,-38.86 22.02,-38.9 22.07,-38.93 22.12,-38.96 22.17,-38.99 22.22,-39.02 22.27,-39.06 22.32,-39.09 22.37,-39.12 22.42,-39.15 22.47,-39.18 22.52,-39.21 22.57,-39.24 22.62,-39.27 22.67,-39.3 22.72,-39.33 22.77,-39.36 22.82,-39.38 22.87,-39.41 22.92,-39.44 22.97,-39.47 23.02,-39.5 23.07,-39.52 23.12,-39.55 23.17,-39.58 23.22,-39.6 23.27,-39.63 23.32,-39.66 23.37,-39.68 23.42,-39.71 23.47,-39.73 23.52,-39.76 23.57,-39.78 23.62,-39.81 23.67,-39.83 23.72,-39.86 23.77,-39.88 23.82,-39.9 23.86,-39.93 23.91,-39.95 23.96,-39.97 24.01,-40 24.06,-40.02 24.11,-40.04 24.16,-40.06 24.21,-40.08 24.26,-40.11 24.31,-40.13 24.36,-40.15 24.41,-40.17 24.46,-40.19 24.51,-40.21 24.56,-40.23 24.61,-40.25 24.66,-40.27 24.71,-40.29 24.76,-40.3 24.81,-40.32 24.86,-40.34 24.91,-40.36 24.96,-40.38 25.01,-40.39 25.06,-40.41 25.11,-40.43 25.16,-40.44 25.21,-40.46 25.26,-40.48 25.31,-40.49 25.36,-40.51 25.41,-40.52 25.46,-40.54 25.51,-40.55 25.56,-40.56 25.61,-40.58 25.66,-40.59 25.71,-40.61 25.76,-40.62 25.81,-40.63 25.86,-40.64 25.91,-40.66 25.96,-40.67 26.01,-40.68 26.06,-40.69 26.11,-40.7 26.16,-40.71 26.21,-40.72 26.26,-40.73 26.31,-40.74 26.36,-40.75 26.41,-40.76 26.46,-40.77 26.51,-40.78 26.56,-40.79 26.61,-40.8 26.66,-40.81 26.71,-40.81 26.76,-40.82 26.81,-40.83 26.86,-40.83 26.91,-40.84 26.96,-40.85 27.01,-40.85 27.06,-40.86 27.11,-40.86 27.16,-40.87 27.21,-40.87 27.26,-40.88 27.31,-40.88 27.36,-40.89 27.41,-40.89 27.46,-40.89 27.51,-40.89 27.56,-40.9 27.61,-40.9 27.66,-40.9 27.71,-40.9 27.76,-40.9 27.8,-40.91 27.85,-40.91 27.9,-40.91 27.95,-40.91 28,-40.91 28.05,-40.91 28.1,-40.9 28.15,-40.9 28.2,-40.9 28.25,-40.9 28.3,-40.9 28.35,-40.9 28.4,-40.89 28.45,-40.89 28.5,-40.89 28.55,-40.88 28.6,-40.88 28.65,-40.87 28.7,-40.87 28.75,-40.87 28.8,-40.86 28.85,-40.85 28.9,-40.85 28.95,-40.84 29,-40.84 29.05,-40.83 29.1,-40.82 29.15,-40.81 29.2,-40.81 29.25,-40.8 29.3,-40.79 29.35,-40.78 29.4,-40.77 29.45,-40.76 29.5,-40.75 29.55,-40.74 29.6,-40.73 29.65,-40.72 29.7,-40.71 29.75,-40.7 29.8,-40.69 29.85,-40.68 29.9,-40.66 29.95,-40.65 30,-40.64 30.05,-40.62 30.1,-40.61 30.15,-40.6 30.2,-40.58 30.25,-40.57 30.3,-40.55 30.35,-40.54 30.4,-40.52 30.45,-40.51 30.5,-40.49 30.55,-40.47 30.6,-40.46 30.65,-40.44 30.7,-40.42 30.75,-40.4 30.8,-40.38 30.85,-40.37 30.9,-40.35 30.95,-40.33 31,-40.31 31.05,-40.29 31.1,-40.27 31.15,-40.25 31.2,-40.23 31.25,-40.2 31.3,-40.18 31.35,-40.16 31.4,-40.14 31.45,-40.11 31.5,-40.09 31.55,-40.07 31.6,-40.04 31.65,-40.02 31.7,-40 31.75,-39.97 31.79,-39.95 31.84,-39.92 31.89,-39.89 31.94,-39.87 31.99,-39.84 32.04,-39.81 32.09,-39.79 32.14,-39.76 32.19,-39.73 32.24,-39.7 32.29,-39.67 32.34,-39.64 32.39,-39.62 32.44,-39.59 32.49,-39.56 32.54,-39.52 32.59,-39.49 32.64,-39.46 32.69,-39.43 32.74,-39.4 32.79,-39.37 32.84,-39.33 32.89,-39.3 32.94,-39.27 32.99,-39.23 33.04,-39.2 33.09,-39.17 33.14,-39.13 33.19,-39.1 33.24,-39.06 33.29,-39.02 33.34,-38.99 33.39,-38.95 33.44,-38.91 33.49,-38.88 33.54,-38.84 33.59,-38.8 33.64,-38.76 33.69,-38.72 33.74,-38.69 33.79,-38.65 33.84,-38.61 33.89,-38.57 33.94,-38.53 33.99,-38.48 34.04,-38.44 34.09,-38.4 34.14,-38.36 34.19,-38.32 34.24,-38.27 34.29,-38.23 34.34,-38.19 34.39,-38.14 34.44,-38.1 34.49,-38.05 34.54,-38.01 34.59,-37.96 34.64,-37.92 34.69,-37.87 34.74,-37.83 34.79,-37.78 34.84,-37.73 34.89,-37.68 34.94,-37.64 34.99,-37.59 35.04,-37.54 35.09,-37.49 35.14,-37.44 35.19,-37.39 35.24,-37.34 35.29,-37.29 35.34,-37.24 35.39,-37.19 35.44,-37.14 35.49,-37.09 35.54,-37.03 35.59,-36.98 35.64,-36.93 35.69,-36.87 35.73,-36.82 35.78,-36.77 35.83,-36.71 35.88,-36.66 35.93,-36.6 35.98,-36.54 36.03,-36.49 36.08,-36.43 36.13,-36.38 36.18,-36.32 36.23,-36.26 36.28,-36.2 36.33,-36.14 36.38,-36.08 36.43,-36.03 36.48,-35.97 36.53,-35.91 36.58,-35.85 36.63,-35.79 36.68,-35.72 36.73,-35.66 36.78,-35.6 36.83,-35.54 36.88,-35.48 36.93,-35.41 36.98,-35.35 37.03,-35.29 37.08,-35.22 37.13,-35.16 37.18,-35.09 37.23,-35.03 37.28,-34.96 37.33,-34.9 37.38,-34.83 37.43,-34.76 37.48,-34.7 37.53,-34.63 37.58,-34.56 37.63,-34.49 37.68,-34.42 37.73,-34.35 37.78,-34.29 37.83,-34.22 37.88,-34.15 37.93,-34.07 37.98,-34 38.03,-33.93 38.08,-33.86 38.13,-33.79 38.18,-33.72 38.23,-33.64 38.28,-33.57 38.33,-33.5 38.38,-33.42 38.43,-33.35 38.48,-33.27 38.53,-33.2 38.58,-33.12 38.63,-33.05 38.68,-32.97 38.73,-32.89 38.78,-32.82 38.83,-32.74 38.88,-32.66 38.93,-32.58 38.98,-32.5 39.03,-32.43 39.08,-32.35 39.13,-32.27 39.18,-32.19 39.23,-32.11 39.28,-32.03 39.33,-31.94 39.38,-31.86 39.43,-31.78 39.48,-31.7 39.53,-31.62 39.58,-31.53 39.63,-31.45 39.68,-31.36 39.72,-31.28 39.77,-31.2 39.82,-31.11 39.87,-31.02 39.92,-30.94 39.97,-30.85 40.02,-30.77 40.07,-30.68 40.12,-30.59 40.17,-30.5 40.22,-30.42 40.27,-30.33 40.32,-30.24 40.37,-30.15 40.42,-30.06 40.47,-29.97 40.52,-29.88 40.57,-29.79 40.62,-29.7 40.67,-29.61 40.72,-29.51 40.77,-29.42 40.82,-29.33 40.87,-29.24 40.92,-29.14 40.97,-29.05 41.02,-28.95 41.07,-28.86 41.12,-28.76 41.17,-28.67 41.22,-28.57 41.27,-28.48 41.32,-28.38 41.37,-28.28 41.42,-28.19 41.47,-28.09 41.52,-27.99 41.57,-27.89 41.62,-27.79 41.67,-27.7 41.72,-27.6 41.77,-27.5 41.82,-27.4 41.87,-27.3 41.92,-27.19 41.97,-27.09 42.02,-26.99 42.07,-26.89 42.12,-26.79 42.17,-26.68 42.22,-26.58 42.27,-26.48 42.32,-26.37 42.37,-26.27 42.42,-26.16 42.47,-26.06 42.52,-25.95 42.57,-25.85 42.62,-25.74 42.67,-25.64 42.72,-25.53 42.77,-25.42 42.82,-25.31 42.87,-25.21 42.92,-25.1 42.97,-24.99 43.02,-24.88 43.07,-24.77 43.12,-24.66 43.17,-24.55 43.22,-24.44 43.27,-24.33 43.32,-24.22 43.37,-24.11 43.42,-23.99 43.47,-23.88 43.52,-23.77 43.57,-23.66 43.62,-23.54 43.66,-23.43 43.71,-23.31 43.76,-23.2 43.81,-23.08 43.86,-22.97 43.91,-22.85 43.96,-22.74 44.01,-22.62 44.06,-22.51 44.11,-22.39 44.16,-22.27 44.21,-22.15 44.26,-22.03 44.31,-21.92 44.36,-21.8 44.41,-21.68 44.46,-21.56 44.51,-21.44 44.56,-21.32 44.61,-21.2 44.66,-21.08 44.71,-20.96 44.76,-20.83 44.81,-20.71 44.86,-20.59 44.91,-20.47 44.96,-20.35 45.01,-20.22 45.06,-20.1 45.11,-19.97 45.16,-19.85 45.21,-19.73 45.26,-19.6 45.31,-19.47 45.36,-19.35 45.41,-19.22 45.46,-19.1 45.51,-18.97 45.56,-18.84 45.61,-18.72 45.66,-18.59 45.71,-18.46 45.76,-18.33 45.81,-18.2 45.86,-18.07 45.91,-17.94 45.96,-17.82 46.01,-17.69 46.06,-17.55 46.11,-17.42 46.16,-17.29 46.21,-17.16 46.26,-17.03 46.31,-16.9 46.36,-16.77 46.41,-16.63 46.46,-16.5 46.51,-16.37 46.56,-16.23 46.61,-16.1 46.66,-15.97 46.71,-15.83 46.76,-15.7 46.81,-15.56 46.86,-15.43 46.91,-15.29 46.96,-15.15 47.01,-15.02 47.06,-14.88 47.11,-14.74 47.16,-14.61 47.21,-14.47 47.26,-14.33 47.31,-14.19 47.36,-14.05 47.41,-13.91 47.46,-13.78 47.51,-13.64 47.56,-13.5 47.61,-13.36 47.65,-13.22 47.7,-13.08 47.75,-12.93 47.8,-12.79 47.85,-12.65 47.9,-12.51 47.95,-12.37 48,-12.23 48.05,-12.08 48.1,-11.94 48.15,-11.8 48.2,-11.65 48.25,-11.51 48.3,-11.37 48.35,-11.22 48.4,-11.08 48.45,-10.93 48.5,-10.79 48.55,-10.64 48.6,-10.49 48.65,-10.35 48.7,-10.2 48.75,-10.06 48.8,-9.91 48.85,-9.76 48.9,-9.61 48.95,-9.47 49,-9.32 49.05,-9.17 49.1,-9.02 49.15,-8.87 49.2,-8.72 49.25,-8.58 49.3,-8.43 49.35,-8.28 49.4,-8.13 49.45,-7.98 49.5,-7.83 49.55,-7.67 49.6,-7.52 49.65,-7.37 49.7,-7.22 49.75,-7.07 49.8,-6.92 49.85,-6.77 49.9,-6.61 49.95,-6.46 50,-6.31 50.05,-6.15 50.1,-6 50.15,-5.85 50.2,-5.69 50.25,-5.54 50.3,-5.38 50.35,-5.23 50.4,-5.08 50.45,-4.92 50.5,-4.76 50.55,-4.61 50.6,-4.45 50.65,-4.3 50.7,-4.14 50.75,-3.99 50.8,-3.83 50.85,-3.67 50.9,-3.52 50.95,-3.36 51,-3.2 51.05,-3.04 51.1,-2.89 51.15,-2.73 51.2,-2.57 51.25,-2.41 51.3,-2.25 51.35,-2.09 51.4,-1.94 51.45,-1.78 51.5,-1.62 51.55,-1.46 51.6,-1.3 51.64,-1.14 51.69,-0.98 51.74,-0.82 51.79,-0.66 51.84,-0.5 51.89,-0.34 51.94,-0.18 51.99,-0.01 52.04,0.15 52.09,0.31 52.14,0.47 52.19,0.63 52.24,0.79 52.29,0.96 52.34,1.12 52.39,1.28 52.44,1.44 52.49,1.61 52.54,1.77 52.59,1.93 52.64,2.09 52.69,2.26 52.74,2.42 52.79,2.58 52.84,2.75 52.89,2.91 52.94,3.08 52.99,3.24 53.04,3.4 53.09,3.57 53.14,3.73 53.19,3.9 53.24,4.06 53.29,4.23 53.34,4.39 53.39,4.56 53.44,4.72 53.49,4.89 53.54,5.05 53.59,5.22 53.64,5.38 53.69,5.55 53.74,5.71 53.79,5.88 53.84,6.05 53.89,6.21 53.94,6.38 53.99,6.54 54.04,6.71 54.09,6.88 54.14,7.04 54.19,7.21 54.24,7.38 54.29,7.54 54.34,7.71 54.39,7.88 54.44,8.04 54.49,8.21 54.54,8.38 54.59,8.54 54.64,8.71 54.69,8.88 54.74,9.04 54.79,9.21 54.84,9.38 54.89,9.55 54.94,9.71 54.99,9.88 55.04,10.05 55.09,10.21 55.14,10.38 55.19,10.55 55.24,10.72 55.29,10.88 55.34,11.05 55.39,11.22 55.44,11.39 55.49,11.55 55.54,11.72 55.58,11.89 55.63,12.06 55.68,12.22 55.73,12.39 55.78,12.56 55.83,12.73 55.88,12.89 55.93,13.06 55.98,13.23 56.03,13.4 56.08,13.56 56.13,13.73 56.18,13.9 56.23,14.06 56.28,14.23 56.33,14.4 56.38,14.57 56.43,14.73 56.48,14.9 56.53,15.07 56.58,15.23 56.63,15.4 56.68,15.57 56.73,15.73 56.78,15.9 56.83,16.07 56.88,16.23 56.93,16.4 56.98,16.57 57.03,16.73 57.08,16.9 57.13,17.07 57.18,17.23 57.23,17.4 57.28,17.56 57.33,17.73 57.38,17.89 57.43,18.06 57.48,18.23 57.53,18.39 57.58,18.56 57.63,18.72 57.68,18.89 57.73,19.05 57.78,19.21 57.83,19.38 57.88,19.54 57.93,19.71 57.98,19.87 58.03,20.04 58.08,20.2 58.13,20.36 58.18,20.53 58.23,20.69 58.28,20.85 58.33,21.02 58.38,21.18 58.43,21.34 58.48,21.5 58.53,21.67 58.58,21.83 58.63,21.99 58.68,22.15 58.73,22.31 58.78,22.47 58.83,22.63 58.88,22.8 58.93,22.96 58.98,23.12 59.03,23.28 59.08,23.44 59.13,23.6 59.18,23.76 59.23,23.91 59.28,24.07 59.33,24.23 59.38,24.39 59.43,24.55 59.48,24.71 59.53,24.86 59.57,25.02 59.62,25.18 59.67,25.34 59.72,25.49 59.77,25.65 59.82,25.8 59.87,25.96 59.92,26.12 59.97,26.27 60.02,26.43 60.07,26.58 60.12,26.73 60.17,26.89 60.22,27.04 60.27,27.19 60.32,27.35 60.37,27.5 60.42,27.65 60.47,27.8 60.52,27.96 60.57,28.11 60.62,28.26 60.67,28.41 60.72,28.56 60.77,28.71 60.82,28.86 60.87,29.01 60.92,29.16 60.97,29.3 61.02,29.45 61.07,29.6 61.12,29.75 61.17,29.89 61.22,30.04 61.27,30.18 61.32,30.33 61.37,30.48 61.42,30.62 61.47,30.76 61.52,30.91 61.57,31.05 61.62,31.19 61.67,31.34 61.72,31.48 61.77,31.62 61.82,31.76 61.87,31.9 61.92,32.04 61.97,32.18 62.02,32.32 62.07,32.46 62.12,32.6 62.17,32.74 62.22,32.87 62.27,33.01 62.32,33.15 " class="primitive"/>
            </g>
          </g>
        </g>
      </g>
    </g>
  </g>
  <g class="guide ylabels" font-size="2.82" font-family="'PT Sans Caption','Helvetica Neue','Helvetica',sans-serif" fill="#6C606B" id="img-546b3538-22">
    <g transform="translate(7.67,108.33)" id="img-546b3538-23">
      <g class="primitive">
        <text text-anchor="end" dy="0.35em">0</text>
      </g>
    </g>
    <g transform="translate(7.67,82.99)" id="img-546b3538-24">
      <g class="primitive">
        <text text-anchor="end" dy="0.35em">1</text>
      </g>
    </g>
    <g transform="translate(7.67,57.66)" id="img-546b3538-25">
      <g class="primitive">
        <text text-anchor="end" dy="0.35em">2</text>
      </g>
    </g>
    <g transform="translate(7.67,32.33)" id="img-546b3538-26">
      <g class="primitive">
        <text text-anchor="end" dy="0.35em">3</text>
      </g>
    </g>
    <g transform="translate(7.67,7)" id="img-546b3538-27">
      <g class="primitive">
        <text text-anchor="end" dy="0.35em">4</text>
      </g>
    </g>
  </g>
</g>
<defs>
  <clipPath id="img-546b3538-3">
    <path d="M8.67,5 L155,5 155,110.33 8.67,110.33 " />
  </clipPath>
</defs>
</svg>
