<?xml version="1.0" encoding="UTF-8"?>
<svg xmlns="http://www.w3.org/2000/svg"
     xmlns:xlink="http://www.w3.org/1999/xlink"
     xmlns:gadfly="http://www.gadflyjl.org/ns"
     version="1.2"
     width="160mm" height="120mm" viewBox="0 0 160 120"
     stroke="none"
     fill="#000000"
     stroke-width="0.3"
     font-size="3.88"
>
<defs>
  <marker id="arrow" markerWidth="15" markerHeight="7" refX="5" refY="3.5" orient="auto" markerUnits="strokeWidth">
    <path d="M0,0 L15,3.5 L0,7 z" stroke="context-stroke" fill="context-stroke"/>
  </marker>
</defs>
<g class="plotroot xscalable yscalable" id="img-1e85fd61-1">
  <g class="guide xlabels" font-size="2.82" font-family="'PT Sans Caption','Helvetica Neue','Helvetica',sans-serif" fill="#6C606B" id="img-1e85fd61-2">
    <g transform="translate(15.81,111.33)">
      <g class="primitive">
        <text text-anchor="middle" dy="0.6em">-0.4</text>
      </g>
    </g>
    <g transform="translate(43.25,111.33)">
      <g class="primitive">
        <text text-anchor="middle" dy="0.6em">-0.3</text>
      </g>
    </g>
    <g transform="translate(70.68,111.33)">
      <g class="primitive">
        <text text-anchor="middle" dy="0.6em">-0.2</text>
      </g>
    </g>
    <g transform="translate(98.12,111.33)">
      <g class="primitive">
        <text text-anchor="middle" dy="0.6em">-0.1</text>
      </g>
    </g>
    <g transform="translate(125.56,111.33)">
      <g class="primitive">
        <text text-anchor="middle" dy="0.6em">0.0</text>
      </g>
    </g>
    <g transform="translate(153,111.33)">
      <g class="primitive">
        <text text-anchor="middle" dy="0.6em">0.1</text>
      </g>
    </g>
  </g>
  <g clip-path="url(#img-1e85fd61-3)">
    <g id="img-1e85fd61-4">
      <g pointer-events="visible" stroke-width="0.3" fill="#000000" fill-opacity="0.000" stroke="#000000" stroke-opacity="0.000" class="guide background" id="img-1e85fd61-5">
        <g transform="translate(84.4,57.66)" id="img-1e85fd61-6">
          <path d="M-70.6,-52.66 L70.6,-52.66 70.6,52.66 -70.6,52.66  z" class="primitive"/>
        </g>
      </g>
      <g class="guide ygridlines xfixed" stroke-dasharray="0.5,0.5" stroke-width="0.2" stroke="#D0D0E0" id="img-1e85fd61-7">
        <g transform="translate(84.4,108.33)" id="img-1e85fd61-8">
          <path fill="none" d="M-70.6,0 L70.6,0 " class="primitive"/>
        </g>
        <g transform="translate(84.4,74.55)" id="img-1e85fd61-9">
          <path fill="none" d="M-70.6,0 L70.6,0 " class="primitive"/>
        </g>
        <g transform="translate(84.4,40.78)" id="img-1e85fd61-10">
          <path fill="none" d="M-70.6,0 L70.6,0 " class="primitive"/>
        </g>
        <g transform="translate(84.4,7)" id="img-1e85fd61-11">
          <path fill="none" d="M-70.6,0 L70.6,0 " class="primitive"/>
        </g>
      </g>
      <g class="guide xgridlines yfixed" stroke-dasharray="0.5,0.5" stroke-width="0.2" stroke="#D0D0E0" id="img-1e85fd61-12">
        <g transform="translate(15.81,57.66)" id="img-1e85fd61-13">
          <path fill="none" d="M0,-52.66 L0,52.66 " class="primitive"/>
        </g>
        <g transform="translate(43.25,57.66)" id="img-1e85fd61-14">
          <path fill="none" d="M0,-52.66 L0,52.66 " class="primitive"/>
        </g>
        <g transform="translate(70.68,57.66)" id="img-1e85fd61-15">
          <path fill="none" d="M0,-52.66 L0,52.66 " class="primitive"/>
        </g>
        <g transform="translate(98.12,57.66)" id="img-1e85fd61-16">
          <path fill="none" d="M0,-52.66 L0,52.66 " class="primitive"/>
        </g>
        <g transform="translate(125.56,57.66)" id="img-1e85fd61-17">
          <path fill="none" d="M0,-52.66 L0,52.66 " class="primitive"/>
        </g>
        <g transform="translate(153,57.66)" id="img-1e85fd61-18">
          <path fill="none" d="M0,-52.66 L0,52.66 " class="primitive"/>
        </g>
      </g>
      <g class="plotpanel" id="img-1e85fd61-19">
        <metadata>
          <boundingbox value="13.806666666666672mm 5.0mm 141.19333333333333mm 105.32666666666665mm"/>
          <unitbox value="-0.40728898391564217 0.0029607211000723744 0.5145779678312843 -0.15592144220014478"/>
        </metadata>
        <g stroke-width="0.3" fill="#000000" fill-opacity="0.000" class="geometry" id="img-1e85fd61-20">
          <g class="color_LCHab{Float32}(70.0f0,60.0f0,240.0f0)" stroke-dasharray="none" stroke="#00BFFF" id="img-1e85fd61-21">
            <g transform="translate(86.39,68.57)" id="img-1e85fd61-22">
              <path fill="none" d="M-61.07,-49.88 L-61.02,-49.85 -60.97,-49.82 -60.92,-49.78 -60.87,-49.75 -60.82,-49.72 -60.78,-49.68 -60.73,-49.65 -60.68,-49.62 -60.63,-49.59 -60.58,-49.55 -60.53,-49.52 -60.48,-49.49 -60.43,-49.45 -60.38,-49.42 -60.34,-49.38 -60.29,-49.35 -60.24,-49.32 -60.19,-49.28 -60.14,-49.25 -60.09,-49.22 -60.04,-49.18 -59.99,-49.15 -59.95,-49.12 -59.9,-49.08 -59.85,-49.05 -59.8,-49.01 -59.75,-48.98 -59.7,-48.95 -59.65,-48.91 -59.6,-48.88 -59.55,-48.84 -59.51,-48.81 -59.46,-48.78 -59.41,-48.74 -59.36,-48.71 -59.31,-48.67 -59.26,-48.64 -59.21,-48.6 -59.16,-48.57 -59.11,-48.54 -59.07,-48.5 -59.02,-48.47 -58.97,-48.43 -58.92,-48.4 -58.87,-48.36 -58.82,-48.33 -58.77,-48.29 -58.72,-48.26 -58.67,-48.22 -58.63,-48.19 -58.58,-48.15 -58.53,-48.12 -58.48,-48.09 -58.43,-48.05 -58.38,-48.02 -58.33,-47.98 -58.28,-47.95 -58.23,-47.91 -58.19,-47.88 -58.14,-47.84 -58.09,-47.8 -58.04,-47.77 -57.99,-47.73 -57.94,-47.7 -57.89,-47.66 -57.84,-47.63 -57.79,-47.59 -57.75,-47.56 -57.7,-47.52 -57.65,-47.49 -57.6,-47.45 -57.55,-47.42 -57.5,-47.38 -57.45,-47.34 -57.4,-47.31 -57.35,-47.27 -57.31,-47.24 -57.26,-47.2 -57.21,-47.17 -57.16,-47.13 -57.11,-47.09 -57.06,-47.06 -57.01,-47.02 -56.96,-46.99 -56.91,-46.95 -56.87,-46.91 -56.82,-46.88 -56.77,-46.84 -56.72,-46.81 -56.67,-46.77 -56.62,-46.73 -56.57,-46.7 -56.52,-46.66 -56.48,-46.62 -56.43,-46.59 -56.38,-46.55 -56.33,-46.51 -56.28,-46.48 -56.23,-46.44 -56.18,-46.41 -56.13,-46.37 -56.08,-46.33 -56.04,-46.3 -55.99,-46.26 -55.94,-46.22 -55.89,-46.19 -55.84,-46.15 -55.79,-46.11 -55.74,-46.07 -55.69,-46.04 -55.64,-46 -55.6,-45.96 -55.55,-45.93 -55.5,-45.89 -55.45,-45.85 -55.4,-45.82 -55.35,-45.78 -55.3,-45.74 -55.25,-45.7 -55.2,-45.67 -55.16,-45.63 -55.11,-45.59 -55.06,-45.55 -55.01,-45.52 -54.96,-45.48 -54.91,-45.44 -54.86,-45.41 -54.81,-45.37 -54.76,-45.33 -54.72,-45.29 -54.67,-45.25 -54.62,-45.22 -54.57,-45.18 -54.52,-45.14 -54.47,-45.1 -54.42,-45.07 -54.37,-45.03 -54.32,-44.99 -54.28,-44.95 -54.23,-44.91 -54.18,-44.88 -54.13,-44.84 -54.08,-44.8 -54.03,-44.76 -53.98,-44.72 -53.93,-44.69 -53.88,-44.65 -53.84,-44.61 -53.79,-44.57 -53.74,-44.53 -53.69,-44.5 -53.64,-44.46 -53.59,-44.42 -53.54,-44.38 -53.49,-44.34 -53.44,-44.3 -53.4,-44.27 -53.35,-44.23 -53.3,-44.19 -53.25,-44.15 -53.2,-44.11 -53.15,-44.07 -53.1,-44.03 -53.05,-43.99 -53,-43.96 -52.96,-43.92 -52.91,-43.88 -52.86,-43.84 -52.81,-43.8 -52.76,-43.76 -52.71,-43.72 -52.66,-43.68 -52.61,-43.65 -52.57,-43.61 -52.52,-43.57 -52.47,-43.53 -52.42,-43.49 -52.37,-43.45 -52.32,-43.41 -52.27,-43.37 -52.22,-43.33 -52.17,-43.29 -52.13,-43.25 -52.08,-43.21 -52.03,-43.17 -51.98,-43.14 -51.93,-43.1 -51.88,-43.06 -51.83,-43.02 -51.78,-42.98 -51.73,-42.94 -51.69,-42.9 -51.64,-42.86 -51.59,-42.82 -51.54,-42.78 -51.49,-42.74 -51.44,-42.7 -51.39,-42.66 -51.34,-42.62 -51.29,-42.58 -51.25,-42.54 -51.2,-42.5 -51.15,-42.46 -51.1,-42.42 -51.05,-42.38 -51,-42.34 -50.95,-42.3 -50.9,-42.26 -50.85,-42.22 -50.81,-42.18 -50.76,-42.14 -50.71,-42.1 -50.66,-42.06 -50.61,-42.02 -50.56,-41.98 -50.51,-41.94 -50.46,-41.9 -50.41,-41.86 -50.37,-41.82 -50.32,-41.78 -50.27,-41.74 -50.22,-41.7 -50.17,-41.66 -50.12,-41.61 -50.07,-41.57 -50.02,-41.53 -49.97,-41.49 -49.93,-41.45 -49.88,-41.41 -49.83,-41.37 -49.78,-41.33 -49.73,-41.29 -49.68,-41.25 -49.63,-41.21 -49.58,-41.17 -49.53,-41.13 -49.49,-41.08 -49.44,-41.04 -49.39,-41 -49.34,-40.96 -49.29,-40.92 -49.24,-40.88 -49.19,-40.84 -49.14,-40.8 -49.09,-40.76 -49.05,-40.71 -49,-40.67 -48.95,-40.63 -48.9,-40.59 -48.85,-40.55 -48.8,-40.51 -48.75,-40.47 -48.7,-40.43 -48.66,-40.38 -48.61,-40.34 -48.56,-40.3 -48.51,-40.26 -48.46,-40.22 -48.41,-40.18 -48.36,-40.13 -48.31,-40.09 -48.26,-40.05 -48.22,-40.01 -48.17,-39.97 -48.12,-39.93 -48.07,-39.88 -48.02,-39.84 -47.97,-39.8 -47.92,-39.76 -47.87,-39.72 -47.82,-39.67 -47.78,-39.63 -47.73,-39.59 -47.68,-39.55 -47.63,-39.51 -47.58,-39.46 -47.53,-39.42 -47.48,-39.38 -47.43,-39.34 -47.38,-39.3 -47.34,-39.25 -47.29,-39.21 -47.24,-39.17 -47.19,-39.13 -47.14,-39.08 -47.09,-39.04 -47.04,-39 -46.99,-38.96 -46.94,-38.92 -46.9,-38.87 -46.85,-38.83 -46.8,-38.79 -46.75,-38.75 -46.7,-38.7 -46.65,-38.66 -46.6,-38.62 -46.55,-38.57 -46.5,-38.53 -46.46,-38.49 -46.41,-38.45 -46.36,-38.4 -46.31,-38.36 -46.26,-38.32 -46.21,-38.28 -46.16,-38.23 -46.11,-38.19 -46.06,-38.15 -46.02,-38.1 -45.97,-38.06 -45.92,-38.02 -45.87,-37.97 -45.82,-37.93 -45.77,-37.89 -45.72,-37.85 -45.67,-37.8 -45.62,-37.76 -45.58,-37.72 -45.53,-37.67 -45.48,-37.63 -45.43,-37.59 -45.38,-37.54 -45.33,-37.5 -45.28,-37.46 -45.23,-37.41 -45.18,-37.37 -45.14,-37.33 -45.09,-37.28 -45.04,-37.24 -44.99,-37.2 -44.94,-37.15 -44.89,-37.11 -44.84,-37.07 -44.79,-37.02 -44.75,-36.98 -44.7,-36.93 -44.65,-36.89 -44.6,-36.85 -44.55,-36.8 -44.5,-36.76 -44.45,-36.72 -44.4,-36.67 -44.35,-36.63 -44.31,-36.58 -44.26,-36.54 -44.21,-36.5 -44.16,-36.45 -44.11,-36.41 -44.06,-36.37 -44.01,-36.32 -43.96,-36.28 -43.91,-36.23 -43.87,-36.19 -43.82,-36.15 -43.77,-36.1 -43.72,-36.06 -43.67,-36.01 -43.62,-35.97 -43.57,-35.92 -43.52,-35.88 -43.47,-35.84 -43.43,-35.79 -43.38,-35.75 -43.33,-35.7 -43.28,-35.66 -43.23,-35.61 -43.18,-35.57 -43.13,-35.53 -43.08,-35.48 -43.03,-35.44 -42.99,-35.39 -42.94,-35.35 -42.89,-35.3 -42.84,-35.26 -42.79,-35.21 -42.74,-35.17 -42.69,-35.13 -42.64,-35.08 -42.59,-35.04 -42.55,-34.99 -42.5,-34.95 -42.45,-34.9 -42.4,-34.86 -42.35,-34.81 -42.3,-34.77 -42.25,-34.72 -42.2,-34.68 -42.15,-34.63 -42.11,-34.59 -42.06,-34.54 -42.01,-34.5 -41.96,-34.45 -41.91,-34.41 -41.86,-34.36 -41.81,-34.32 -41.76,-34.27 -41.71,-34.23 -41.67,-34.18 -41.62,-34.14 -41.57,-34.09 -41.52,-34.05 -41.47,-34 -41.42,-33.96 -41.37,-33.91 -41.32,-33.87 -41.27,-33.82 -41.23,-33.78 -41.18,-33.73 -41.13,-33.69 -41.08,-33.64 -41.03,-33.6 -40.98,-33.55 -40.93,-33.51 -40.88,-33.46 -40.84,-33.41 -40.79,-33.37 -40.74,-33.32 -40.69,-33.28 -40.64,-33.23 -40.59,-33.19 -40.54,-33.14 -40.49,-33.1 -40.44,-33.05 -40.4,-33 -40.35,-32.96 -40.3,-32.91 -40.25,-32.87 -40.2,-32.82 -40.15,-32.78 -40.1,-32.73 -40.05,-32.68 -40,-32.64 -39.96,-32.59 -39.91,-32.55 -39.86,-32.5 -39.81,-32.46 -39.76,-32.41 -39.71,-32.36 -39.66,-32.32 -39.61,-32.27 -39.56,-32.23 -39.52,-32.18 -39.47,-32.13 -39.42,-32.09 -39.37,-32.04 -39.32,-32 -39.27,-31.95 -39.22,-31.9 -39.17,-31.86 -39.12,-31.81 -39.08,-31.77 -39.03,-31.72 -38.98,-31.67 -38.93,-31.63 -38.88,-31.58 -38.83,-31.53 -38.78,-31.49 -38.73,-31.44 -38.68,-31.4 -38.64,-31.35 -38.59,-31.3 -38.54,-31.26 -38.49,-31.21 -38.44,-31.16 -38.39,-31.12 -38.34,-31.07 -38.29,-31.02 -38.24,-30.98 -38.2,-30.93 -38.15,-30.88 -38.1,-30.84 -38.05,-30.79 -38,-30.75 -37.95,-30.7 -37.9,-30.65 -37.85,-30.61 -37.8,-30.56 -37.76,-30.51 -37.71,-30.47 -37.66,-30.42 -37.61,-30.37 -37.56,-30.33 -37.51,-30.28 -37.46,-30.23 -37.41,-30.19 -37.36,-30.14 -37.32,-30.09 -37.27,-30.04 -37.22,-30 -37.17,-29.95 -37.12,-29.9 -37.07,-29.86 -37.02,-29.81 -36.97,-29.76 -36.93,-29.72 -36.88,-29.67 -36.83,-29.62 -36.78,-29.58 -36.73,-29.53 -36.68,-29.48 -36.63,-29.43 -36.58,-29.39 -36.53,-29.34 -36.49,-29.29 -36.44,-29.25 -36.39,-29.2 -36.34,-29.15 -36.29,-29.11 -36.24,-29.06 -36.19,-29.01 -36.14,-28.96 -36.09,-28.92 -36.05,-28.87 -36,-28.82 -35.95,-28.77 -35.9,-28.73 -35.85,-28.68 -35.8,-28.63 -35.75,-28.59 -35.7,-28.54 -35.65,-28.49 -35.61,-28.44 -35.56,-28.4 -35.51,-28.35 -35.46,-28.3 -35.41,-28.25 -35.36,-28.21 -35.31,-28.16 -35.26,-28.11 -35.21,-28.06 -35.17,-28.02 -35.12,-27.97 -35.07,-27.92 -35.02,-27.87 -34.97,-27.83 -34.92,-27.78 -34.87,-27.73 -34.82,-27.68 -34.77,-27.64 -34.73,-27.59 -34.68,-27.54 -34.63,-27.49 -34.58,-27.45 -34.53,-27.4 -34.48,-27.35 -34.43,-27.3 -34.38,-27.25 -34.33,-27.21 -34.29,-27.16 -34.24,-27.11 -34.19,-27.06 -34.14,-27.02 -34.09,-26.97 -34.04,-26.92 -33.99,-26.87 -33.94,-26.82 -33.89,-26.78 -33.85,-26.73 -33.8,-26.68 -33.75,-26.63 -33.7,-26.59 -33.65,-26.54 -33.6,-26.49 -33.55,-26.44 -33.5,-26.39 -33.45,-26.35 -33.41,-26.3 -33.36,-26.25 -33.31,-26.2 -33.26,-26.15 -33.21,-26.11 -33.16,-26.06 -33.11,-26.01 -33.06,-25.96 -33.02,-25.91 -32.97,-25.87 -32.92,-25.82 -32.87,-25.77 -32.82,-25.72 -32.77,-25.67 -32.72,-25.62 -32.67,-25.58 -32.62,-25.53 -32.58,-25.48 -32.53,-25.43 -32.48,-25.38 -32.43,-25.34 -32.38,-25.29 -32.33,-25.24 -32.28,-25.19 -32.23,-25.14 -32.18,-25.09 -32.14,-25.05 -32.09,-25 -32.04,-24.95 -31.99,-24.9 -31.94,-24.85 -31.89,-24.8 -31.84,-24.76 -31.79,-24.71 -31.74,-24.66 -31.7,-24.61 -31.65,-24.56 -31.6,-24.51 -31.55,-24.47 -31.5,-24.42 -31.45,-24.37 -31.4,-24.32 -31.35,-24.27 -31.3,-24.22 -31.26,-24.17 -31.21,-24.13 -31.16,-24.08 -31.11,-24.03 -31.06,-23.98 -31.01,-23.93 -30.96,-23.88 -30.91,-23.84 -30.86,-23.79 -30.82,-23.74 -30.77,-23.69 -30.72,-23.64 -30.67,-23.59 -30.62,-23.54 -30.57,-23.49 -30.52,-23.45 -30.47,-23.4 -30.42,-23.35 -30.38,-23.3 -30.33,-23.25 -30.28,-23.2 -30.23,-23.15 -30.18,-23.11 -30.13,-23.06 -30.08,-23.01 -30.03,-22.96 -29.98,-22.91 -29.94,-22.86 -29.89,-22.81 -29.84,-22.76 -29.79,-22.72 -29.74,-22.67 -29.69,-22.62 -29.64,-22.57 -29.59,-22.52 -29.54,-22.47 -29.5,-22.42 -29.45,-22.37 -29.4,-22.33 -29.35,-22.28 -29.3,-22.23 -29.25,-22.18 -29.2,-22.13 -29.15,-22.08 -29.11,-22.03 -29.06,-21.98 -29.01,-21.93 -28.96,-21.89 -28.91,-21.84 -28.86,-21.79 -28.81,-21.74 -28.76,-21.69 -28.71,-21.64 -28.67,-21.59 -28.62,-21.54 -28.57,-21.49 -28.52,-21.45 -28.47,-21.4 -28.42,-21.35 -28.37,-21.3 -28.32,-21.25 -28.27,-21.2 -28.23,-21.15 -28.18,-21.1 -28.13,-21.05 -28.08,-21 -28.03,-20.96 -27.98,-20.91 -27.93,-20.86 -27.88,-20.81 -27.83,-20.76 -27.79,-20.71 -27.74,-20.66 -27.69,-20.61 -27.64,-20.56 -27.59,-20.51 -27.54,-20.47 -27.49,-20.42 -27.44,-20.37 -27.39,-20.32 -27.35,-20.27 -27.3,-20.22 -27.25,-20.17 -27.2,-20.12 -27.15,-20.07 -27.1,-20.02 -27.05,-19.97 -27,-19.92 -26.95,-19.88 -26.91,-19.83 -26.86,-19.78 -26.81,-19.73 -26.76,-19.68 -26.71,-19.63 -26.66,-19.58 -26.61,-19.53 -26.56,-19.48 -26.51,-19.43 -26.47,-19.38 -26.42,-19.33 -26.37,-19.29 -26.32,-19.24 -26.27,-19.19 -26.22,-19.14 -26.17,-19.09 -26.12,-19.04 -26.07,-18.99 -26.03,-18.94 -25.98,-18.89 -25.93,-18.84 -25.88,-18.79 -25.83,-18.74 -25.78,-18.7 -25.73,-18.65 -25.68,-18.6 -25.63,-18.55 -25.59,-18.5 -25.54,-18.45 -25.49,-18.4 -25.44,-18.35 -25.39,-18.3 -25.34,-18.25 -25.29,-18.2 -25.24,-18.15 -25.2,-18.1 -25.15,-18.05 -25.1,-18.01 -25.05,-17.96 -25,-17.91 -24.95,-17.86 -24.9,-17.81 -24.85,-17.76 -24.8,-17.71 -24.76,-17.66 -24.71,-17.61 -24.66,-17.56 -24.61,-17.51 -24.56,-17.46 -24.51,-17.41 -24.46,-17.36 -24.41,-17.32 -24.36,-17.27 -24.32,-17.22 -24.27,-17.17 -24.22,-17.12 -24.17,-17.07 -24.12,-17.02 -24.07,-16.97 -24.02,-16.92 -23.97,-16.87 -23.92,-16.82 -23.88,-16.77 -23.83,-16.72 -23.78,-16.67 -23.73,-16.62 -23.68,-16.58 -23.63,-16.53 -23.58,-16.48 -23.53,-16.43 -23.48,-16.38 -23.44,-16.33 -23.39,-16.28 -23.34,-16.23 -23.29,-16.18 -23.24,-16.13 -23.19,-16.08 -23.14,-16.03 -23.09,-15.98 -23.04,-15.93 -23,-15.88 -22.95,-15.84 -22.9,-15.79 -22.85,-15.74 -22.8,-15.69 -22.75,-15.64 -22.7,-15.59 -22.65,-15.54 -22.6,-15.49 -22.56,-15.44 -22.51,-15.39 -22.46,-15.34 -22.41,-15.29 -22.36,-15.24 -22.31,-15.19 -22.26,-15.14 -22.21,-15.09 -22.16,-15.05 -22.12,-15 -22.07,-14.95 -22.02,-14.9 -21.97,-14.85 -21.92,-14.8 -21.87,-14.75 -21.82,-14.7 -21.77,-14.65 -21.72,-14.6 -21.68,-14.55 -21.63,-14.5 -21.58,-14.45 -21.53,-14.4 -21.48,-14.36 -21.43,-14.31 -21.38,-14.26 -21.33,-14.21 -21.29,-14.16 -21.24,-14.11 -21.19,-14.06 -21.14,-14.01 -21.09,-13.96 -21.04,-13.91 -20.99,-13.86 -20.94,-13.81 -20.89,-13.76 -20.85,-13.71 -20.8,-13.66 -20.75,-13.62 -20.7,-13.57 -20.65,-13.52 -20.6,-13.47 -20.55,-13.42 -20.5,-13.37 -20.45,-13.32 -20.41,-13.27 -20.36,-13.22 -20.31,-13.17 -20.26,-13.12 -20.21,-13.07 -20.16,-13.02 -20.11,-12.98 -20.06,-12.93 -20.01,-12.88 -19.97,-12.83 -19.92,-12.78 -19.87,-12.73 -19.82,-12.68 -19.77,-12.63 -19.72,-12.58 -19.67,-12.53 -19.62,-12.48 -19.57,-12.43 -19.53,-12.38 -19.48,-12.34 -19.43,-12.29 -19.38,-12.24 -19.33,-12.19 -19.28,-12.14 -19.23,-12.09 -19.18,-12.04 -19.13,-11.99 -19.09,-11.94 -19.04,-11.89 -18.99,-11.84 -18.94,-11.79 -18.89,-11.75 -18.84,-11.7 -18.79,-11.65 -18.74,-11.6 -18.69,-11.55 -18.65,-11.5 -18.6,-11.45 -18.55,-11.4 -18.5,-11.35 -18.45,-11.3 -18.4,-11.25 -18.35,-11.2 -18.3,-11.16 -18.25,-11.11 -18.21,-11.06 -18.16,-11.01 -18.11,-10.96 -18.06,-10.91 -18.01,-10.86 -17.96,-10.81 -17.91,-10.76 -17.86,-10.71 -17.81,-10.67 -17.77,-10.62 -17.72,-10.57 -17.67,-10.52 -17.62,-10.47 -17.57,-10.42 -17.52,-10.37 -17.47,-10.32 -17.42,-10.27 -17.38,-10.22 -17.33,-10.18 -17.28,-10.13 -17.23,-10.08 -17.18,-10.03 -17.13,-9.98 -17.08,-9.93 -17.03,-9.88 -16.98,-9.83 -16.94,-9.78 -16.89,-9.74 -16.84,-9.69 -16.79,-9.64 -16.74,-9.59 -16.69,-9.54 -16.64,-9.49 -16.59,-9.44 -16.54,-9.39 -16.5,-9.34 -16.45,-9.3 -16.4,-9.25 -16.35,-9.2 -16.3,-9.15 -16.25,-9.1 -16.2,-9.05 -16.15,-9 -16.1,-8.95 -16.06,-8.91 -16.01,-8.86 -15.96,-8.81 -15.91,-8.76 -15.86,-8.71 -15.81,-8.66 -15.76,-8.61 -15.71,-8.56 -15.66,-8.52 -15.62,-8.47 -15.57,-8.42 -15.52,-8.37 -15.47,-8.32 -15.42,-8.27 -15.37,-8.22 -15.32,-8.17 -15.27,-8.13 -15.22,-8.08 -15.18,-8.03 -15.13,-7.98 -15.08,-7.93 -15.03,-7.88 -14.98,-7.83 -14.93,-7.79 -14.88,-7.74 -14.83,-7.69 -14.78,-7.64 -14.74,-7.59 -14.69,-7.54 -14.64,-7.49 -14.59,-7.45 -14.54,-7.4 -14.49,-7.35 -14.44,-7.3 -14.39,-7.25 -14.34,-7.2 -14.3,-7.16 -14.25,-7.11 -14.2,-7.06 -14.15,-7.01 -14.1,-6.96 -14.05,-6.91 -14,-6.87 -13.95,-6.82 -13.9,-6.77 -13.86,-6.72 -13.81,-6.67 -13.76,-6.62 -13.71,-6.58 -13.66,-6.53 -13.61,-6.48 -13.56,-6.43 -13.51,-6.38 -13.47,-6.33 -13.42,-6.29 -13.37,-6.24 -13.32,-6.19 -13.27,-6.14 -13.22,-6.09 -13.17,-6.05 -13.12,-6 -13.07,-5.95 -13.03,-5.9 -12.98,-5.85 -12.93,-5.8 -12.88,-5.76 -12.83,-5.71 -12.78,-5.66 -12.73,-5.61 -12.68,-5.56 -12.63,-5.52 -12.59,-5.47 -12.54,-5.42 -12.49,-5.37 -12.44,-5.32 -12.39,-5.28 -12.34,-5.23 -12.29,-5.18 -12.24,-5.13 -12.19,-5.08 -12.15,-5.04 -12.1,-4.99 -12.05,-4.94 -12,-4.89 -11.95,-4.84 -11.9,-4.8 -11.85,-4.75 -11.8,-4.7 -11.75,-4.65 -11.71,-4.61 -11.66,-4.56 -11.61,-4.51 -11.56,-4.46 -11.51,-4.41 -11.46,-4.37 -11.41,-4.32 -11.36,-4.27 -11.31,-4.22 -11.27,-4.18 -11.22,-4.13 -11.17,-4.08 -11.12,-4.03 -11.07,-3.99 -11.02,-3.94 -10.97,-3.89 -10.92,-3.84 -10.87,-3.8 -10.83,-3.75 -10.78,-3.7 -10.73,-3.65 -10.68,-3.61 -10.63,-3.56 -10.58,-3.51 -10.53,-3.46 -10.48,-3.42 -10.43,-3.37 -10.39,-3.32 -10.34,-3.27 -10.29,-3.23 -10.24,-3.18 -10.19,-3.13 -10.14,-3.08 -10.09,-3.04 -10.04,-2.99 -9.99,-2.94 -9.95,-2.9 -9.9,-2.85 -9.85,-2.8 -9.8,-2.75 -9.75,-2.71 -9.7,-2.66 -9.65,-2.61 -9.6,-2.56 -9.56,-2.52 -9.51,-2.47 -9.46,-2.42 -9.41,-2.38 -9.36,-2.33 -9.31,-2.28 -9.26,-2.24 -9.21,-2.19 -9.16,-2.14 -9.12,-2.09 -9.07,-2.05 -9.02,-2 -8.97,-1.95 -8.92,-1.91 -8.87,-1.86 -8.82,-1.81 -8.77,-1.77 -8.72,-1.72 -8.68,-1.67 -8.63,-1.63 -8.58,-1.58 -8.53,-1.53 -8.48,-1.48 -8.43,-1.44 -8.38,-1.39 -8.33,-1.34 -8.28,-1.3 -8.24,-1.25 -8.19,-1.2 -8.14,-1.16 -8.09,-1.11 -8.04,-1.06 -7.99,-1.02 -7.94,-0.97 -7.89,-0.93 -7.84,-0.88 -7.8,-0.83 -7.75,-0.79 -7.7,-0.74 -7.65,-0.69 -7.6,-0.65 -7.55,-0.6 -7.5,-0.55 -7.45,-0.51 -7.4,-0.46 -7.36,-0.41 -7.31,-0.37 -7.26,-0.32 -7.21,-0.28 -7.16,-0.23 -7.11,-0.18 -7.06,-0.14 -7.01,-0.09 -6.96,-0.04 -6.92,0 -6.87,0.05 -6.82,0.09 -6.77,0.14 -6.72,0.19 -6.67,0.23 -6.62,0.28 -6.57,0.32 -6.52,0.37 -6.48,0.42 -6.43,0.46 -6.38,0.51 -6.33,0.55 -6.28,0.6 -6.23,0.65 -6.18,0.69 -6.13,0.74 -6.08,0.78 -6.04,0.83 -5.99,0.88 -5.94,0.92 -5.89,0.97 -5.84,1.01 -5.79,1.06 -5.74,1.1 -5.69,1.15 -5.65,1.2 -5.6,1.24 -5.55,1.29 -5.5,1.33 -5.45,1.38 -5.4,1.42 -5.35,1.47 -5.3,1.52 -5.25,1.56 -5.21,1.61 -5.16,1.65 -5.11,1.7 -5.06,1.74 -5.01,1.79 -4.96,1.83 -4.91,1.88 -4.86,1.92 -4.81,1.97 -4.77,2.01 -4.72,2.06 -4.67,2.1 -4.62,2.15 -4.57,2.2 -4.52,2.24 -4.47,2.29 -4.42,2.33 -4.37,2.38 -4.33,2.42 -4.28,2.47 -4.23,2.51 -4.18,2.56 -4.13,2.6 -4.08,2.65 -4.03,2.69 -3.98,2.74 -3.93,2.78 -3.89,2.83 -3.84,2.87 -3.79,2.92 -3.74,2.96 -3.69,3.01 -3.64,3.05 -3.59,3.09 -3.54,3.14 -3.49,3.18 -3.45,3.23 -3.4,3.27 -3.35,3.32 -3.3,3.36 -3.25,3.41 -3.2,3.45 -3.15,3.5 -3.1,3.54 -3.05,3.59 -3.01,3.63 -2.96,3.67 -2.91,3.72 -2.86,3.76 -2.81,3.81 -2.76,3.85 -2.71,3.9 -2.66,3.94 -2.61,3.98 -2.57,4.03 -2.52,4.07 -2.47,4.12 -2.42,4.16 -2.37,4.21 -2.32,4.25 -2.27,4.29 -2.22,4.34 -2.17,4.38 -2.13,4.43 -2.08,4.47 -2.03,4.51 -1.98,4.56 -1.93,4.6 -1.88,4.65 -1.83,4.69 -1.78,4.73 -1.74,4.78 -1.69,4.82 -1.64,4.87 -1.59,4.91 -1.54,4.95 -1.49,5 -1.44,5.04 -1.39,5.08 -1.34,5.13 -1.3,5.17 -1.25,5.21 -1.2,5.26 -1.15,5.3 -1.1,5.35 -1.05,5.39 -1,5.43 -0.95,5.48 -0.9,5.52 -0.86,5.56 -0.81,5.61 -0.76,5.65 -0.71,5.69 -0.66,5.74 -0.61,5.78 -0.56,5.82 -0.51,5.87 -0.46,5.91 -0.42,5.95 -0.37,5.99 -0.32,6.04 -0.27,6.08 -0.22,6.12 -0.17,6.17 -0.12,6.21 -0.07,6.25 -0.02,6.3 0.02,6.34 0.07,6.38 0.12,6.42 0.17,6.47 0.22,6.51 0.27,6.55 0.32,6.6 0.37,6.64 0.42,6.68 0.46,6.72 0.51,6.77 0.56,6.81 0.61,6.85 0.66,6.89 0.71,6.94 0.76,6.98 0.81,7.02 0.86,7.06 0.9,7.11 0.95,7.15 1,7.19 1.05,7.23 1.1,7.28 1.15,7.32 1.2,7.36 1.25,7.4 1.3,7.45 1.34,7.49 1.39,7.53 1.44,7.57 1.49,7.61 1.54,7.66 1.59,7.7 1.64,7.74 1.69,7.78 1.74,7.82 1.78,7.87 1.83,7.91 1.88,7.95 1.93,7.99 1.98,8.03 2.03,8.07 2.08,8.12 2.13,8.16 2.17,8.2 2.22,8.24 2.27,8.28 2.32,8.32 2.37,8.37 2.42,8.41 2.47,8.45 2.52,8.49 2.57,8.53 2.61,8.57 2.66,8.62 2.71,8.66 2.76,8.7 2.81,8.74 2.86,8.78 2.91,8.82 2.96,8.86 3.01,8.9 3.05,8.95 3.1,8.99 3.15,9.03 3.2,9.07 3.25,9.11 3.3,9.15 3.35,9.19 3.4,9.23 3.45,9.27 3.49,9.31 3.54,9.36 3.59,9.4 3.64,9.44 3.69,9.48 3.74,9.52 3.79,9.56 3.84,9.6 3.89,9.64 3.93,9.68 3.98,9.72 4.03,9.76 4.08,9.8 4.13,9.84 4.18,9.88 4.23,9.92 4.28,9.96 4.33,10 4.37,10.04 4.42,10.09 4.47,10.13 4.52,10.17 4.57,10.21 4.62,10.25 4.67,10.29 4.72,10.33 4.77,10.37 4.81,10.41 4.86,10.45 4.91,10.49 4.96,10.53 5.01,10.57 5.06,10.61 5.11,10.65 5.16,10.69 5.21,10.73 5.25,10.77 5.3,10.81 5.35,10.84 5.4,10.88 5.45,10.92 5.5,10.96 5.55,11 5.6,11.04 5.65,11.08 5.69,11.12 5.74,11.16 5.79,11.2 5.84,11.24 5.89,11.28 5.94,11.32 5.99,11.36 6.04,11.4 6.08,11.44 6.13,11.48 6.18,11.51 6.23,11.55 6.28,11.59 6.33,11.63 6.38,11.67 6.43,11.71 6.48,11.75 6.52,11.79 6.57,11.83 6.62,11.87 6.67,11.9 6.72,11.94 6.77,11.98 6.82,12.02 6.87,12.06 6.92,12.1 6.96,12.14 7.01,12.17 7.06,12.21 7.11,12.25 7.16,12.29 7.21,12.33 7.26,12.37 7.31,12.41 7.36,12.44 7.4,12.48 7.45,12.52 7.5,12.56 7.55,12.6 7.6,12.64 7.65,12.67 7.7,12.71 7.75,12.75 7.8,12.79 7.84,12.83 7.89,12.86 7.94,12.9 7.99,12.94 8.04,12.98 8.09,13.01 8.14,13.05 8.19,13.09 8.24,13.13 8.28,13.17 8.33,13.2 8.38,13.24 8.43,13.28 8.48,13.32 8.53,13.35 8.58,13.39 8.63,13.43 8.68,13.47 8.72,13.5 8.77,13.54 8.82,13.58 8.87,13.62 8.92,13.65 8.97,13.69 9.02,13.73 9.07,13.76 9.12,13.8 9.16,13.84 9.21,13.87 9.26,13.91 9.31,13.95 9.36,13.99 9.41,14.02 9.46,14.06 9.51,14.1 9.56,14.13 9.6,14.17 9.65,14.21 9.7,14.24 9.75,14.28 9.8,14.32 9.85,14.35 9.9,14.39 9.95,14.43 9.99,14.46 10.04,14.5 10.09,14.53 10.14,14.57 10.19,14.61 10.24,14.64 10.29,14.68 10.34,14.72 10.39,14.75 10.43,14.79 10.48,14.82 10.53,14.86 10.58,14.9 10.63,14.93 10.68,14.97 10.73,15 10.78,15.04 10.83,15.08 10.87,15.11 10.92,15.15 10.97,15.18 11.02,15.22 11.07,15.25 11.12,15.29 11.17,15.33 11.22,15.36 11.27,15.4 11.31,15.43 11.36,15.47 11.41,15.5 11.46,15.54 11.51,15.57 11.56,15.61 11.61,15.64 11.66,15.68 11.71,15.71 11.75,15.75 11.8,15.78 11.85,15.82 11.9,15.85 11.95,15.89 12,15.92 12.05,15.96 12.1,15.99 12.15,16.03 12.19,16.06 12.24,16.1 12.29,16.13 12.34,16.17 12.39,16.2 12.44,16.24 12.49,16.27 12.54,16.3 12.59,16.34 12.63,16.37 12.68,16.41 12.73,16.44 12.78,16.48 12.83,16.51 12.88,16.54 12.93,16.58 12.98,16.61 13.03,16.65 13.07,16.68 13.12,16.72 13.17,16.75 13.22,16.78 13.27,16.82 13.32,16.85 13.37,16.88 13.42,16.92 13.47,16.95 13.51,16.99 13.56,17.02 13.61,17.05 13.66,17.09 13.71,17.12 13.76,17.15 13.81,17.19 13.86,17.22 13.9,17.25 13.95,17.29 14,17.32 14.05,17.35 14.1,17.39 14.15,17.42 14.2,17.45 14.25,17.49 14.3,17.52 14.34,17.55 14.39,17.59 14.44,17.62 14.49,17.65 14.54,17.68 14.59,17.72 14.64,17.75 14.69,17.78 14.74,17.82 14.78,17.85 14.83,17.88 14.88,17.91 14.93,17.95 14.98,17.98 15.03,18.01 15.08,18.04 15.13,18.08 15.18,18.11 15.22,18.14 15.27,18.17 15.32,18.2 15.37,18.24 15.42,18.27 15.47,18.3 15.52,18.33 15.57,18.36 15.62,18.4 15.66,18.43 15.71,18.46 15.76,18.49 15.81,18.52 15.86,18.56 15.91,18.59 15.96,18.62 16.01,18.65 16.06,18.68 16.1,18.71 16.15,18.75 16.2,18.78 16.25,18.81 16.3,18.84 16.35,18.87 16.4,18.9 16.45,18.93 16.5,18.96 16.54,19 16.59,19.03 16.64,19.06 16.69,19.09 16.74,19.12 16.79,19.15 16.84,19.18 16.89,19.21 16.94,19.24 16.98,19.27 17.03,19.31 17.08,19.34 17.13,19.37 17.18,19.4 17.23,19.43 17.28,19.46 17.33,19.49 17.38,19.52 17.42,19.55 17.47,19.58 17.52,19.61 17.57,19.64 17.62,19.67 17.67,19.7 17.72,19.73 17.77,19.76 17.81,19.79 17.86,19.82 17.91,19.85 17.96,19.88 18.01,19.91 18.06,19.94 18.11,19.97 18.16,20 18.21,20.03 18.25,20.06 18.3,20.09 18.35,20.12 18.4,20.15 18.45,20.18 18.5,20.21 18.55,20.24 18.6,20.27 18.65,20.3 18.69,20.33 18.74,20.35 18.79,20.38 18.84,20.41 18.89,20.44 18.94,20.47 18.99,20.5 19.04,20.53 19.09,20.56 19.13,20.59 19.18,20.62 19.23,20.64 19.28,20.67 19.33,20.7 19.38,20.73 19.43,20.76 19.48,20.79 19.53,20.82 19.57,20.84 19.62,20.87 19.67,20.9 19.72,20.93 19.77,20.96 19.82,20.99 19.87,21.01 19.92,21.04 19.97,21.07 20.01,21.1 20.06,21.13 20.11,21.16 20.16,21.18 20.21,21.21 20.26,21.24 20.31,21.27 20.36,21.29 20.41,21.32 20.45,21.35 20.5,21.38 20.55,21.41 20.6,21.43 20.65,21.46 20.7,21.49 20.75,21.52 20.8,21.54 20.85,21.57 20.89,21.6 20.94,21.62 20.99,21.65 21.04,21.68 21.09,21.71 21.14,21.73 21.19,21.76 21.24,21.79 21.29,21.81 21.33,21.84 21.38,21.87 21.43,21.89 21.48,21.92 21.53,21.95 21.58,21.97 21.63,22 21.68,22.03 21.72,22.05 21.77,22.08 21.82,22.11 21.87,22.13 21.92,22.16 21.97,22.19 22.02,22.21 22.07,22.24 22.12,22.27 22.16,22.29 22.21,22.32 22.26,22.34 22.31,22.37 22.36,22.4 22.41,22.42 22.46,22.45 22.51,22.47 22.56,22.5 22.6,22.52 22.65,22.55 22.7,22.58 22.75,22.6 22.8,22.63 22.85,22.65 22.9,22.68 22.95,22.7 23,22.73 23.04,22.75 23.09,22.78 23.14,22.8 23.19,22.83 23.24,22.85 23.29,22.88 23.34,22.9 23.39,22.93 23.44,22.95 23.48,22.98 23.53,23 23.58,23.03 23.63,23.05 23.68,23.08 23.73,23.1 23.78,23.13 23.83,23.15 23.88,23.18 23.92,23.2 23.97,23.23 24.02,23.25 24.07,23.27 24.12,23.3 24.17,23.32 24.22,23.35 24.27,23.37 24.32,23.4 24.36,23.42 24.41,23.44 24.46,23.47 24.51,23.49 24.56,23.51 24.61,23.54 24.66,23.56 24.71,23.59 24.76,23.61 24.8,23.63 24.85,23.66 24.9,23.68 24.95,23.7 25,23.73 25.05,23.75 25.1,23.77 25.15,23.8 25.2,23.82 25.24,23.84 25.29,23.87 25.34,23.89 25.39,23.91 25.44,23.94 25.49,23.96 25.54,23.98 25.59,24 25.63,24.03 25.68,24.05 25.73,24.07 25.78,24.1 25.83,24.12 25.88,24.14 25.93,24.16 25.98,24.19 26.03,24.21 26.07,24.23 26.12,24.25 26.17,24.28 26.22,24.3 26.27,24.32 26.32,24.34 26.37,24.36 26.42,24.39 26.47,24.41 26.51,24.43 26.56,24.45 26.61,24.47 26.66,24.5 26.71,24.52 26.76,24.54 26.81,24.56 26.86,24.58 26.91,24.6 26.95,24.63 27,24.65 27.05,24.67 27.1,24.69 27.15,24.71 27.2,24.73 27.25,24.75 27.3,24.77 27.35,24.8 27.39,24.82 27.44,24.84 27.49,24.86 27.54,24.88 27.59,24.9 27.64,24.92 27.69,24.94 27.74,24.96 27.79,24.98 27.83,25 27.88,25.02 27.93,25.05 27.98,25.07 28.03,25.09 28.08,25.11 28.13,25.13 28.18,25.15 28.23,25.17 28.27,25.19 28.32,25.21 28.37,25.23 28.42,25.25 28.47,25.27 28.52,25.29 28.57,25.31 28.62,25.33 28.67,25.35 28.71,25.37 28.76,25.39 28.81,25.41 28.86,25.43 28.91,25.45 28.96,25.46 29.01,25.48 29.06,25.5 29.11,25.52 29.15,25.54 29.2,25.56 29.25,25.58 29.3,25.6 29.35,25.62 29.4,25.64 29.45,25.66 29.5,25.68 29.54,25.7 29.59,25.71 29.64,25.73 29.69,25.75 29.74,25.77 29.79,25.79 29.84,25.81 29.89,25.83 29.94,25.84 29.98,25.86 30.03,25.88 30.08,25.9 30.13,25.92 30.18,25.94 30.23,25.95 30.28,25.97 30.33,25.99 30.38,26.01 30.42,26.03 30.47,26.05 30.52,26.06 30.57,26.08 30.62,26.1 30.67,26.12 30.72,26.13 30.77,26.15 30.82,26.17 30.86,26.19 30.91,26.2 30.96,26.22 31.01,26.24 31.06,26.26 31.11,26.27 31.16,26.29 31.21,26.31 31.26,26.33 31.3,26.34 31.35,26.36 31.4,26.38 31.45,26.39 31.5,26.41 31.55,26.43 31.6,26.44 31.65,26.46 31.7,26.48 31.74,26.49 31.79,26.51 31.84,26.53 31.89,26.54 31.94,26.56 31.99,26.58 32.04,26.59 32.09,26.61 32.14,26.63 32.18,26.64 32.23,26.66 32.28,26.67 32.33,26.69 32.38,26.71 32.43,26.72 32.48,26.74 32.53,26.75 32.58,26.77 32.62,26.79 32.67,26.8 32.72,26.82 32.77,26.83 32.82,26.85 32.87,26.86 32.92,26.88 32.97,26.89 33.02,26.91 33.06,26.93 33.11,26.94 33.16,26.96 33.21,26.97 33.26,26.99 33.31,27 33.36,27.02 33.41,27.03 33.45,27.05 33.5,27.06 33.55,27.08 33.6,27.09 33.65,27.1 33.7,27.12 33.75,27.13 33.8,27.15 33.85,27.16 33.89,27.18 33.94,27.19 33.99,27.21 34.04,27.22 34.09,27.23 34.14,27.25 34.19,27.26 34.24,27.28 34.29,27.29 34.33,27.31 34.38,27.32 34.43,27.33 34.48,27.35 34.53,27.36 34.58,27.37 34.63,27.39 34.68,27.4 34.73,27.41 34.77,27.43 34.82,27.44 34.87,27.46 34.92,27.47 34.97,27.48 35.02,27.5 35.07,27.51 35.12,27.52 35.17,27.53 35.21,27.55 35.26,27.56 35.31,27.57 35.36,27.59 35.41,27.6 35.46,27.61 35.51,27.62 35.56,27.64 35.61,27.65 35.65,27.66 35.7,27.68 35.75,27.69 35.8,27.7 35.85,27.71 35.9,27.72 35.95,27.74 36,27.75 36.05,27.76 36.09,27.77 36.14,27.79 36.19,27.8 36.24,27.81 36.29,27.82 36.34,27.83 36.39,27.84 36.44,27.86 36.49,27.87 36.53,27.88 36.58,27.89 36.63,27.9 36.68,27.91 36.73,27.93 36.78,27.94 36.83,27.95 36.88,27.96 36.93,27.97 36.97,27.98 37.02,27.99 37.07,28 37.12,28.02 37.17,28.03 37.22,28.04 37.27,28.05 37.32,28.06 37.36,28.07 37.41,28.08 37.46,28.09 37.51,28.1 37.56,28.11 37.61,28.12 37.66,28.13 37.71,28.14 37.76,28.15 37.8,28.16 37.85,28.17 37.9,28.18 37.95,28.19 38,28.21 38.05,28.22 38.1,28.23 38.15,28.23 38.2,28.24 38.24,28.25 38.29,28.26 38.34,28.27 38.39,28.28 38.44,28.29 38.49,28.3 38.54,28.31 38.59,28.32 38.64,28.33 38.68,28.34 38.73,28.35 38.78,28.36 38.83,28.37 38.88,28.38 38.93,28.39 38.98,28.4 39.03,28.4 39.08,28.41 39.12,28.42 39.17,28.43 39.22,28.44 39.27,28.45 39.32,28.46 39.37,28.47 39.42,28.47 39.47,28.48 39.52,28.49 39.56,28.5 39.61,28.51 39.66,28.52 39.71,28.52 39.76,28.53 39.81,28.54 39.86,28.55 39.91,28.56 39.96,28.57 40,28.57 40.05,28.58 40.1,28.59 40.15,28.6 40.2,28.6 40.25,28.61 40.3,28.62 40.35,28.63 40.4,28.63 40.44,28.64 40.49,28.65 40.54,28.66 40.59,28.66 40.64,28.67 40.69,28.68 40.74,28.69 40.79,28.69 40.84,28.7 40.88,28.71 40.93,28.71 40.98,28.72 41.03,28.73 41.08,28.73 41.13,28.74 41.18,28.75 41.23,28.75 41.27,28.76 41.32,28.77 41.37,28.77 41.42,28.78 41.47,28.79 41.52,28.79 41.57,28.8 41.62,28.81 41.67,28.81 41.71,28.82 41.76,28.82 41.81,28.83 41.86,28.84 41.91,28.84 41.96,28.85 42.01,28.85 42.06,28.86 42.11,28.86 42.15,28.87 42.2,28.88 42.25,28.88 42.3,28.89 42.35,28.89 42.4,28.9 42.45,28.9 42.5,28.91 42.55,28.91 42.59,28.92 42.64,28.92 42.69,28.93 42.74,28.93 42.79,28.94 42.84,28.94 42.89,28.95 42.94,28.95 42.99,28.96 43.03,28.96 43.08,28.97 43.13,28.97 43.18,28.98 43.23,28.98 43.28,28.98 43.33,28.99 43.38,28.99 43.43,29 43.47,29 43.52,29.01 43.57,29.01 43.62,29.01 43.67,29.02 43.72,29.02 43.77,29.02 43.82,29.03 43.87,29.03 43.91,29.04 43.96,29.04 44.01,29.04 44.06,29.05 44.11,29.05 44.16,29.05 44.21,29.06 44.26,29.06 44.31,29.06 44.35,29.07 44.4,29.07 44.45,29.07 44.5,29.08 44.55,29.08 44.6,29.08 44.65,29.09 44.7,29.09 44.75,29.09 44.79,29.09 44.84,29.1 44.89,29.1 44.94,29.1 44.99,29.1 45.04,29.11 45.09,29.11 45.14,29.11 45.18,29.11 45.23,29.12 45.28,29.12 45.33,29.12 45.38,29.12 45.43,29.12 45.48,29.13 45.53,29.13 45.58,29.13 45.62,29.13 45.67,29.13 45.72,29.14 45.77,29.14 45.82,29.14 45.87,29.14 45.92,29.14 45.97,29.14 46.02,29.14 46.06,29.15 46.11,29.15 46.16,29.15 46.21,29.15 46.26,29.15 46.31,29.15 46.36,29.15 46.41,29.15 46.46,29.16 46.5,29.16 46.55,29.16 46.6,29.16 46.65,29.16 46.7,29.16 46.75,29.16 46.8,29.16 46.85,29.16 46.9,29.16 46.94,29.16 46.99,29.16 47.04,29.16 47.09,29.16 47.14,29.16 47.19,29.16 47.24,29.16 47.29,29.16 47.34,29.16 47.38,29.16 47.43,29.16 47.48,29.16 47.53,29.16 47.58,29.16 47.63,29.16 47.68,29.16 47.73,29.16 47.78,29.16 47.82,29.16 47.87,29.16 47.92,29.16 47.97,29.16 48.02,29.16 48.07,29.16 48.12,29.16 48.17,29.15 48.22,29.15 48.26,29.15 48.31,29.15 48.36,29.15 48.41,29.15 48.46,29.15 48.51,29.15 48.56,29.15 48.61,29.14 48.66,29.14 48.7,29.14 48.75,29.14 48.8,29.14 48.85,29.14 48.9,29.13 48.95,29.13 49,29.13 49.05,29.13 49.09,29.13 49.14,29.13 49.19,29.12 49.24,29.12 49.29,29.12 49.34,29.12 49.39,29.11 49.44,29.11 49.49,29.11 49.53,29.11 49.58,29.11 49.63,29.1 49.68,29.1 49.73,29.1 49.78,29.09 49.83,29.09 49.88,29.09 49.93,29.09 49.97,29.08 50.02,29.08 50.07,29.08 50.12,29.07 50.17,29.07 50.22,29.07 50.27,29.07 50.32,29.06 50.37,29.06 50.41,29.06 50.46,29.05 50.51,29.05 50.56,29.04 50.61,29.04 50.66,29.04 50.71,29.03 50.76,29.03 50.81,29.03 50.85,29.02 50.9,29.02 50.95,29.01 51,29.01 51.05,29.01 51.1,29 51.15,29 51.2,28.99 51.25,28.99 51.29,28.99 51.34,28.98 51.39,28.98 51.44,28.97 51.49,28.97 51.54,28.96 51.59,28.96 51.64,28.95 51.69,28.95 51.73,28.94 51.78,28.94 51.83,28.94 51.88,28.93 51.93,28.93 51.98,28.92 52.03,28.92 52.08,28.91 52.13,28.9 52.17,28.9 52.22,28.89 52.27,28.89 52.32,28.88 52.37,28.88 52.42,28.87 52.47,28.87 52.52,28.86 52.57,28.86 52.61,28.85 52.66,28.84 52.71,28.84 52.76,28.83 52.81,28.83 52.86,28.82 52.91,28.81 52.96,28.81 53,28.8 53.05,28.8 53.1,28.79 53.15,28.78 53.2,28.78 53.25,28.77 53.3,28.76 53.35,28.76 53.4,28.75 53.44,28.74 53.49,28.74 53.54,28.73 53.59,28.72 53.64,28.72 53.69,28.71 53.74,28.7 53.79,28.7 53.84,28.69 53.88,28.68 53.93,28.68 53.98,28.67 54.03,28.66 54.08,28.65 54.13,28.65 54.18,28.64 54.23,28.63 54.28,28.62 54.32,28.62 54.37,28.61 54.42,28.6 54.47,28.59 54.52,28.59 54.57,28.58 54.62,28.57 54.67,28.56 54.72,28.55 54.76,28.55 54.81,28.54 54.86,28.53 54.91,28.52 54.96,28.51 55.01,28.51 55.06,28.5 55.11,28.49 55.16,28.48 55.2,28.47 55.25,28.46 55.3,28.46 55.35,28.45 55.4,28.44 55.45,28.43 55.5,28.42 55.55,28.41 55.6,28.4 55.64,28.39 55.69,28.38 55.74,28.38 55.79,28.37 55.84,28.36 55.89,28.35 55.94,28.34 55.99,28.33 56.04,28.32 56.08,28.31 56.13,28.3 56.18,28.29 56.23,28.28 56.28,28.27 56.33,28.26 56.38,28.25 56.43,28.24 56.48,28.23 56.52,28.22 56.57,28.21 56.62,28.2 56.67,28.19 56.72,28.18 56.77,28.17 56.82,28.16 56.87,28.15 56.91,28.14 56.96,28.13 57.01,28.12 57.06,28.11 57.11,28.1 57.16,28.09 57.21,28.08 57.26,28.07 57.31,28.06 57.35,28.05 57.4,28.04 57.45,28.03 57.5,28.02 57.55,28 57.6,27.99 57.65,27.98 57.7,27.97 57.75,27.96 57.79,27.95 57.84,27.94 57.89,27.93 57.94,27.91 57.99,27.9 58.04,27.89 58.09,27.88 58.14,27.87 58.19,27.86 58.23,27.85 58.28,27.83 58.33,27.82 58.38,27.81 58.43,27.8 58.48,27.79 58.53,27.77 58.58,27.76 58.63,27.75 58.67,27.74 58.72,27.73 58.77,27.71 58.82,27.7 58.87,27.69 58.92,27.68 58.97,27.66 59.02,27.65 59.07,27.64 59.11,27.63 59.16,27.61 59.21,27.6 59.26,27.59 59.31,27.58 59.36,27.56 59.41,27.55 59.46,27.54 59.51,27.52 59.55,27.51 59.6,27.5 59.65,27.48 59.7,27.47 59.75,27.46 59.8,27.44 59.85,27.43 59.9,27.42 59.95,27.4 59.99,27.39 60.04,27.38 60.09,27.36 60.14,27.35 60.19,27.34 60.24,27.32 60.29,27.31 60.34,27.3 60.38,27.28 60.43,27.27 60.48,27.25 60.53,27.24 60.58,27.23 60.63,27.21 60.68,27.2 60.73,27.18 60.78,27.17 60.82,27.15 60.87,27.14 60.92,27.13 60.97,27.11 61.02,27.1 61.07,27.08 " class="primitive"/>
            </g>
          </g>
        </g>
      </g>
    </g>
  </g>
  <g class="guide ylabels" font-size="2.82" font-family="'PT Sans Caption','Helvetica Neue','Helvetica',sans-serif" fill="#6C606B" id="img-1e85fd61-23">
    <g transform="translate(12.81,108.33)" id="img-1e85fd61-24">
      <g class="primitive">
        <text text-anchor="end" dy="0.35em">-0.15</text>
      </g>
    </g>
    <g transform="translate(12.81,74.55)" id="img-1e85fd61-25">
      <g class="primitive">
        <text text-anchor="end" dy="0.35em">-0.10</text>
      </g>
    </g>
    <g transform="translate(12.81,40.78)" id="img-1e85fd61-26">
      <g class="primitive">
        <text text-anchor="end" dy="0.35em">-0.05</text>
      </g>
    </g>
    <g transform="translate(12.81,7)" id="img-1e85fd61-27">
      <g class="primitive">
        <text text-anchor="end" dy="0.35em">0.00</text>
      </g>
    </g>
  </g>
</g>
<defs>
  <clipPath id="img-1e85fd61-3">
    <path d="M13.81,5 L155,5 155,110.33 13.81,110.33 " />
  </clipPath>
</defs>
</svg>
