<?xml version="1.0" encoding="UTF-8"?>
<svg xmlns="http://www.w3.org/2000/svg"
     xmlns:xlink="http://www.w3.org/1999/xlink"
     xmlns:gadfly="http://www.gadflyjl.org/ns"
     version="1.2"
     width="160mm" height="120mm" viewBox="0 0 160 120"
     stroke="none"
     fill="#000000"
     stroke-width="0.3"
     font-size="3.88"
>
<defs>
  <marker id="arrow" markerWidth="15" markerHeight="7" refX="5" refY="3.5" orient="auto" markerUnits="strokeWidth">
    <path d="M0,0 L15,3.5 L0,7 z" stroke="context-stroke" fill="context-stroke"/>
  </marker>
</defs>
<g class="plotroot xscalable yscalable" id="img-1e6a1936-1">
  <g class="guide xlabels" font-size="2.82" font-family="'PT Sans Caption','Helvetica Neue','Helvetica',sans-serif" fill="#6C606B" id="img-1e6a1936-2">
    <g transform="translate(12.35,111.33)">
      <g class="primitive">
        <text text-anchor="middle" dy="0.6em">-0.5</text>
      </g>
    </g>
    <g transform="translate(82.67,111.33)">
      <g class="primitive">
        <text text-anchor="middle" dy="0.6em">0.0</text>
      </g>
    </g>
    <g transform="translate(153,111.33)">
      <g class="primitive">
        <text text-anchor="middle" dy="0.6em">0.5</text>
      </g>
    </g>
  </g>
  <g clip-path="url(#img-1e6a1936-3)">
    <g id="img-1e6a1936-4">
      <g pointer-events="visible" stroke-width="0.3" fill="#000000" fill-opacity="0.000" stroke="#000000" stroke-opacity="0.000" class="guide background" id="img-1e6a1936-5">
        <g transform="translate(82.67,57.66)" id="img-1e6a1936-6">
          <path d="M-72.33,-52.66 L72.33,-52.66 72.33,52.66 -72.33,52.66  z" class="primitive"/>
        </g>
      </g>
      <g class="guide ygridlines xfixed" stroke-dasharray="0.5,0.5" stroke-width="0.2" stroke="#D0D0E0" id="img-1e6a1936-7">
        <g transform="translate(82.67,108.33)" id="img-1e6a1936-8">
          <path fill="none" d="M-72.33,0 L72.33,0 " class="primitive"/>
        </g>
        <g transform="translate(82.67,74.55)" id="img-1e6a1936-9">
          <path fill="none" d="M-72.33,0 L72.33,0 " class="primitive"/>
        </g>
        <g transform="translate(82.67,40.78)" id="img-1e6a1936-10">
          <path fill="none" d="M-72.33,0 L72.33,0 " class="primitive"/>
        </g>
        <g transform="translate(82.67,7)" id="img-1e6a1936-11">
          <path fill="none" d="M-72.33,0 L72.33,0 " class="primitive"/>
        </g>
      </g>
      <g class="guide xgridlines yfixed" stroke-dasharray="0.5,0.5" stroke-width="0.2" stroke="#D0D0E0" id="img-1e6a1936-12">
        <g transform="translate(12.35,57.66)" id="img-1e6a1936-13">
          <path fill="none" d="M0,-52.66 L0,52.66 " class="primitive"/>
        </g>
        <g transform="translate(82.67,57.66)" id="img-1e6a1936-14">
          <path fill="none" d="M0,-52.66 L0,52.66 " class="primitive"/>
        </g>
        <g transform="translate(153,57.66)" id="img-1e6a1936-15">
          <path fill="none" d="M0,-52.66 L0,52.66 " class="primitive"/>
        </g>
      </g>
      <g class="plotpanel" id="img-1e6a1936-16">
        <metadata>
          <boundingbox value="10.346666666666664mm 5.0mm 144.65333333333334mm 105.32666666666665mm"/>
          <unitbox value="-0.5142193572850507 15.296072110007238 1.0284387145701015 -15.592144220014475"/>
        </metadata>
        <g stroke-width="0.3" fill="#000000" fill-opacity="0.000" class="geometry" id="img-1e6a1936-17">
          <g class="color_LCHab{Float32}(70.0f0,60.0f0,240.0f0)" stroke-dasharray="none" stroke="#00BFFF" id="img-1e6a1936-18">
            <g transform="translate(85.29,56.32)" id="img-1e6a1936-19">
              <path fill="none" d="M-66.26,-13.01 L-66.2,-13.05 -66.15,-13.09 -66.1,-13.12 -66.05,-13.16 -65.99,-13.2 -65.94,-13.23 -65.89,-13.27 -65.83,-13.3 -65.78,-13.34 -65.73,-13.38 -65.67,-13.41 -65.62,-13.45 -65.57,-13.48 -65.52,-13.52 -65.46,-13.56 -65.41,-13.59 -65.36,-13.63 -65.3,-13.66 -65.25,-13.7 -65.2,-13.73 -65.14,-13.77 -65.09,-13.8 -65.04,-13.84 -64.99,-13.88 -64.93,-13.91 -64.88,-13.95 -64.83,-13.98 -64.77,-14.02 -64.72,-14.05 -64.67,-14.09 -64.61,-14.12 -64.56,-14.16 -64.51,-14.19 -64.45,-14.23 -64.4,-14.26 -64.35,-14.3 -64.3,-14.33 -64.24,-14.37 -64.19,-14.4 -64.14,-14.44 -64.08,-14.47 -64.03,-14.51 -63.98,-14.54 -63.92,-14.57 -63.87,-14.61 -63.82,-14.64 -63.77,-14.68 -63.71,-14.71 -63.66,-14.75 -63.61,-14.78 -63.55,-14.81 -63.5,-14.85 -63.45,-14.88 -63.39,-14.92 -63.34,-14.95 -63.29,-14.98 -63.24,-15.02 -63.18,-15.05 -63.13,-15.09 -63.08,-15.12 -63.02,-15.15 -62.97,-15.19 -62.92,-15.22 -62.86,-15.25 -62.81,-15.29 -62.76,-15.32 -62.7,-15.36 -62.65,-15.39 -62.6,-15.42 -62.55,-15.46 -62.49,-15.49 -62.44,-15.52 -62.39,-15.55 -62.33,-15.59 -62.28,-15.62 -62.23,-15.65 -62.17,-15.69 -62.12,-15.72 -62.07,-15.75 -62.02,-15.79 -61.96,-15.82 -61.91,-15.85 -61.86,-15.88 -61.8,-15.92 -61.75,-15.95 -61.7,-15.98 -61.64,-16.01 -61.59,-16.05 -61.54,-16.08 -61.49,-16.11 -61.43,-16.14 -61.38,-16.18 -61.33,-16.21 -61.27,-16.24 -61.22,-16.27 -61.17,-16.3 -61.11,-16.34 -61.06,-16.37 -61.01,-16.4 -60.95,-16.43 -60.9,-16.46 -60.85,-16.5 -60.8,-16.53 -60.74,-16.56 -60.69,-16.59 -60.64,-16.62 -60.58,-16.65 -60.53,-16.69 -60.48,-16.72 -60.42,-16.75 -60.37,-16.78 -60.32,-16.81 -60.27,-16.84 -60.21,-16.87 -60.16,-16.9 -60.11,-16.94 -60.05,-16.97 -60,-17 -59.95,-17.03 -59.89,-17.06 -59.84,-17.09 -59.79,-17.12 -59.74,-17.15 -59.68,-17.18 -59.63,-17.21 -59.58,-17.24 -59.52,-17.27 -59.47,-17.3 -59.42,-17.34 -59.36,-17.37 -59.31,-17.4 -59.26,-17.43 -59.21,-17.46 -59.15,-17.49 -59.1,-17.52 -59.05,-17.55 -58.99,-17.58 -58.94,-17.61 -58.89,-17.64 -58.83,-17.67 -58.78,-17.7 -58.73,-17.73 -58.67,-17.76 -58.62,-17.79 -58.57,-17.82 -58.52,-17.84 -58.46,-17.87 -58.41,-17.9 -58.36,-17.93 -58.3,-17.96 -58.25,-17.99 -58.2,-18.02 -58.14,-18.05 -58.09,-18.08 -58.04,-18.11 -57.99,-18.14 -57.93,-18.17 -57.88,-18.2 -57.83,-18.22 -57.77,-18.25 -57.72,-18.28 -57.67,-18.31 -57.61,-18.34 -57.56,-18.37 -57.51,-18.4 -57.46,-18.42 -57.4,-18.45 -57.35,-18.48 -57.3,-18.51 -57.24,-18.54 -57.19,-18.57 -57.14,-18.59 -57.08,-18.62 -57.03,-18.65 -56.98,-18.68 -56.92,-18.71 -56.87,-18.74 -56.82,-18.76 -56.77,-18.79 -56.71,-18.82 -56.66,-18.85 -56.61,-18.87 -56.55,-18.9 -56.5,-18.93 -56.45,-18.96 -56.39,-18.98 -56.34,-19.01 -56.29,-19.04 -56.24,-19.07 -56.18,-19.09 -56.13,-19.12 -56.08,-19.15 -56.02,-19.17 -55.97,-19.2 -55.92,-19.23 -55.86,-19.26 -55.81,-19.28 -55.76,-19.31 -55.71,-19.34 -55.65,-19.36 -55.6,-19.39 -55.55,-19.42 -55.49,-19.44 -55.44,-19.47 -55.39,-19.49 -55.33,-19.52 -55.28,-19.55 -55.23,-19.57 -55.18,-19.6 -55.12,-19.63 -55.07,-19.65 -55.02,-19.68 -54.96,-19.7 -54.91,-19.73 -54.86,-19.76 -54.8,-19.78 -54.75,-19.81 -54.7,-19.83 -54.64,-19.86 -54.59,-19.88 -54.54,-19.91 -54.49,-19.94 -54.43,-19.96 -54.38,-19.99 -54.33,-20.01 -54.27,-20.04 -54.22,-20.06 -54.17,-20.09 -54.11,-20.11 -54.06,-20.14 -54.01,-20.16 -53.96,-20.19 -53.9,-20.21 -53.85,-20.24 -53.8,-20.26 -53.74,-20.29 -53.69,-20.31 -53.64,-20.33 -53.58,-20.36 -53.53,-20.38 -53.48,-20.41 -53.43,-20.43 -53.37,-20.46 -53.32,-20.48 -53.27,-20.5 -53.21,-20.53 -53.16,-20.55 -53.11,-20.58 -53.05,-20.6 -53,-20.62 -52.95,-20.65 -52.89,-20.67 -52.84,-20.7 -52.79,-20.72 -52.74,-20.74 -52.68,-20.77 -52.63,-20.79 -52.58,-20.81 -52.52,-20.84 -52.47,-20.86 -52.42,-20.88 -52.36,-20.91 -52.31,-20.93 -52.26,-20.95 -52.21,-20.98 -52.15,-21 -52.1,-21.02 -52.05,-21.04 -51.99,-21.07 -51.94,-21.09 -51.89,-21.11 -51.83,-21.13 -51.78,-21.16 -51.73,-21.18 -51.68,-21.2 -51.62,-21.22 -51.57,-21.25 -51.52,-21.27 -51.46,-21.29 -51.41,-21.31 -51.36,-21.33 -51.3,-21.36 -51.25,-21.38 -51.2,-21.4 -51.14,-21.42 -51.09,-21.44 -51.04,-21.47 -50.99,-21.49 -50.93,-21.51 -50.88,-21.53 -50.83,-21.55 -50.77,-21.57 -50.72,-21.59 -50.67,-21.62 -50.61,-21.64 -50.56,-21.66 -50.51,-21.68 -50.46,-21.7 -50.4,-21.72 -50.35,-21.74 -50.3,-21.76 -50.24,-21.78 -50.19,-21.8 -50.14,-21.82 -50.08,-21.85 -50.03,-21.87 -49.98,-21.89 -49.93,-21.91 -49.87,-21.93 -49.82,-21.95 -49.77,-21.97 -49.71,-21.99 -49.66,-22.01 -49.61,-22.03 -49.55,-22.05 -49.5,-22.07 -49.45,-22.09 -49.4,-22.11 -49.34,-22.13 -49.29,-22.15 -49.24,-22.17 -49.18,-22.19 -49.13,-22.21 -49.08,-22.22 -49.02,-22.24 -48.97,-22.26 -48.92,-22.28 -48.86,-22.3 -48.81,-22.32 -48.76,-22.34 -48.71,-22.36 -48.65,-22.38 -48.6,-22.4 -48.55,-22.42 -48.49,-22.43 -48.44,-22.45 -48.39,-22.47 -48.33,-22.49 -48.28,-22.51 -48.23,-22.53 -48.18,-22.55 -48.12,-22.56 -48.07,-22.58 -48.02,-22.6 -47.96,-22.62 -47.91,-22.64 -47.86,-22.65 -47.8,-22.67 -47.75,-22.69 -47.7,-22.71 -47.65,-22.73 -47.59,-22.74 -47.54,-22.76 -47.49,-22.78 -47.43,-22.8 -47.38,-22.81 -47.33,-22.83 -47.27,-22.85 -47.22,-22.86 -47.17,-22.88 -47.11,-22.9 -47.06,-22.92 -47.01,-22.93 -46.96,-22.95 -46.9,-22.97 -46.85,-22.98 -46.8,-23 -46.74,-23.02 -46.69,-23.03 -46.64,-23.05 -46.58,-23.07 -46.53,-23.08 -46.48,-23.1 -46.43,-23.12 -46.37,-23.13 -46.32,-23.15 -46.27,-23.16 -46.21,-23.18 -46.16,-23.2 -46.11,-23.21 -46.05,-23.23 -46,-23.24 -45.95,-23.26 -45.9,-23.28 -45.84,-23.29 -45.79,-23.31 -45.74,-23.32 -45.68,-23.34 -45.63,-23.35 -45.58,-23.37 -45.52,-23.38 -45.47,-23.4 -45.42,-23.41 -45.36,-23.43 -45.31,-23.44 -45.26,-23.46 -45.21,-23.47 -45.15,-23.49 -45.1,-23.5 -45.05,-23.52 -44.99,-23.53 -44.94,-23.55 -44.89,-23.56 -44.83,-23.57 -44.78,-23.59 -44.73,-23.6 -44.68,-23.62 -44.62,-23.63 -44.57,-23.64 -44.52,-23.66 -44.46,-23.67 -44.41,-23.69 -44.36,-23.7 -44.3,-23.71 -44.25,-23.73 -44.2,-23.74 -44.15,-23.75 -44.09,-23.77 -44.04,-23.78 -43.99,-23.79 -43.93,-23.81 -43.88,-23.82 -43.83,-23.83 -43.77,-23.85 -43.72,-23.86 -43.67,-23.87 -43.62,-23.89 -43.56,-23.9 -43.51,-23.91 -43.46,-23.92 -43.4,-23.94 -43.35,-23.95 -43.3,-23.96 -43.24,-23.97 -43.19,-23.99 -43.14,-24 -43.08,-24.01 -43.03,-24.02 -42.98,-24.03 -42.93,-24.05 -42.87,-24.06 -42.82,-24.07 -42.77,-24.08 -42.71,-24.09 -42.66,-24.11 -42.61,-24.12 -42.55,-24.13 -42.5,-24.14 -42.45,-24.15 -42.4,-24.16 -42.34,-24.17 -42.29,-24.19 -42.24,-24.2 -42.18,-24.21 -42.13,-24.22 -42.08,-24.23 -42.02,-24.24 -41.97,-24.25 -41.92,-24.26 -41.87,-24.27 -41.81,-24.28 -41.76,-24.29 -41.71,-24.3 -41.65,-24.31 -41.6,-24.32 -41.55,-24.33 -41.49,-24.34 -41.44,-24.35 -41.39,-24.36 -41.33,-24.37 -41.28,-24.38 -41.23,-24.39 -41.18,-24.4 -41.12,-24.41 -41.07,-24.42 -41.02,-24.43 -40.96,-24.44 -40.91,-24.45 -40.86,-24.46 -40.8,-24.47 -40.75,-24.48 -40.7,-24.49 -40.65,-24.5 -40.59,-24.51 -40.54,-24.52 -40.49,-24.53 -40.43,-24.53 -40.38,-24.54 -40.33,-24.55 -40.27,-24.56 -40.22,-24.57 -40.17,-24.58 -40.12,-24.59 -40.06,-24.59 -40.01,-24.6 -39.96,-24.61 -39.9,-24.62 -39.85,-24.63 -39.8,-24.63 -39.74,-24.64 -39.69,-24.65 -39.64,-24.66 -39.58,-24.67 -39.53,-24.67 -39.48,-24.68 -39.43,-24.69 -39.37,-24.7 -39.32,-24.7 -39.27,-24.71 -39.21,-24.72 -39.16,-24.73 -39.11,-24.73 -39.05,-24.74 -39,-24.75 -38.95,-24.75 -38.9,-24.76 -38.84,-24.77 -38.79,-24.77 -38.74,-24.78 -38.68,-24.79 -38.63,-24.79 -38.58,-24.8 -38.52,-24.81 -38.47,-24.81 -38.42,-24.82 -38.37,-24.82 -38.31,-24.83 -38.26,-24.84 -38.21,-24.84 -38.15,-24.85 -38.1,-24.85 -38.05,-24.86 -37.99,-24.87 -37.94,-24.87 -37.89,-24.88 -37.84,-24.88 -37.78,-24.89 -37.73,-24.89 -37.68,-24.9 -37.62,-24.9 -37.57,-24.91 -37.52,-24.91 -37.46,-24.92 -37.41,-24.92 -37.36,-24.93 -37.3,-24.93 -37.25,-24.94 -37.2,-24.94 -37.15,-24.95 -37.09,-24.95 -37.04,-24.96 -36.99,-24.96 -36.93,-24.96 -36.88,-24.97 -36.83,-24.97 -36.77,-24.98 -36.72,-24.98 -36.67,-24.98 -36.62,-24.99 -36.56,-24.99 -36.51,-25 -36.46,-25 -36.4,-25 -36.35,-25.01 -36.3,-25.01 -36.24,-25.01 -36.19,-25.02 -36.14,-25.02 -36.09,-25.02 -36.03,-25.03 -35.98,-25.03 -35.93,-25.03 -35.87,-25.03 -35.82,-25.04 -35.77,-25.04 -35.71,-25.04 -35.66,-25.05 -35.61,-25.05 -35.55,-25.05 -35.5,-25.05 -35.45,-25.06 -35.4,-25.06 -35.34,-25.06 -35.29,-25.06 -35.24,-25.06 -35.18,-25.07 -35.13,-25.07 -35.08,-25.07 -35.02,-25.07 -34.97,-25.07 -34.92,-25.07 -34.87,-25.08 -34.81,-25.08 -34.76,-25.08 -34.71,-25.08 -34.65,-25.08 -34.6,-25.08 -34.55,-25.08 -34.49,-25.09 -34.44,-25.09 -34.39,-25.09 -34.34,-25.09 -34.28,-25.09 -34.23,-25.09 -34.18,-25.09 -34.12,-25.09 -34.07,-25.09 -34.02,-25.09 -33.96,-25.09 -33.91,-25.09 -33.86,-25.09 -33.8,-25.09 -33.75,-25.09 -33.7,-25.09 -33.65,-25.09 -33.59,-25.09 -33.54,-25.09 -33.49,-25.09 -33.43,-25.09 -33.38,-25.09 -33.33,-25.09 -33.27,-25.09 -33.22,-25.09 -33.17,-25.09 -33.12,-25.09 -33.06,-25.09 -33.01,-25.09 -32.96,-25.08 -32.9,-25.08 -32.85,-25.08 -32.8,-25.08 -32.74,-25.08 -32.69,-25.08 -32.64,-25.08 -32.59,-25.08 -32.53,-25.07 -32.48,-25.07 -32.43,-25.07 -32.37,-25.07 -32.32,-25.07 -32.27,-25.07 -32.21,-25.06 -32.16,-25.06 -32.11,-25.06 -32.06,-25.06 -32,-25.05 -31.95,-25.05 -31.9,-25.05 -31.84,-25.05 -31.79,-25.05 -31.74,-25.04 -31.68,-25.04 -31.63,-25.04 -31.58,-25.03 -31.52,-25.03 -31.47,-25.03 -31.42,-25.03 -31.37,-25.02 -31.31,-25.02 -31.26,-25.02 -31.21,-25.01 -31.15,-25.01 -31.1,-25.01 -31.05,-25 -30.99,-25 -30.94,-24.99 -30.89,-24.99 -30.84,-24.99 -30.78,-24.98 -30.73,-24.98 -30.68,-24.98 -30.62,-24.97 -30.57,-24.97 -30.52,-24.96 -30.46,-24.96 -30.41,-24.95 -30.36,-24.95 -30.31,-24.94 -30.25,-24.94 -30.2,-24.94 -30.15,-24.93 -30.09,-24.93 -30.04,-24.92 -29.99,-24.92 -29.93,-24.91 -29.88,-24.91 -29.83,-24.9 -29.77,-24.9 -29.72,-24.89 -29.67,-24.88 -29.62,-24.88 -29.56,-24.87 -29.51,-24.87 -29.46,-24.86 -29.4,-24.86 -29.35,-24.85 -29.3,-24.84 -29.24,-24.84 -29.19,-24.83 -29.14,-24.83 -29.09,-24.82 -29.03,-24.81 -28.98,-24.81 -28.93,-24.8 -28.87,-24.79 -28.82,-24.79 -28.77,-24.78 -28.71,-24.78 -28.66,-24.77 -28.61,-24.76 -28.56,-24.75 -28.5,-24.75 -28.45,-24.74 -28.4,-24.73 -28.34,-24.73 -28.29,-24.72 -28.24,-24.71 -28.18,-24.7 -28.13,-24.7 -28.08,-24.69 -28.02,-24.68 -27.97,-24.67 -27.92,-24.67 -27.87,-24.66 -27.81,-24.65 -27.76,-24.64 -27.71,-24.63 -27.65,-24.63 -27.6,-24.62 -27.55,-24.61 -27.49,-24.6 -27.44,-24.59 -27.39,-24.58 -27.34,-24.58 -27.28,-24.57 -27.23,-24.56 -27.18,-24.55 -27.12,-24.54 -27.07,-24.53 -27.02,-24.52 -26.96,-24.51 -26.91,-24.51 -26.86,-24.5 -26.81,-24.49 -26.75,-24.48 -26.7,-24.47 -26.65,-24.46 -26.59,-24.45 -26.54,-24.44 -26.49,-24.43 -26.43,-24.42 -26.38,-24.41 -26.33,-24.4 -26.28,-24.39 -26.22,-24.38 -26.17,-24.37 -26.12,-24.36 -26.06,-24.35 -26.01,-24.34 -25.96,-24.33 -25.9,-24.32 -25.85,-24.31 -25.8,-24.3 -25.74,-24.29 -25.69,-24.28 -25.64,-24.27 -25.59,-24.25 -25.53,-24.24 -25.48,-24.23 -25.43,-24.22 -25.37,-24.21 -25.32,-24.2 -25.27,-24.19 -25.21,-24.18 -25.16,-24.16 -25.11,-24.15 -25.06,-24.14 -25,-24.13 -24.95,-24.12 -24.9,-24.11 -24.84,-24.09 -24.79,-24.08 -24.74,-24.07 -24.68,-24.06 -24.63,-24.05 -24.58,-24.03 -24.53,-24.02 -24.47,-24.01 -24.42,-24 -24.37,-23.98 -24.31,-23.97 -24.26,-23.96 -24.21,-23.95 -24.15,-23.93 -24.1,-23.92 -24.05,-23.91 -23.99,-23.89 -23.94,-23.88 -23.89,-23.87 -23.84,-23.86 -23.78,-23.84 -23.73,-23.83 -23.68,-23.82 -23.62,-23.8 -23.57,-23.79 -23.52,-23.77 -23.46,-23.76 -23.41,-23.75 -23.36,-23.73 -23.31,-23.72 -23.25,-23.71 -23.2,-23.69 -23.15,-23.68 -23.09,-23.66 -23.04,-23.65 -22.99,-23.63 -22.93,-23.62 -22.88,-23.61 -22.83,-23.59 -22.78,-23.58 -22.72,-23.56 -22.67,-23.55 -22.62,-23.53 -22.56,-23.52 -22.51,-23.5 -22.46,-23.49 -22.4,-23.47 -22.35,-23.46 -22.3,-23.44 -22.24,-23.43 -22.19,-23.41 -22.14,-23.39 -22.09,-23.38 -22.03,-23.36 -21.98,-23.35 -21.93,-23.33 -21.87,-23.32 -21.82,-23.3 -21.77,-23.28 -21.71,-23.27 -21.66,-23.25 -21.61,-23.24 -21.56,-23.22 -21.5,-23.2 -21.45,-23.19 -21.4,-23.17 -21.34,-23.15 -21.29,-23.14 -21.24,-23.12 -21.18,-23.1 -21.13,-23.09 -21.08,-23.07 -21.03,-23.05 -20.97,-23.04 -20.92,-23.02 -20.87,-23 -20.81,-22.98 -20.76,-22.97 -20.71,-22.95 -20.65,-22.93 -20.6,-22.91 -20.55,-22.9 -20.5,-22.88 -20.44,-22.86 -20.39,-22.84 -20.34,-22.83 -20.28,-22.81 -20.23,-22.79 -20.18,-22.77 -20.12,-22.75 -20.07,-22.74 -20.02,-22.72 -19.96,-22.7 -19.91,-22.68 -19.86,-22.66 -19.81,-22.64 -19.75,-22.63 -19.7,-22.61 -19.65,-22.59 -19.59,-22.57 -19.54,-22.55 -19.49,-22.53 -19.43,-22.51 -19.38,-22.49 -19.33,-22.47 -19.28,-22.45 -19.22,-22.43 -19.17,-22.42 -19.12,-22.4 -19.06,-22.38 -19.01,-22.36 -18.96,-22.34 -18.9,-22.32 -18.85,-22.3 -18.8,-22.28 -18.75,-22.26 -18.69,-22.24 -18.64,-22.22 -18.59,-22.2 -18.53,-22.18 -18.48,-22.16 -18.43,-22.14 -18.37,-22.12 -18.32,-22.1 -18.27,-22.08 -18.21,-22.05 -18.16,-22.03 -18.11,-22.01 -18.06,-21.99 -18,-21.97 -17.95,-21.95 -17.9,-21.93 -17.84,-21.91 -17.79,-21.89 -17.74,-21.87 -17.68,-21.84 -17.63,-21.82 -17.58,-21.8 -17.53,-21.78 -17.47,-21.76 -17.42,-21.74 -17.37,-21.72 -17.31,-21.69 -17.26,-21.67 -17.21,-21.65 -17.15,-21.63 -17.1,-21.61 -17.05,-21.58 -17,-21.56 -16.94,-21.54 -16.89,-21.52 -16.84,-21.49 -16.78,-21.47 -16.73,-21.45 -16.68,-21.43 -16.62,-21.4 -16.57,-21.38 -16.52,-21.36 -16.47,-21.34 -16.41,-21.31 -16.36,-21.29 -16.31,-21.27 -16.25,-21.24 -16.2,-21.22 -16.15,-21.2 -16.09,-21.17 -16.04,-21.15 -15.99,-21.13 -15.93,-21.1 -15.88,-21.08 -15.83,-21.06 -15.78,-21.03 -15.72,-21.01 -15.67,-20.98 -15.62,-20.96 -15.56,-20.94 -15.51,-20.91 -15.46,-20.89 -15.4,-20.86 -15.35,-20.84 -15.3,-20.81 -15.25,-20.79 -15.19,-20.77 -15.14,-20.74 -15.09,-20.72 -15.03,-20.69 -14.98,-20.67 -14.93,-20.64 -14.87,-20.62 -14.82,-20.59 -14.77,-20.57 -14.72,-20.54 -14.66,-20.52 -14.61,-20.49 -14.56,-20.47 -14.5,-20.44 -14.45,-20.42 -14.4,-20.39 -14.34,-20.36 -14.29,-20.34 -14.24,-20.31 -14.18,-20.29 -14.13,-20.26 -14.08,-20.24 -14.03,-20.21 -13.97,-20.18 -13.92,-20.16 -13.87,-20.13 -13.81,-20.1 -13.76,-20.08 -13.71,-20.05 -13.65,-20.03 -13.6,-20 -13.55,-19.97 -13.5,-19.95 -13.44,-19.92 -13.39,-19.89 -13.34,-19.87 -13.28,-19.84 -13.23,-19.81 -13.18,-19.79 -13.12,-19.76 -13.07,-19.73 -13.02,-19.7 -12.97,-19.68 -12.91,-19.65 -12.86,-19.62 -12.81,-19.59 -12.75,-19.57 -12.7,-19.54 -12.65,-19.51 -12.59,-19.48 -12.54,-19.46 -12.49,-19.43 -12.43,-19.4 -12.38,-19.37 -12.33,-19.34 -12.28,-19.32 -12.22,-19.29 -12.17,-19.26 -12.12,-19.23 -12.06,-19.2 -12.01,-19.17 -11.96,-19.15 -11.9,-19.12 -11.85,-19.09 -11.8,-19.06 -11.75,-19.03 -11.69,-19 -11.64,-18.97 -11.59,-18.94 -11.53,-18.91 -11.48,-18.89 -11.43,-18.86 -11.37,-18.83 -11.32,-18.8 -11.27,-18.77 -11.22,-18.74 -11.16,-18.71 -11.11,-18.68 -11.06,-18.65 -11,-18.62 -10.95,-18.59 -10.9,-18.56 -10.84,-18.53 -10.79,-18.5 -10.74,-18.47 -10.69,-18.44 -10.63,-18.41 -10.58,-18.38 -10.53,-18.35 -10.47,-18.32 -10.42,-18.29 -10.37,-18.26 -10.31,-18.23 -10.26,-18.2 -10.21,-18.17 -10.15,-18.14 -10.1,-18.11 -10.05,-18.08 -10,-18.05 -9.94,-18.01 -9.89,-17.98 -9.84,-17.95 -9.78,-17.92 -9.73,-17.89 -9.68,-17.86 -9.62,-17.83 -9.57,-17.8 -9.52,-17.76 -9.47,-17.73 -9.41,-17.7 -9.36,-17.67 -9.31,-17.64 -9.25,-17.61 -9.2,-17.57 -9.15,-17.54 -9.09,-17.51 -9.04,-17.48 -8.99,-17.45 -8.94,-17.41 -8.88,-17.38 -8.83,-17.35 -8.78,-17.32 -8.72,-17.29 -8.67,-17.25 -8.62,-17.22 -8.56,-17.19 -8.51,-17.16 -8.46,-17.12 -8.4,-17.09 -8.35,-17.06 -8.3,-17.02 -8.25,-16.99 -8.19,-16.96 -8.14,-16.93 -8.09,-16.89 -8.03,-16.86 -7.98,-16.83 -7.93,-16.79 -7.87,-16.76 -7.82,-16.73 -7.77,-16.69 -7.72,-16.66 -7.66,-16.62 -7.61,-16.59 -7.56,-16.56 -7.5,-16.52 -7.45,-16.49 -7.4,-16.46 -7.34,-16.42 -7.29,-16.39 -7.24,-16.35 -7.19,-16.32 -7.13,-16.29 -7.08,-16.25 -7.03,-16.22 -6.97,-16.18 -6.92,-16.15 -6.87,-16.11 -6.81,-16.08 -6.76,-16.04 -6.71,-16.01 -6.65,-15.98 -6.6,-15.94 -6.55,-15.91 -6.5,-15.87 -6.44,-15.84 -6.39,-15.8 -6.34,-15.77 -6.28,-15.73 -6.23,-15.69 -6.18,-15.66 -6.12,-15.62 -6.07,-15.59 -6.02,-15.55 -5.97,-15.52 -5.91,-15.48 -5.86,-15.45 -5.81,-15.41 -5.75,-15.38 -5.7,-15.34 -5.65,-15.3 -5.59,-15.27 -5.54,-15.23 -5.49,-15.2 -5.44,-15.16 -5.38,-15.12 -5.33,-15.09 -5.28,-15.05 -5.22,-15.01 -5.17,-14.98 -5.12,-14.94 -5.06,-14.91 -5.01,-14.87 -4.96,-14.83 -4.91,-14.8 -4.85,-14.76 -4.8,-14.72 -4.75,-14.69 -4.69,-14.65 -4.64,-14.61 -4.59,-14.57 -4.53,-14.54 -4.48,-14.5 -4.43,-14.46 -4.37,-14.43 -4.32,-14.39 -4.27,-14.35 -4.22,-14.31 -4.16,-14.28 -4.11,-14.24 -4.06,-14.2 -4,-14.16 -3.95,-14.13 -3.9,-14.09 -3.84,-14.05 -3.79,-14.01 -3.74,-13.97 -3.69,-13.94 -3.63,-13.9 -3.58,-13.86 -3.53,-13.82 -3.47,-13.78 -3.42,-13.75 -3.37,-13.71 -3.31,-13.67 -3.26,-13.63 -3.21,-13.59 -3.16,-13.55 -3.1,-13.51 -3.05,-13.48 -3,-13.44 -2.94,-13.4 -2.89,-13.36 -2.84,-13.32 -2.78,-13.28 -2.73,-13.24 -2.68,-13.2 -2.62,-13.16 -2.57,-13.13 -2.52,-13.09 -2.47,-13.05 -2.41,-13.01 -2.36,-12.97 -2.31,-12.93 -2.25,-12.89 -2.2,-12.85 -2.15,-12.81 -2.09,-12.77 -2.04,-12.73 -1.99,-12.69 -1.94,-12.65 -1.88,-12.61 -1.83,-12.57 -1.78,-12.53 -1.72,-12.49 -1.67,-12.45 -1.62,-12.41 -1.56,-12.37 -1.51,-12.33 -1.46,-12.29 -1.41,-12.25 -1.35,-12.21 -1.3,-12.17 -1.25,-12.13 -1.19,-12.09 -1.14,-12.05 -1.09,-12.01 -1.03,-11.97 -0.98,-11.93 -0.93,-11.89 -0.87,-11.84 -0.82,-11.8 -0.77,-11.76 -0.72,-11.72 -0.66,-11.68 -0.61,-11.64 -0.56,-11.6 -0.5,-11.56 -0.45,-11.52 -0.4,-11.47 -0.34,-11.43 -0.29,-11.39 -0.24,-11.35 -0.19,-11.31 -0.13,-11.27 -0.08,-11.23 -0.03,-11.18 0.03,-11.14 0.08,-11.1 0.13,-11.06 0.19,-11.02 0.24,-10.97 0.29,-10.93 0.34,-10.89 0.4,-10.85 0.45,-10.81 0.5,-10.76 0.56,-10.72 0.61,-10.68 0.66,-10.64 0.72,-10.59 0.77,-10.55 0.82,-10.51 0.87,-10.47 0.93,-10.42 0.98,-10.38 1.03,-10.34 1.09,-10.3 1.14,-10.25 1.19,-10.21 1.25,-10.17 1.3,-10.12 1.35,-10.08 1.41,-10.04 1.46,-10 1.51,-9.95 1.56,-9.91 1.62,-9.87 1.67,-9.82 1.72,-9.78 1.78,-9.74 1.83,-9.69 1.88,-9.65 1.94,-9.6 1.99,-9.56 2.04,-9.52 2.09,-9.47 2.15,-9.43 2.2,-9.39 2.25,-9.34 2.31,-9.3 2.36,-9.25 2.41,-9.21 2.47,-9.17 2.52,-9.12 2.57,-9.08 2.62,-9.03 2.68,-8.99 2.73,-8.95 2.78,-8.9 2.84,-8.86 2.89,-8.81 2.94,-8.77 3,-8.72 3.05,-8.68 3.1,-8.63 3.16,-8.59 3.21,-8.55 3.26,-8.5 3.31,-8.46 3.37,-8.41 3.42,-8.37 3.47,-8.32 3.53,-8.28 3.58,-8.23 3.63,-8.19 3.69,-8.14 3.74,-8.1 3.79,-8.05 3.84,-8.01 3.9,-7.96 3.95,-7.91 4,-7.87 4.06,-7.82 4.11,-7.78 4.16,-7.73 4.22,-7.69 4.27,-7.64 4.32,-7.6 4.37,-7.55 4.43,-7.5 4.48,-7.46 4.53,-7.41 4.59,-7.37 4.64,-7.32 4.69,-7.27 4.75,-7.23 4.8,-7.18 4.85,-7.14 4.91,-7.09 4.96,-7.04 5.01,-7 5.06,-6.95 5.12,-6.91 5.17,-6.86 5.22,-6.81 5.28,-6.77 5.33,-6.72 5.38,-6.67 5.44,-6.63 5.49,-6.58 5.54,-6.53 5.59,-6.49 5.65,-6.44 5.7,-6.39 5.75,-6.35 5.81,-6.3 5.86,-6.25 5.91,-6.21 5.97,-6.16 6.02,-6.11 6.07,-6.06 6.12,-6.02 6.18,-5.97 6.23,-5.92 6.28,-5.88 6.34,-5.83 6.39,-5.78 6.44,-5.73 6.5,-5.69 6.55,-5.64 6.6,-5.59 6.65,-5.54 6.71,-5.5 6.76,-5.45 6.81,-5.4 6.87,-5.35 6.92,-5.3 6.97,-5.26 7.03,-5.21 7.08,-5.16 7.13,-5.11 7.19,-5.06 7.24,-5.02 7.29,-4.97 7.34,-4.92 7.4,-4.87 7.45,-4.82 7.5,-4.78 7.56,-4.73 7.61,-4.68 7.66,-4.63 7.72,-4.58 7.77,-4.53 7.82,-4.49 7.87,-4.44 7.93,-4.39 7.98,-4.34 8.03,-4.29 8.09,-4.24 8.14,-4.19 8.19,-4.15 8.25,-4.1 8.3,-4.05 8.35,-4 8.4,-3.95 8.46,-3.9 8.51,-3.85 8.56,-3.8 8.62,-3.75 8.67,-3.71 8.72,-3.66 8.78,-3.61 8.83,-3.56 8.88,-3.51 8.94,-3.46 8.99,-3.41 9.04,-3.36 9.09,-3.31 9.15,-3.26 9.2,-3.21 9.25,-3.16 9.31,-3.11 9.36,-3.06 9.41,-3.01 9.47,-2.96 9.52,-2.91 9.57,-2.87 9.62,-2.82 9.68,-2.77 9.73,-2.72 9.78,-2.67 9.84,-2.62 9.89,-2.57 9.94,-2.52 10,-2.47 10.05,-2.42 10.1,-2.37 10.15,-2.32 10.21,-2.27 10.26,-2.22 10.31,-2.17 10.37,-2.12 10.42,-2.06 10.47,-2.01 10.53,-1.96 10.58,-1.91 10.63,-1.86 10.69,-1.81 10.74,-1.76 10.79,-1.71 10.84,-1.66 10.9,-1.61 10.95,-1.56 11,-1.51 11.06,-1.46 11.11,-1.41 11.16,-1.36 11.22,-1.31 11.27,-1.26 11.32,-1.2 11.37,-1.15 11.43,-1.1 11.48,-1.05 11.53,-1 11.59,-0.95 11.64,-0.9 11.69,-0.85 11.75,-0.8 11.8,-0.75 11.85,-0.69 11.9,-0.64 11.96,-0.59 12.01,-0.54 12.06,-0.49 12.12,-0.44 12.17,-0.39 12.22,-0.34 12.28,-0.28 12.33,-0.23 12.38,-0.18 12.43,-0.13 12.49,-0.08 12.54,-0.03 12.59,0.03 12.65,0.08 12.7,0.13 12.75,0.18 12.81,0.23 12.86,0.28 12.91,0.34 12.97,0.39 13.02,0.44 13.07,0.49 13.12,0.54 13.18,0.6 13.23,0.65 13.28,0.7 13.34,0.75 13.39,0.8 13.44,0.86 13.5,0.91 13.55,0.96 13.6,1.01 13.65,1.06 13.71,1.12 13.76,1.17 13.81,1.22 13.87,1.27 13.92,1.33 13.97,1.38 14.03,1.43 14.08,1.48 14.13,1.54 14.18,1.59 14.24,1.64 14.29,1.69 14.34,1.75 14.4,1.8 14.45,1.85 14.5,1.9 14.56,1.96 14.61,2.01 14.66,2.06 14.72,2.12 14.77,2.17 14.82,2.22 14.87,2.27 14.93,2.33 14.98,2.38 15.03,2.43 15.09,2.49 15.14,2.54 15.19,2.59 15.25,2.65 15.3,2.7 15.35,2.75 15.4,2.8 15.46,2.86 15.51,2.91 15.56,2.96 15.62,3.02 15.67,3.07 15.72,3.12 15.78,3.18 15.83,3.23 15.88,3.28 15.93,3.34 15.99,3.39 16.04,3.44 16.09,3.5 16.15,3.55 16.2,3.6 16.25,3.66 16.31,3.71 16.36,3.77 16.41,3.82 16.47,3.87 16.52,3.93 16.57,3.98 16.62,4.03 16.68,4.09 16.73,4.14 16.78,4.2 16.84,4.25 16.89,4.3 16.94,4.36 17,4.41 17.05,4.46 17.1,4.52 17.15,4.57 17.21,4.63 17.26,4.68 17.31,4.73 17.37,4.79 17.42,4.84 17.47,4.9 17.53,4.95 17.58,5 17.63,5.06 17.68,5.11 17.74,5.17 17.79,5.22 17.84,5.28 17.9,5.33 17.95,5.38 18,5.44 18.06,5.49 18.11,5.55 18.16,5.6 18.21,5.66 18.27,5.71 18.32,5.76 18.37,5.82 18.43,5.87 18.48,5.93 18.53,5.98 18.59,6.04 18.64,6.09 18.69,6.15 18.75,6.2 18.8,6.26 18.85,6.31 18.9,6.36 18.96,6.42 19.01,6.47 19.06,6.53 19.12,6.58 19.17,6.64 19.22,6.69 19.28,6.75 19.33,6.8 19.38,6.86 19.43,6.91 19.49,6.97 19.54,7.02 19.59,7.08 19.65,7.13 19.7,7.19 19.75,7.24 19.81,7.3 19.86,7.35 19.91,7.41 19.96,7.46 20.02,7.52 20.07,7.57 20.12,7.63 20.18,7.68 20.23,7.74 20.28,7.79 20.34,7.85 20.39,7.9 20.44,7.96 20.5,8.01 20.55,8.07 20.6,8.12 20.65,8.18 20.71,8.23 20.76,8.29 20.81,8.34 20.87,8.4 20.92,8.45 20.97,8.51 21.03,8.56 21.08,8.62 21.13,8.67 21.18,8.73 21.24,8.78 21.29,8.84 21.34,8.9 21.4,8.95 21.45,9.01 21.5,9.06 21.56,9.12 21.61,9.17 21.66,9.23 21.71,9.28 21.77,9.34 21.82,9.39 21.87,9.45 21.93,9.51 21.98,9.56 22.03,9.62 22.09,9.67 22.14,9.73 22.19,9.78 22.24,9.84 22.3,9.89 22.35,9.95 22.4,10.01 22.46,10.06 22.51,10.12 22.56,10.17 22.62,10.23 22.67,10.28 22.72,10.34 22.78,10.4 22.83,10.45 22.88,10.51 22.93,10.56 22.99,10.62 23.04,10.67 23.09,10.73 23.15,10.79 23.2,10.84 23.25,10.9 23.31,10.95 23.36,11.01 23.41,11.07 23.46,11.12 23.52,11.18 23.57,11.23 23.62,11.29 23.68,11.34 23.73,11.4 23.78,11.46 23.84,11.51 23.89,11.57 23.94,11.62 23.99,11.68 24.05,11.74 24.1,11.79 24.15,11.85 24.21,11.9 24.26,11.96 24.31,12.02 24.37,12.07 24.42,12.13 24.47,12.18 24.53,12.24 24.58,12.3 24.63,12.35 24.68,12.41 24.74,12.46 24.79,12.52 24.84,12.58 24.9,12.63 24.95,12.69 25,12.74 25.06,12.8 25.11,12.86 25.16,12.91 25.21,12.97 25.27,13.02 25.32,13.08 25.37,13.14 25.43,13.19 25.48,13.25 25.53,13.31 25.59,13.36 25.64,13.42 25.69,13.47 25.74,13.53 25.8,13.59 25.85,13.64 25.9,13.7 25.96,13.75 26.01,13.81 26.06,13.87 26.12,13.92 26.17,13.98 26.22,14.04 26.28,14.09 26.33,14.15 26.38,14.2 26.43,14.26 26.49,14.32 26.54,14.37 26.59,14.43 26.65,14.49 26.7,14.54 26.75,14.6 26.81,14.65 26.86,14.71 26.91,14.77 26.96,14.82 27.02,14.88 27.07,14.94 27.12,14.99 27.18,15.05 27.23,15.1 27.28,15.16 27.34,15.22 27.39,15.27 27.44,15.33 27.49,15.39 27.55,15.44 27.6,15.5 27.65,15.55 27.71,15.61 27.76,15.67 27.81,15.72 27.87,15.78 27.92,15.84 27.97,15.89 28.02,15.95 28.08,16 28.13,16.06 28.18,16.12 28.24,16.17 28.29,16.23 28.34,16.29 28.4,16.34 28.45,16.4 28.5,16.45 28.56,16.51 28.61,16.57 28.66,16.62 28.71,16.68 28.77,16.74 28.82,16.79 28.87,16.85 28.93,16.9 28.98,16.96 29.03,17.02 29.09,17.07 29.14,17.13 29.19,17.19 29.24,17.24 29.3,17.3 29.35,17.35 29.4,17.41 29.46,17.47 29.51,17.52 29.56,17.58 29.62,17.64 29.67,17.69 29.72,17.75 29.77,17.8 29.83,17.86 29.88,17.92 29.93,17.97 29.99,18.03 30.04,18.08 30.09,18.14 30.15,18.2 30.2,18.25 30.25,18.31 30.31,18.37 30.36,18.42 30.41,18.48 30.46,18.53 30.52,18.59 30.57,18.65 30.62,18.7 30.68,18.76 30.73,18.81 30.78,18.87 30.84,18.93 30.89,18.98 30.94,19.04 30.99,19.1 31.05,19.15 31.1,19.21 31.15,19.26 31.21,19.32 31.26,19.38 31.31,19.43 31.37,19.49 31.42,19.54 31.47,19.6 31.52,19.66 31.58,19.71 31.63,19.77 31.68,19.82 31.74,19.88 31.79,19.94 31.84,19.99 31.9,20.05 31.95,20.1 32,20.16 32.06,20.22 32.11,20.27 32.16,20.33 32.21,20.38 32.27,20.44 32.32,20.49 32.37,20.55 32.43,20.61 32.48,20.66 32.53,20.72 32.59,20.77 32.64,20.83 32.69,20.89 32.74,20.94 32.8,21 32.85,21.05 32.9,21.11 32.96,21.16 33.01,21.22 33.06,21.28 33.12,21.33 33.17,21.39 33.22,21.44 33.27,21.5 33.33,21.55 33.38,21.61 33.43,21.67 33.49,21.72 33.54,21.78 33.59,21.83 33.65,21.89 33.7,21.94 33.75,22 33.8,22.05 33.86,22.11 33.91,22.17 33.96,22.22 34.02,22.28 34.07,22.33 34.12,22.39 34.18,22.44 34.23,22.5 34.28,22.55 34.34,22.61 34.39,22.67 34.44,22.72 34.49,22.78 34.55,22.83 34.6,22.89 34.65,22.94 34.71,23 34.76,23.05 34.81,23.11 34.87,23.16 34.92,23.22 34.97,23.27 35.02,23.33 35.08,23.38 35.13,23.44 35.18,23.5 35.24,23.55 35.29,23.61 35.34,23.66 35.4,23.72 35.45,23.77 35.5,23.83 35.55,23.88 35.61,23.94 35.66,23.99 35.71,24.05 35.77,24.1 35.82,24.16 35.87,24.21 35.93,24.27 35.98,24.32 36.03,24.38 36.09,24.43 36.14,24.49 36.19,24.54 36.24,24.6 36.3,24.65 36.35,24.71 36.4,24.76 36.46,24.82 36.51,24.87 36.56,24.92 36.62,24.98 36.67,25.03 36.72,25.09 36.77,25.14 36.83,25.2 36.88,25.25 36.93,25.31 36.99,25.36 37.04,25.42 37.09,25.47 37.15,25.53 37.2,25.58 37.25,25.64 37.3,25.69 37.36,25.74 37.41,25.8 37.46,25.85 37.52,25.91 37.57,25.96 37.62,26.02 37.68,26.07 37.73,26.12 37.78,26.18 37.84,26.23 37.89,26.29 37.94,26.34 37.99,26.4 38.05,26.45 38.1,26.5 38.15,26.56 38.21,26.61 38.26,26.67 38.31,26.72 38.37,26.78 38.42,26.83 38.47,26.88 38.52,26.94 38.58,26.99 38.63,27.05 38.68,27.1 38.74,27.15 38.79,27.21 38.84,27.26 38.9,27.31 38.95,27.37 39,27.42 39.05,27.48 39.11,27.53 39.16,27.58 39.21,27.64 39.27,27.69 39.32,27.74 39.37,27.8 39.43,27.85 39.48,27.91 39.53,27.96 39.58,28.01 39.64,28.07 39.69,28.12 39.74,28.17 39.8,28.23 39.85,28.28 39.9,28.33 39.96,28.39 40.01,28.44 40.06,28.49 40.12,28.55 40.17,28.6 40.22,28.65 40.27,28.71 40.33,28.76 40.38,28.81 40.43,28.87 40.49,28.92 40.54,28.97 40.59,29.03 40.65,29.08 40.7,29.13 40.75,29.18 40.8,29.24 40.86,29.29 40.91,29.34 40.96,29.4 41.02,29.45 41.07,29.5 41.12,29.55 41.18,29.61 41.23,29.66 41.28,29.71 41.33,29.77 41.39,29.82 41.44,29.87 41.49,29.92 41.55,29.98 41.6,30.03 41.65,30.08 41.71,30.13 41.76,30.19 41.81,30.24 41.87,30.29 41.92,30.34 41.97,30.39 42.02,30.45 42.08,30.5 42.13,30.55 42.18,30.6 42.24,30.66 42.29,30.71 42.34,30.76 42.4,30.81 42.45,30.86 42.5,30.92 42.55,30.97 42.61,31.02 42.66,31.07 42.71,31.12 42.77,31.18 42.82,31.23 42.87,31.28 42.93,31.33 42.98,31.38 43.03,31.43 43.08,31.49 43.14,31.54 43.19,31.59 43.24,31.64 43.3,31.69 43.35,31.74 43.4,31.8 43.46,31.85 43.51,31.9 43.56,31.95 43.62,32 43.67,32.05 43.72,32.1 43.77,32.15 43.83,32.21 43.88,32.26 43.93,32.31 43.99,32.36 44.04,32.41 44.09,32.46 44.15,32.51 44.2,32.56 44.25,32.61 44.3,32.67 44.36,32.72 44.41,32.77 44.46,32.82 44.52,32.87 44.57,32.92 44.62,32.97 44.68,33.02 44.73,33.07 44.78,33.12 44.83,33.17 44.89,33.22 44.94,33.27 44.99,33.32 45.05,33.37 45.1,33.42 45.15,33.47 45.21,33.53 45.26,33.58 45.31,33.63 45.36,33.68 45.42,33.73 45.47,33.78 45.52,33.83 45.58,33.88 45.63,33.93 45.68,33.98 45.74,34.03 45.79,34.08 45.84,34.13 45.9,34.18 45.95,34.23 46,34.28 46.05,34.32 46.11,34.37 46.16,34.42 46.21,34.47 46.27,34.52 46.32,34.57 46.37,34.62 46.43,34.67 46.48,34.72 46.53,34.77 46.58,34.82 46.64,34.87 46.69,34.92 46.74,34.97 46.8,35.02 46.85,35.07 46.9,35.11 46.96,35.16 47.01,35.21 47.06,35.26 47.11,35.31 47.17,35.36 47.22,35.41 47.27,35.46 47.33,35.51 47.38,35.55 47.43,35.6 47.49,35.65 47.54,35.7 47.59,35.75 47.65,35.8 47.7,35.85 47.75,35.89 47.8,35.94 47.86,35.99 47.91,36.04 47.96,36.09 48.02,36.14 48.07,36.18 48.12,36.23 48.18,36.28 48.23,36.33 48.28,36.38 48.33,36.42 48.39,36.47 48.44,36.52 48.49,36.57 48.55,36.62 48.6,36.66 48.65,36.71 48.71,36.76 48.76,36.81 48.81,36.85 48.86,36.9 48.92,36.95 48.97,37 49.02,37.04 49.08,37.09 49.13,37.14 49.18,37.19 49.24,37.23 49.29,37.28 49.34,37.33 49.4,37.37 49.45,37.42 49.5,37.47 49.55,37.52 49.61,37.56 49.66,37.61 49.71,37.66 49.77,37.7 49.82,37.75 49.87,37.8 49.93,37.84 49.98,37.89 50.03,37.94 50.08,37.98 50.14,38.03 50.19,38.08 50.24,38.12 50.3,38.17 50.35,38.22 50.4,38.26 50.46,38.31 50.51,38.35 50.56,38.4 50.61,38.45 50.67,38.49 50.72,38.54 50.77,38.58 50.83,38.63 50.88,38.68 50.93,38.72 50.99,38.77 51.04,38.81 51.09,38.86 51.14,38.9 51.2,38.95 51.25,38.99 51.3,39.04 51.36,39.09 51.41,39.13 51.46,39.18 51.52,39.22 51.57,39.27 51.62,39.31 51.68,39.36 51.73,39.4 51.78,39.45 51.83,39.49 51.89,39.54 51.94,39.58 51.99,39.63 52.05,39.67 52.1,39.72 52.15,39.76 52.21,39.81 52.26,39.85 52.31,39.89 52.36,39.94 52.42,39.98 52.47,40.03 52.52,40.07 52.58,40.12 52.63,40.16 52.68,40.2 52.74,40.25 52.79,40.29 52.84,40.34 52.89,40.38 52.95,40.42 53,40.47 53.05,40.51 53.11,40.56 53.16,40.6 53.21,40.64 53.27,40.69 53.32,40.73 53.37,40.77 53.43,40.82 53.48,40.86 53.53,40.9 53.58,40.95 53.64,40.99 53.69,41.03 53.74,41.08 53.8,41.12 53.85,41.16 53.9,41.21 53.96,41.25 54.01,41.29 54.06,41.34 54.11,41.38 54.17,41.42 54.22,41.46 54.27,41.51 54.33,41.55 54.38,41.59 54.43,41.63 54.49,41.68 54.54,41.72 54.59,41.76 54.64,41.8 54.7,41.85 54.75,41.89 54.8,41.93 54.86,41.97 54.91,42.01 54.96,42.06 55.02,42.1 55.07,42.14 55.12,42.18 55.18,42.22 55.23,42.26 55.28,42.31 55.33,42.35 55.39,42.39 55.44,42.43 55.49,42.47 55.55,42.51 55.6,42.55 55.65,42.6 55.71,42.64 55.76,42.68 55.81,42.72 55.86,42.76 55.92,42.8 55.97,42.84 56.02,42.88 56.08,42.92 56.13,42.96 56.18,43 56.24,43.05 56.29,43.09 56.34,43.13 56.39,43.17 56.45,43.21 56.5,43.25 56.55,43.29 56.61,43.33 56.66,43.37 56.71,43.41 56.77,43.45 56.82,43.49 56.87,43.53 56.92,43.57 56.98,43.61 57.03,43.65 57.08,43.69 57.14,43.73 57.19,43.77 57.24,43.81 57.3,43.85 57.35,43.88 57.4,43.92 57.46,43.96 57.51,44 57.56,44.04 57.61,44.08 57.67,44.12 57.72,44.16 57.77,44.2 57.83,44.24 57.88,44.28 57.93,44.31 57.99,44.35 58.04,44.39 58.09,44.43 58.14,44.47 58.2,44.51 58.25,44.55 58.3,44.58 58.36,44.62 58.41,44.66 58.46,44.7 58.52,44.74 58.57,44.77 58.62,44.81 58.67,44.85 58.73,44.89 58.78,44.93 58.83,44.96 58.89,45 58.94,45.04 58.99,45.08 59.05,45.11 59.1,45.15 59.15,45.19 59.21,45.23 59.26,45.26 59.31,45.3 59.36,45.34 59.42,45.38 59.47,45.41 59.52,45.45 59.58,45.49 59.63,45.52 59.68,45.56 59.74,45.6 59.79,45.63 59.84,45.67 59.89,45.71 59.95,45.74 60,45.78 60.05,45.82 60.11,45.85 60.16,45.89 60.21,45.92 60.27,45.96 60.32,46 60.37,46.03 60.42,46.07 60.48,46.1 60.53,46.14 60.58,46.18 60.64,46.21 60.69,46.25 60.74,46.28 60.8,46.32 60.85,46.35 60.9,46.39 60.95,46.42 61.01,46.46 61.06,46.49 61.11,46.53 61.17,46.57 61.22,46.6 61.27,46.63 61.33,46.67 61.38,46.7 61.43,46.74 61.49,46.77 61.54,46.81 61.59,46.84 61.64,46.88 61.7,46.91 61.75,46.95 61.8,46.98 61.86,47.01 61.91,47.05 61.96,47.08 62.02,47.12 62.07,47.15 62.12,47.18 62.17,47.22 62.23,47.25 62.28,47.29 62.33,47.32 62.39,47.35 62.44,47.39 62.49,47.42 62.55,47.45 62.6,47.49 62.65,47.52 62.7,47.55 62.76,47.59 62.81,47.62 62.86,47.65 62.92,47.69 62.97,47.72 63.02,47.75 63.08,47.78 63.13,47.82 63.18,47.85 63.24,47.88 63.29,47.91 63.34,47.95 63.39,47.98 63.45,48.01 63.5,48.04 63.55,48.08 63.61,48.11 63.66,48.14 63.71,48.17 63.77,48.2 63.82,48.24 63.87,48.27 63.92,48.3 63.98,48.33 64.03,48.36 64.08,48.39 64.14,48.42 64.19,48.46 64.24,48.49 64.3,48.52 64.35,48.55 64.4,48.58 64.45,48.61 64.51,48.64 64.56,48.67 64.61,48.7 64.67,48.74 64.72,48.77 64.77,48.8 64.83,48.83 64.88,48.86 64.93,48.89 64.99,48.92 65.04,48.95 65.09,48.98 65.14,49.01 65.2,49.04 65.25,49.07 65.3,49.1 65.36,49.13 65.41,49.16 65.46,49.19 65.52,49.22 65.57,49.25 65.62,49.28 65.67,49.31 65.73,49.34 65.78,49.37 65.83,49.39 65.89,49.42 65.94,49.45 65.99,49.48 66.05,49.51 66.1,49.54 66.15,49.57 66.2,49.6 66.26,49.63 " class="primitive"/>
            </g>
          </g>
        </g>
      </g>
    </g>
  </g>
  <g class="guide ylabels" font-size="2.82" font-family="'PT Sans Caption','Helvetica Neue','Helvetica',sans-serif" fill="#6C606B" id="img-1e6a1936-20">
    <g transform="translate(9.35,108.33)" id="img-1e6a1936-21">
      <g class="primitive">
        <text text-anchor="end" dy="0.35em">0</text>
      </g>
    </g>
    <g transform="translate(9.35,74.55)" id="img-1e6a1936-22">
      <g class="primitive">
        <text text-anchor="end" dy="0.35em">5</text>
      </g>
    </g>
    <g transform="translate(9.35,40.78)" id="img-1e6a1936-23">
      <g class="primitive">
        <text text-anchor="end" dy="0.35em">10</text>
      </g>
    </g>
    <g transform="translate(9.35,7)" id="img-1e6a1936-24">
      <g class="primitive">
        <text text-anchor="end" dy="0.35em">15</text>
      </g>
    </g>
  </g>
</g>
<defs>
  <clipPath id="img-1e6a1936-3">
    <path d="M10.35,5 L155,5 155,110.33 10.35,110.33 " />
  </clipPath>
</defs>
</svg>
